^D:\OSIPOV\BITBUCKET\GAP-275-01-PROGRAMMING-FOR-GAMES-2\MODULE_12\OPENGLDEMO\MAIN.CPP
D:\OSIPOV\BITBUCKET\GAP-275-01-PROGRAMMING-FOR-GAMES-2\MODULE_12\OPENGLDEMO\DEBUG\VC120.PDB
D:\OSIPOV\BITBUCKET\GAP-275-01-PROGRAMMING-FOR-GAMES-2\MODULE_12\OPENGLDEMO\DEBUG\VC120.IDB
D:\OSIPOV\BITBUCKET\GAP-275-01-PROGRAMMING-FOR-GAMES-2\MODULE_12\OPENGLDEMO\DEBUG\MAIN.OBJ
^D:\OSIPOV\BITBUCKET\GAP-275-01-PROGRAMMING-FOR-GAMES-2\MODULE_13\OPENGLDEMO\MAIN.CPP
D:\OSIPOV\BITBUCKET\GAP-275-01-PROGRAMMING-FOR-GAMES-2\MODULE_13\OPENGLDEMO\DEBUG\VC120.PDB
D:\OSIPOV\BITBUCKET\GAP-275-01-PROGRAMMING-FOR-GAMES-2\MODULE_13\OPENGLDEMO\DEBUG\VC120.IDB
D:\OSIPOV\BITBUCKET\GAP-275-01-PROGRAMMING-FOR-GAMES-2\MODULE_13\OPENGLDEMO\DEBUG\MAIN.OBJ
