^D:\OSIPOV\PROGRAMMINGII\GAP-275-01-PROGRAMMING-FOR-GAMES-2\MODULE_4\CLASSPROJECT\MEMORYGAME\MEMORYGAME\MEMORYGAME.CPP
D:\OSIPOV\PROGRAMMINGII\GAP-275-01-PROGRAMMING-FOR-GAMES-2\MODULE_4\CLASSPROJECT\MEMORYGAME\MEMORYGAME\MEMORYGAME.H
C:\PROGRAM FILES (X86)\WINDOWS KITS\8.1\INCLUDE\UM\WINDOWS.H
C:\PROGRAM FILES (X86)\WINDOWS KITS\8.1\INCLUDE\SHARED\WINAPIFAMILY.H
C:\PROGRAM FILES (X86)\WINDOWS KITS\8.1\INCLUDE\SHARED\SDKDDKVER.H
C:\PROGRAM FILES (X86)\MICROSOFT VISUAL STUDIO 12.0\VC\INCLUDE\EXCPT.H
C:\PROGRAM FILES (X86)\MICROSOFT VISUAL STUDIO 12.0\VC\INCLUDE\CRTDEFS.H
C:\PROGRAM FILES (X86)\MICROSOFT VISUAL STUDIO 12.0\VC\INCLUDE\SAL.H
C:\PROGRAM FILES (X86)\MICROSOFT VISUAL STUDIO 12.0\VC\INCLUDE\CONCURRENCYSAL.H
C:\PROGRAM FILES (X86)\MICROSOFT VISUAL STUDIO 12.0\VC\INCLUDE\VADEFS.H
C:\PROGRAM FILES (X86)\MICROSOFT VISUAL STUDIO 12.0\VC\INCLUDE\STDARG.H
C:\PROGRAM FILES (X86)\WINDOWS KITS\8.1\INCLUDE\SHARED\WINDEF.H
C:\PROGRAM FILES (X86)\WINDOWS KITS\8.1\INCLUDE\SHARED\MINWINDEF.H
C:\PROGRAM FILES (X86)\WINDOWS KITS\8.1\INCLUDE\SHARED\SPECSTRINGS.H
C:\PROGRAM FILES (X86)\WINDOWS KITS\8.1\INCLUDE\SHARED\SPECSTRINGS_STRICT.H
C:\PROGRAM FILES (X86)\WINDOWS KITS\8.1\INCLUDE\SHARED\SPECSTRINGS_UNDEF.H
C:\PROGRAM FILES (X86)\WINDOWS KITS\8.1\INCLUDE\SHARED\DRIVERSPECS.H
C:\PROGRAM FILES (X86)\WINDOWS KITS\8.1\INCLUDE\SHARED\SDV_DRIVERSPECS.H
C:\PROGRAM FILES (X86)\WINDOWS KITS\8.1\INCLUDE\UM\WINNT.H
C:\PROGRAM FILES (X86)\MICROSOFT VISUAL STUDIO 12.0\VC\INCLUDE\CTYPE.H
C:\PROGRAM FILES (X86)\WINDOWS KITS\8.1\INCLUDE\SHARED\KERNELSPECS.H
C:\PROGRAM FILES (X86)\WINDOWS KITS\8.1\INCLUDE\SHARED\BASETSD.H
C:\PROGRAM FILES (X86)\WINDOWS KITS\8.1\INCLUDE\SHARED\GUIDDEF.H
C:\PROGRAM FILES (X86)\MICROSOFT VISUAL STUDIO 12.0\VC\INCLUDE\STRING.H
C:\PROGRAM FILES (X86)\WINDOWS KITS\8.1\INCLUDE\SHARED\PSHPACK4.H
C:\PROGRAM FILES (X86)\WINDOWS KITS\8.1\INCLUDE\SHARED\POPPACK.H
C:\PROGRAM FILES (X86)\WINDOWS KITS\8.1\INCLUDE\SHARED\PSHPACK2.H
C:\PROGRAM FILES (X86)\WINDOWS KITS\8.1\INCLUDE\SHARED\PSHPACK8.H
C:\PROGRAM FILES (X86)\WINDOWS KITS\8.1\INCLUDE\SHARED\APISET.H
C:\PROGRAM FILES (X86)\WINDOWS KITS\8.1\INCLUDE\SHARED\KTMTYPES.H
C:\PROGRAM FILES (X86)\WINDOWS KITS\8.1\INCLUDE\UM\WINBASE.H
C:\PROGRAM FILES (X86)\WINDOWS KITS\8.1\INCLUDE\SHARED\APISETCCONV.H
C:\PROGRAM FILES (X86)\WINDOWS KITS\8.1\INCLUDE\UM\MINWINBASE.H
C:\PROGRAM FILES (X86)\WINDOWS KITS\8.1\INCLUDE\UM\PROCESSENV.H
C:\PROGRAM FILES (X86)\WINDOWS KITS\8.1\INCLUDE\UM\FILEAPI.H
C:\PROGRAM FILES (X86)\WINDOWS KITS\8.1\INCLUDE\UM\DEBUGAPI.H
C:\PROGRAM FILES (X86)\WINDOWS KITS\8.1\INCLUDE\UM\UTILAPISET.H
C:\PROGRAM FILES (X86)\WINDOWS KITS\8.1\INCLUDE\UM\HANDLEAPI.H
C:\PROGRAM FILES (X86)\WINDOWS KITS\8.1\INCLUDE\UM\ERRHANDLINGAPI.H
C:\PROGRAM FILES (X86)\WINDOWS KITS\8.1\INCLUDE\UM\FIBERSAPI.H
C:\PROGRAM FILES (X86)\WINDOWS KITS\8.1\INCLUDE\UM\NAMEDPIPEAPI.H
C:\PROGRAM FILES (X86)\WINDOWS KITS\8.1\INCLUDE\UM\PROFILEAPI.H
C:\PROGRAM FILES (X86)\WINDOWS KITS\8.1\INCLUDE\UM\HEAPAPI.H
C:\PROGRAM FILES (X86)\WINDOWS KITS\8.1\INCLUDE\UM\IOAPISET.H
C:\PROGRAM FILES (X86)\WINDOWS KITS\8.1\INCLUDE\UM\SYNCHAPI.H
C:\PROGRAM FILES (X86)\WINDOWS KITS\8.1\INCLUDE\UM\INTERLOCKEDAPI.H
C:\PROGRAM FILES (X86)\WINDOWS KITS\8.1\INCLUDE\UM\PROCESSTHREADSAPI.H
C:\PROGRAM FILES (X86)\WINDOWS KITS\8.1\INCLUDE\UM\SYSINFOAPI.H
C:\PROGRAM FILES (X86)\WINDOWS KITS\8.1\INCLUDE\UM\MEMORYAPI.H
C:\PROGRAM FILES (X86)\WINDOWS KITS\8.1\INCLUDE\UM\THREADPOOLLEGACYAPISET.H
C:\PROGRAM FILES (X86)\WINDOWS KITS\8.1\INCLUDE\UM\THREADPOOLAPISET.H
C:\PROGRAM FILES (X86)\WINDOWS KITS\8.1\INCLUDE\UM\BEMAPISET.H
C:\PROGRAM FILES (X86)\WINDOWS KITS\8.1\INCLUDE\UM\JOBAPI.H
C:\PROGRAM FILES (X86)\WINDOWS KITS\8.1\INCLUDE\UM\WOW64APISET.H
C:\PROGRAM FILES (X86)\WINDOWS KITS\8.1\INCLUDE\UM\LIBLOADERAPI.H
C:\PROGRAM FILES (X86)\WINDOWS KITS\8.1\INCLUDE\UM\SECURITYBASEAPI.H
C:\PROGRAM FILES (X86)\WINDOWS KITS\8.1\INCLUDE\UM\NAMESPACEAPI.H
C:\PROGRAM FILES (X86)\WINDOWS KITS\8.1\INCLUDE\UM\SYSTEMTOPOLOGYAPI.H
C:\PROGRAM FILES (X86)\WINDOWS KITS\8.1\INCLUDE\UM\PROCESSTOPOLOGYAPI.H
C:\PROGRAM FILES (X86)\WINDOWS KITS\8.1\INCLUDE\UM\SECURITYAPPCONTAINER.H
C:\PROGRAM FILES (X86)\WINDOWS KITS\8.1\INCLUDE\UM\REALTIMEAPISET.H
C:\PROGRAM FILES (X86)\WINDOWS KITS\8.1\INCLUDE\SHARED\WINERROR.H
C:\PROGRAM FILES (X86)\WINDOWS KITS\8.1\INCLUDE\UM\TIMEZONEAPI.H
C:\PROGRAM FILES (X86)\WINDOWS KITS\8.1\INCLUDE\UM\WINGDI.H
C:\PROGRAM FILES (X86)\WINDOWS KITS\8.1\INCLUDE\SHARED\PSHPACK1.H
C:\PROGRAM FILES (X86)\WINDOWS KITS\8.1\INCLUDE\UM\WINUSER.H
C:\PROGRAM FILES (X86)\WINDOWS KITS\8.1\INCLUDE\SHARED\TVOUT.H
C:\PROGRAM FILES (X86)\WINDOWS KITS\8.1\INCLUDE\UM\WINNLS.H
C:\PROGRAM FILES (X86)\WINDOWS KITS\8.1\INCLUDE\UM\DATETIMEAPI.H
C:\PROGRAM FILES (X86)\WINDOWS KITS\8.1\INCLUDE\UM\STRINGAPISET.H
C:\PROGRAM FILES (X86)\WINDOWS KITS\8.1\INCLUDE\UM\WINCON.H
C:\PROGRAM FILES (X86)\WINDOWS KITS\8.1\INCLUDE\UM\CONSOLEAPI.H
C:\PROGRAM FILES (X86)\WINDOWS KITS\8.1\INCLUDE\UM\WINVER.H
C:\PROGRAM FILES (X86)\WINDOWS KITS\8.1\INCLUDE\UM\VERRSRC.H
C:\PROGRAM FILES (X86)\WINDOWS KITS\8.1\INCLUDE\UM\WINREG.H
C:\PROGRAM FILES (X86)\WINDOWS KITS\8.1\INCLUDE\UM\REASON.H
C:\PROGRAM FILES (X86)\WINDOWS KITS\8.1\INCLUDE\UM\WINNETWK.H
C:\PROGRAM FILES (X86)\WINDOWS KITS\8.1\INCLUDE\SHARED\WNNC.H
C:\PROGRAM FILES (X86)\WINDOWS KITS\8.1\INCLUDE\SHARED\STRALIGN.H
C:\PROGRAM FILES (X86)\WINDOWS KITS\8.1\INCLUDE\UM\WINSVC.H
C:\PROGRAM FILES (X86)\WINDOWS KITS\8.1\INCLUDE\UM\MCX.H
C:\PROGRAM FILES (X86)\WINDOWS KITS\8.1\INCLUDE\UM\IMM.H
C:\PROGRAM FILES (X86)\WINDOWS KITS\8.1\INCLUDE\UM\IME_CMODES.H
C:\PROGRAM FILES (X86)\WINDOWS KITS\8.1\INCLUDE\SHARED\WINDOWSX.H
C:\PROGRAM FILES (X86)\WINDOWS KITS\8.1\INCLUDE\UM\XINPUT.H
D:\OSIPOV\PROGRAMMINGII\GAP-275-01-PROGRAMMING-FOR-GAMES-2\MODULE_4\CLASSPROJECT\MEMORYGAME\MEMORYGAME\SDL2\INCLUDE\SDL.H
D:\OSIPOV\PROGRAMMINGII\GAP-275-01-PROGRAMMING-FOR-GAMES-2\MODULE_4\CLASSPROJECT\MEMORYGAME\MEMORYGAME\SDL2\INCLUDE\SDL_MAIN.H
D:\OSIPOV\PROGRAMMINGII\GAP-275-01-PROGRAMMING-FOR-GAMES-2\MODULE_4\CLASSPROJECT\MEMORYGAME\MEMORYGAME\SDL2\INCLUDE\SDL_STDINC.H
D:\OSIPOV\PROGRAMMINGII\GAP-275-01-PROGRAMMING-FOR-GAMES-2\MODULE_4\CLASSPROJECT\MEMORYGAME\MEMORYGAME\SDL2\INCLUDE\SDL_CONFIG.H
D:\OSIPOV\PROGRAMMINGII\GAP-275-01-PROGRAMMING-FOR-GAMES-2\MODULE_4\CLASSPROJECT\MEMORYGAME\MEMORYGAME\SDL2\INCLUDE\SDL_PLATFORM.H
D:\OSIPOV\PROGRAMMINGII\GAP-275-01-PROGRAMMING-FOR-GAMES-2\MODULE_4\CLASSPROJECT\MEMORYGAME\MEMORYGAME\SDL2\INCLUDE\BEGIN_CODE.H
D:\OSIPOV\PROGRAMMINGII\GAP-275-01-PROGRAMMING-FOR-GAMES-2\MODULE_4\CLASSPROJECT\MEMORYGAME\MEMORYGAME\SDL2\INCLUDE\CLOSE_CODE.H
C:\PROGRAM FILES (X86)\MICROSOFT VISUAL STUDIO 12.0\VC\INCLUDE\STDDEF.H
D:\OSIPOV\PROGRAMMINGII\GAP-275-01-PROGRAMMING-FOR-GAMES-2\MODULE_4\CLASSPROJECT\MEMORYGAME\MEMORYGAME\SDL2\INCLUDE\SDL_ASSERT.H
D:\OSIPOV\PROGRAMMINGII\GAP-275-01-PROGRAMMING-FOR-GAMES-2\MODULE_4\CLASSPROJECT\MEMORYGAME\MEMORYGAME\SDL2\INCLUDE\SDL_ATOMIC.H
D:\OSIPOV\PROGRAMMINGII\GAP-275-01-PROGRAMMING-FOR-GAMES-2\MODULE_4\CLASSPROJECT\MEMORYGAME\MEMORYGAME\SDL2\INCLUDE\SDL_AUDIO.H
D:\OSIPOV\PROGRAMMINGII\GAP-275-01-PROGRAMMING-FOR-GAMES-2\MODULE_4\CLASSPROJECT\MEMORYGAME\MEMORYGAME\SDL2\INCLUDE\SDL_ERROR.H
D:\OSIPOV\PROGRAMMINGII\GAP-275-01-PROGRAMMING-FOR-GAMES-2\MODULE_4\CLASSPROJECT\MEMORYGAME\MEMORYGAME\SDL2\INCLUDE\SDL_ENDIAN.H
D:\OSIPOV\PROGRAMMINGII\GAP-275-01-PROGRAMMING-FOR-GAMES-2\MODULE_4\CLASSPROJECT\MEMORYGAME\MEMORYGAME\SDL2\INCLUDE\SDL_MUTEX.H
D:\OSIPOV\PROGRAMMINGII\GAP-275-01-PROGRAMMING-FOR-GAMES-2\MODULE_4\CLASSPROJECT\MEMORYGAME\MEMORYGAME\SDL2\INCLUDE\SDL_THREAD.H
C:\PROGRAM FILES (X86)\MICROSOFT VISUAL STUDIO 12.0\VC\INCLUDE\PROCESS.H
D:\OSIPOV\PROGRAMMINGII\GAP-275-01-PROGRAMMING-FOR-GAMES-2\MODULE_4\CLASSPROJECT\MEMORYGAME\MEMORYGAME\SDL2\INCLUDE\SDL_RWOPS.H
D:\OSIPOV\PROGRAMMINGII\GAP-275-01-PROGRAMMING-FOR-GAMES-2\MODULE_4\CLASSPROJECT\MEMORYGAME\MEMORYGAME\SDL2\INCLUDE\SDL_CLIPBOARD.H
D:\OSIPOV\PROGRAMMINGII\GAP-275-01-PROGRAMMING-FOR-GAMES-2\MODULE_4\CLASSPROJECT\MEMORYGAME\MEMORYGAME\SDL2\INCLUDE\SDL_CPUINFO.H
C:\PROGRAM FILES (X86)\MICROSOFT VISUAL STUDIO 12.0\VC\INCLUDE\INTRIN.H
C:\PROGRAM FILES (X86)\MICROSOFT VISUAL STUDIO 12.0\VC\INCLUDE\SETJMP.H
C:\PROGRAM FILES (X86)\MICROSOFT VISUAL STUDIO 12.0\VC\INCLUDE\IMMINTRIN.H
C:\PROGRAM FILES (X86)\MICROSOFT VISUAL STUDIO 12.0\VC\INCLUDE\WMMINTRIN.H
C:\PROGRAM FILES (X86)\MICROSOFT VISUAL STUDIO 12.0\VC\INCLUDE\NMMINTRIN.H
C:\PROGRAM FILES (X86)\MICROSOFT VISUAL STUDIO 12.0\VC\INCLUDE\SMMINTRIN.H
C:\PROGRAM FILES (X86)\MICROSOFT VISUAL STUDIO 12.0\VC\INCLUDE\TMMINTRIN.H
C:\PROGRAM FILES (X86)\MICROSOFT VISUAL STUDIO 12.0\VC\INCLUDE\PMMINTRIN.H
C:\PROGRAM FILES (X86)\MICROSOFT VISUAL STUDIO 12.0\VC\INCLUDE\EMMINTRIN.H
C:\PROGRAM FILES (X86)\MICROSOFT VISUAL STUDIO 12.0\VC\INCLUDE\XMMINTRIN.H
C:\PROGRAM FILES (X86)\MICROSOFT VISUAL STUDIO 12.0\VC\INCLUDE\MMINTRIN.H
C:\PROGRAM FILES (X86)\MICROSOFT VISUAL STUDIO 12.0\VC\INCLUDE\MALLOC.H
C:\PROGRAM FILES (X86)\MICROSOFT VISUAL STUDIO 12.0\VC\INCLUDE\AMMINTRIN.H
C:\PROGRAM FILES (X86)\MICROSOFT VISUAL STUDIO 12.0\VC\INCLUDE\MM3DNOW.H
D:\OSIPOV\PROGRAMMINGII\GAP-275-01-PROGRAMMING-FOR-GAMES-2\MODULE_4\CLASSPROJECT\MEMORYGAME\MEMORYGAME\SDL2\INCLUDE\SDL_EVENTS.H
D:\OSIPOV\PROGRAMMINGII\GAP-275-01-PROGRAMMING-FOR-GAMES-2\MODULE_4\CLASSPROJECT\MEMORYGAME\MEMORYGAME\SDL2\INCLUDE\SDL_VIDEO.H
D:\OSIPOV\PROGRAMMINGII\GAP-275-01-PROGRAMMING-FOR-GAMES-2\MODULE_4\CLASSPROJECT\MEMORYGAME\MEMORYGAME\SDL2\INCLUDE\SDL_PIXELS.H
D:\OSIPOV\PROGRAMMINGII\GAP-275-01-PROGRAMMING-FOR-GAMES-2\MODULE_4\CLASSPROJECT\MEMORYGAME\MEMORYGAME\SDL2\INCLUDE\SDL_RECT.H
D:\OSIPOV\PROGRAMMINGII\GAP-275-01-PROGRAMMING-FOR-GAMES-2\MODULE_4\CLASSPROJECT\MEMORYGAME\MEMORYGAME\SDL2\INCLUDE\SDL_SURFACE.H
D:\OSIPOV\PROGRAMMINGII\GAP-275-01-PROGRAMMING-FOR-GAMES-2\MODULE_4\CLASSPROJECT\MEMORYGAME\MEMORYGAME\SDL2\INCLUDE\SDL_BLENDMODE.H
D:\OSIPOV\PROGRAMMINGII\GAP-275-01-PROGRAMMING-FOR-GAMES-2\MODULE_4\CLASSPROJECT\MEMORYGAME\MEMORYGAME\SDL2\INCLUDE\SDL_KEYBOARD.H
D:\OSIPOV\PROGRAMMINGII\GAP-275-01-PROGRAMMING-FOR-GAMES-2\MODULE_4\CLASSPROJECT\MEMORYGAME\MEMORYGAME\SDL2\INCLUDE\SDL_KEYCODE.H
D:\OSIPOV\PROGRAMMINGII\GAP-275-01-PROGRAMMING-FOR-GAMES-2\MODULE_4\CLASSPROJECT\MEMORYGAME\MEMORYGAME\SDL2\INCLUDE\SDL_SCANCODE.H
D:\OSIPOV\PROGRAMMINGII\GAP-275-01-PROGRAMMING-FOR-GAMES-2\MODULE_4\CLASSPROJECT\MEMORYGAME\MEMORYGAME\SDL2\INCLUDE\SDL_MOUSE.H
D:\OSIPOV\PROGRAMMINGII\GAP-275-01-PROGRAMMING-FOR-GAMES-2\MODULE_4\CLASSPROJECT\MEMORYGAME\MEMORYGAME\SDL2\INCLUDE\SDL_JOYSTICK.H
D:\OSIPOV\PROGRAMMINGII\GAP-275-01-PROGRAMMING-FOR-GAMES-2\MODULE_4\CLASSPROJECT\MEMORYGAME\MEMORYGAME\SDL2\INCLUDE\SDL_GAMECONTROLLER.H
D:\OSIPOV\PROGRAMMINGII\GAP-275-01-PROGRAMMING-FOR-GAMES-2\MODULE_4\CLASSPROJECT\MEMORYGAME\MEMORYGAME\SDL2\INCLUDE\SDL_QUIT.H
D:\OSIPOV\PROGRAMMINGII\GAP-275-01-PROGRAMMING-FOR-GAMES-2\MODULE_4\CLASSPROJECT\MEMORYGAME\MEMORYGAME\SDL2\INCLUDE\SDL_GESTURE.H
D:\OSIPOV\PROGRAMMINGII\GAP-275-01-PROGRAMMING-FOR-GAMES-2\MODULE_4\CLASSPROJECT\MEMORYGAME\MEMORYGAME\SDL2\INCLUDE\SDL_TOUCH.H
D:\OSIPOV\PROGRAMMINGII\GAP-275-01-PROGRAMMING-FOR-GAMES-2\MODULE_4\CLASSPROJECT\MEMORYGAME\MEMORYGAME\SDL2\INCLUDE\SDL_FILESYSTEM.H
D:\OSIPOV\PROGRAMMINGII\GAP-275-01-PROGRAMMING-FOR-GAMES-2\MODULE_4\CLASSPROJECT\MEMORYGAME\MEMORYGAME\SDL2\INCLUDE\SDL_HAPTIC.H
D:\OSIPOV\PROGRAMMINGII\GAP-275-01-PROGRAMMING-FOR-GAMES-2\MODULE_4\CLASSPROJECT\MEMORYGAME\MEMORYGAME\SDL2\INCLUDE\SDL_HINTS.H
D:\OSIPOV\PROGRAMMINGII\GAP-275-01-PROGRAMMING-FOR-GAMES-2\MODULE_4\CLASSPROJECT\MEMORYGAME\MEMORYGAME\SDL2\INCLUDE\SDL_LOADSO.H
D:\OSIPOV\PROGRAMMINGII\GAP-275-01-PROGRAMMING-FOR-GAMES-2\MODULE_4\CLASSPROJECT\MEMORYGAME\MEMORYGAME\SDL2\INCLUDE\SDL_LOG.H
D:\OSIPOV\PROGRAMMINGII\GAP-275-01-PROGRAMMING-FOR-GAMES-2\MODULE_4\CLASSPROJECT\MEMORYGAME\MEMORYGAME\SDL2\INCLUDE\SDL_MESSAGEBOX.H
D:\OSIPOV\PROGRAMMINGII\GAP-275-01-PROGRAMMING-FOR-GAMES-2\MODULE_4\CLASSPROJECT\MEMORYGAME\MEMORYGAME\SDL2\INCLUDE\SDL_POWER.H
D:\OSIPOV\PROGRAMMINGII\GAP-275-01-PROGRAMMING-FOR-GAMES-2\MODULE_4\CLASSPROJECT\MEMORYGAME\MEMORYGAME\SDL2\INCLUDE\SDL_RENDER.H
D:\OSIPOV\PROGRAMMINGII\GAP-275-01-PROGRAMMING-FOR-GAMES-2\MODULE_4\CLASSPROJECT\MEMORYGAME\MEMORYGAME\SDL2\INCLUDE\SDL_SYSTEM.H
D:\OSIPOV\PROGRAMMINGII\GAP-275-01-PROGRAMMING-FOR-GAMES-2\MODULE_4\CLASSPROJECT\MEMORYGAME\MEMORYGAME\SDL2\INCLUDE\SDL_TIMER.H
D:\OSIPOV\PROGRAMMINGII\GAP-275-01-PROGRAMMING-FOR-GAMES-2\MODULE_4\CLASSPROJECT\MEMORYGAME\MEMORYGAME\SDL2\INCLUDE\SDL_VERSION.H
D:\OSIPOV\PROGRAMMINGII\GAP-275-01-PROGRAMMING-FOR-GAMES-2\MODULE_4\CLASSPROJECT\MEMORYGAME\MEMORYGAME\SDL2_MIXER\INCLUDE\SDL_MIXER.H
C:\PROGRAM FILES (X86)\MICROSOFT VISUAL STUDIO 12.0\VC\INCLUDE\SSTREAM
C:\PROGRAM FILES (X86)\MICROSOFT VISUAL STUDIO 12.0\VC\INCLUDE\STRING
C:\PROGRAM FILES (X86)\MICROSOFT VISUAL STUDIO 12.0\VC\INCLUDE\ITERATOR
C:\PROGRAM FILES (X86)\MICROSOFT VISUAL STUDIO 12.0\VC\INCLUDE\ISTREAM
C:\PROGRAM FILES (X86)\MICROSOFT VISUAL STUDIO 12.0\VC\INCLUDE\OSTREAM
C:\PROGRAM FILES (X86)\MICROSOFT VISUAL STUDIO 12.0\VC\INCLUDE\IOS
C:\PROGRAM FILES (X86)\MICROSOFT VISUAL STUDIO 12.0\VC\INCLUDE\XLOCNUM
C:\PROGRAM FILES (X86)\MICROSOFT VISUAL STUDIO 12.0\VC\INCLUDE\CLIMITS
C:\PROGRAM FILES (X86)\MICROSOFT VISUAL STUDIO 12.0\VC\INCLUDE\YVALS.H
C:\PROGRAM FILES (X86)\MICROSOFT VISUAL STUDIO 12.0\VC\INCLUDE\XKEYCHECK.H
C:\PROGRAM FILES (X86)\MICROSOFT VISUAL STUDIO 12.0\VC\INCLUDE\USE_ANSI.H
C:\PROGRAM FILES (X86)\MICROSOFT VISUAL STUDIO 12.0\VC\INCLUDE\LIMITS.H
C:\PROGRAM FILES (X86)\MICROSOFT VISUAL STUDIO 12.0\VC\INCLUDE\CMATH
C:\PROGRAM FILES (X86)\MICROSOFT VISUAL STUDIO 12.0\VC\INCLUDE\MATH.H
C:\PROGRAM FILES (X86)\MICROSOFT VISUAL STUDIO 12.0\VC\INCLUDE\XTGMATH.H
C:\PROGRAM FILES (X86)\MICROSOFT VISUAL STUDIO 12.0\VC\INCLUDE\XTR1COMMON
C:\PROGRAM FILES (X86)\MICROSOFT VISUAL STUDIO 12.0\VC\INCLUDE\CSTDIO
C:\PROGRAM FILES (X86)\MICROSOFT VISUAL STUDIO 12.0\VC\INCLUDE\STDIO.H
C:\PROGRAM FILES (X86)\MICROSOFT VISUAL STUDIO 12.0\VC\INCLUDE\SWPRINTF.INL
C:\PROGRAM FILES (X86)\MICROSOFT VISUAL STUDIO 12.0\VC\INCLUDE\CSTDLIB
C:\PROGRAM FILES (X86)\MICROSOFT VISUAL STUDIO 12.0\VC\INCLUDE\STDLIB.H
C:\PROGRAM FILES (X86)\MICROSOFT VISUAL STUDIO 12.0\VC\INCLUDE\STREAMBUF
C:\PROGRAM FILES (X86)\MICROSOFT VISUAL STUDIO 12.0\VC\INCLUDE\XIOSBASE
C:\PROGRAM FILES (X86)\MICROSOFT VISUAL STUDIO 12.0\VC\INCLUDE\XLOCALE
C:\PROGRAM FILES (X86)\MICROSOFT VISUAL STUDIO 12.0\VC\INCLUDE\CSTRING
C:\PROGRAM FILES (X86)\MICROSOFT VISUAL STUDIO 12.0\VC\INCLUDE\STDEXCEPT
C:\PROGRAM FILES (X86)\MICROSOFT VISUAL STUDIO 12.0\VC\INCLUDE\EXCEPTION
C:\PROGRAM FILES (X86)\MICROSOFT VISUAL STUDIO 12.0\VC\INCLUDE\XSTDDEF
C:\PROGRAM FILES (X86)\MICROSOFT VISUAL STUDIO 12.0\VC\INCLUDE\CSTDDEF
C:\PROGRAM FILES (X86)\MICROSOFT VISUAL STUDIO 12.0\VC\INCLUDE\INITIALIZER_LIST
C:\PROGRAM FILES (X86)\MICROSOFT VISUAL STUDIO 12.0\VC\INCLUDE\EH.H
C:\PROGRAM FILES (X86)\MICROSOFT VISUAL STUDIO 12.0\VC\INCLUDE\XSTRING
C:\PROGRAM FILES (X86)\MICROSOFT VISUAL STUDIO 12.0\VC\INCLUDE\XMEMORY0
C:\PROGRAM FILES (X86)\MICROSOFT VISUAL STUDIO 12.0\VC\INCLUDE\LIMITS
C:\PROGRAM FILES (X86)\MICROSOFT VISUAL STUDIO 12.0\VC\INCLUDE\YMATH.H
C:\PROGRAM FILES (X86)\MICROSOFT VISUAL STUDIO 12.0\VC\INCLUDE\CFLOAT
C:\PROGRAM FILES (X86)\MICROSOFT VISUAL STUDIO 12.0\VC\INCLUDE\FLOAT.H
C:\PROGRAM FILES (X86)\MICROSOFT VISUAL STUDIO 12.0\VC\INCLUDE\CRTWRN.H
C:\PROGRAM FILES (X86)\MICROSOFT VISUAL STUDIO 12.0\VC\INCLUDE\CWCHAR
C:\PROGRAM FILES (X86)\MICROSOFT VISUAL STUDIO 12.0\VC\INCLUDE\WCHAR.H
C:\PROGRAM FILES (X86)\MICROSOFT VISUAL STUDIO 12.0\VC\INCLUDE\WTIME.INL
C:\PROGRAM FILES (X86)\MICROSOFT VISUAL STUDIO 12.0\VC\INCLUDE\NEW
C:\PROGRAM FILES (X86)\MICROSOFT VISUAL STUDIO 12.0\VC\INCLUDE\XUTILITY
C:\PROGRAM FILES (X86)\MICROSOFT VISUAL STUDIO 12.0\VC\INCLUDE\UTILITY
C:\PROGRAM FILES (X86)\MICROSOFT VISUAL STUDIO 12.0\VC\INCLUDE\IOSFWD
C:\PROGRAM FILES (X86)\MICROSOFT VISUAL STUDIO 12.0\VC\INCLUDE\CRTDBG.H
C:\PROGRAM FILES (X86)\MICROSOFT VISUAL STUDIO 12.0\VC\INCLUDE\TYPE_TRAITS
C:\PROGRAM FILES (X86)\MICROSOFT VISUAL STUDIO 12.0\VC\INCLUDE\XREFWRAP
C:\PROGRAM FILES (X86)\MICROSOFT VISUAL STUDIO 12.0\VC\INCLUDE\XATOMIC0.H
C:\PROGRAM FILES (X86)\MICROSOFT VISUAL STUDIO 12.0\VC\INCLUDE\TYPEINFO
C:\PROGRAM FILES (X86)\MICROSOFT VISUAL STUDIO 12.0\VC\INCLUDE\XLOCINFO
C:\PROGRAM FILES (X86)\MICROSOFT VISUAL STUDIO 12.0\VC\INCLUDE\XLOCINFO.H
C:\PROGRAM FILES (X86)\MICROSOFT VISUAL STUDIO 12.0\VC\INCLUDE\LOCALE.H
C:\PROGRAM FILES (X86)\MICROSOFT VISUAL STUDIO 12.0\VC\INCLUDE\XDEBUG
C:\PROGRAM FILES (X86)\MICROSOFT VISUAL STUDIO 12.0\VC\INCLUDE\XMEMORY
C:\PROGRAM FILES (X86)\MICROSOFT VISUAL STUDIO 12.0\VC\INCLUDE\XFACET
C:\PROGRAM FILES (X86)\MICROSOFT VISUAL STUDIO 12.0\VC\INCLUDE\SYSTEM_ERROR
C:\PROGRAM FILES (X86)\MICROSOFT VISUAL STUDIO 12.0\VC\INCLUDE\CERRNO
C:\PROGRAM FILES (X86)\MICROSOFT VISUAL STUDIO 12.0\VC\INCLUDE\ERRNO.H
C:\PROGRAM FILES (X86)\MICROSOFT VISUAL STUDIO 12.0\VC\INCLUDE\SHARE.H
^D:\OSIPOV\PROGRAMMINGII\GAP-275-01-PROGRAMMING-FOR-GAMES-2\MODULE_4\CLASSPROJECT\MEMORYGAME\MEMORYGAME\MAIN.CPP
D:\OSIPOV\PROGRAMMINGII\GAP-275-01-PROGRAMMING-FOR-GAMES-2\MODULE_4\CLASSPROJECT\MEMORYGAME\MEMORYGAME\MEMORYGAME.H
C:\PROGRAM FILES (X86)\WINDOWS KITS\8.1\INCLUDE\UM\WINDOWS.H
C:\PROGRAM FILES (X86)\WINDOWS KITS\8.1\INCLUDE\SHARED\WINAPIFAMILY.H
C:\PROGRAM FILES (X86)\WINDOWS KITS\8.1\INCLUDE\SHARED\SDKDDKVER.H
C:\PROGRAM FILES (X86)\MICROSOFT VISUAL STUDIO 12.0\VC\INCLUDE\EXCPT.H
C:\PROGRAM FILES (X86)\MICROSOFT VISUAL STUDIO 12.0\VC\INCLUDE\CRTDEFS.H
C:\PROGRAM FILES (X86)\MICROSOFT VISUAL STUDIO 12.0\VC\INCLUDE\SAL.H
C:\PROGRAM FILES (X86)\MICROSOFT VISUAL STUDIO 12.0\VC\INCLUDE\CONCURRENCYSAL.H
C:\PROGRAM FILES (X86)\MICROSOFT VISUAL STUDIO 12.0\VC\INCLUDE\VADEFS.H
C:\PROGRAM FILES (X86)\MICROSOFT VISUAL STUDIO 12.0\VC\INCLUDE\STDARG.H
C:\PROGRAM FILES (X86)\WINDOWS KITS\8.1\INCLUDE\SHARED\WINDEF.H
C:\PROGRAM FILES (X86)\WINDOWS KITS\8.1\INCLUDE\SHARED\MINWINDEF.H
C:\PROGRAM FILES (X86)\WINDOWS KITS\8.1\INCLUDE\SHARED\SPECSTRINGS.H
C:\PROGRAM FILES (X86)\WINDOWS KITS\8.1\INCLUDE\SHARED\SPECSTRINGS_STRICT.H
C:\PROGRAM FILES (X86)\WINDOWS KITS\8.1\INCLUDE\SHARED\SPECSTRINGS_UNDEF.H
C:\PROGRAM FILES (X86)\WINDOWS KITS\8.1\INCLUDE\SHARED\DRIVERSPECS.H
C:\PROGRAM FILES (X86)\WINDOWS KITS\8.1\INCLUDE\SHARED\SDV_DRIVERSPECS.H
C:\PROGRAM FILES (X86)\WINDOWS KITS\8.1\INCLUDE\UM\WINNT.H
C:\PROGRAM FILES (X86)\MICROSOFT VISUAL STUDIO 12.0\VC\INCLUDE\CTYPE.H
C:\PROGRAM FILES (X86)\WINDOWS KITS\8.1\INCLUDE\SHARED\KERNELSPECS.H
C:\PROGRAM FILES (X86)\WINDOWS KITS\8.1\INCLUDE\SHARED\BASETSD.H
C:\PROGRAM FILES (X86)\WINDOWS KITS\8.1\INCLUDE\SHARED\GUIDDEF.H
C:\PROGRAM FILES (X86)\MICROSOFT VISUAL STUDIO 12.0\VC\INCLUDE\STRING.H
C:\PROGRAM FILES (X86)\WINDOWS KITS\8.1\INCLUDE\SHARED\PSHPACK4.H
C:\PROGRAM FILES (X86)\WINDOWS KITS\8.1\INCLUDE\SHARED\POPPACK.H
C:\PROGRAM FILES (X86)\WINDOWS KITS\8.1\INCLUDE\SHARED\PSHPACK2.H
C:\PROGRAM FILES (X86)\WINDOWS KITS\8.1\INCLUDE\SHARED\PSHPACK8.H
C:\PROGRAM FILES (X86)\WINDOWS KITS\8.1\INCLUDE\SHARED\APISET.H
C:\PROGRAM FILES (X86)\WINDOWS KITS\8.1\INCLUDE\SHARED\KTMTYPES.H
C:\PROGRAM FILES (X86)\WINDOWS KITS\8.1\INCLUDE\UM\WINBASE.H
C:\PROGRAM FILES (X86)\WINDOWS KITS\8.1\INCLUDE\SHARED\APISETCCONV.H
C:\PROGRAM FILES (X86)\WINDOWS KITS\8.1\INCLUDE\UM\MINWINBASE.H
C:\PROGRAM FILES (X86)\WINDOWS KITS\8.1\INCLUDE\UM\PROCESSENV.H
C:\PROGRAM FILES (X86)\WINDOWS KITS\8.1\INCLUDE\UM\FILEAPI.H
C:\PROGRAM FILES (X86)\WINDOWS KITS\8.1\INCLUDE\UM\DEBUGAPI.H
C:\PROGRAM FILES (X86)\WINDOWS KITS\8.1\INCLUDE\UM\UTILAPISET.H
C:\PROGRAM FILES (X86)\WINDOWS KITS\8.1\INCLUDE\UM\HANDLEAPI.H
C:\PROGRAM FILES (X86)\WINDOWS KITS\8.1\INCLUDE\UM\ERRHANDLINGAPI.H
C:\PROGRAM FILES (X86)\WINDOWS KITS\8.1\INCLUDE\UM\FIBERSAPI.H
C:\PROGRAM FILES (X86)\WINDOWS KITS\8.1\INCLUDE\UM\NAMEDPIPEAPI.H
C:\PROGRAM FILES (X86)\WINDOWS KITS\8.1\INCLUDE\UM\PROFILEAPI.H
C:\PROGRAM FILES (X86)\WINDOWS KITS\8.1\INCLUDE\UM\HEAPAPI.H
C:\PROGRAM FILES (X86)\WINDOWS KITS\8.1\INCLUDE\UM\IOAPISET.H
C:\PROGRAM FILES (X86)\WINDOWS KITS\8.1\INCLUDE\UM\SYNCHAPI.H
C:\PROGRAM FILES (X86)\WINDOWS KITS\8.1\INCLUDE\UM\INTERLOCKEDAPI.H
C:\PROGRAM FILES (X86)\WINDOWS KITS\8.1\INCLUDE\UM\PROCESSTHREADSAPI.H
C:\PROGRAM FILES (X86)\WINDOWS KITS\8.1\INCLUDE\UM\SYSINFOAPI.H
C:\PROGRAM FILES (X86)\WINDOWS KITS\8.1\INCLUDE\UM\MEMORYAPI.H
C:\PROGRAM FILES (X86)\WINDOWS KITS\8.1\INCLUDE\UM\THREADPOOLLEGACYAPISET.H
C:\PROGRAM FILES (X86)\WINDOWS KITS\8.1\INCLUDE\UM\THREADPOOLAPISET.H
C:\PROGRAM FILES (X86)\WINDOWS KITS\8.1\INCLUDE\UM\BEMAPISET.H
C:\PROGRAM FILES (X86)\WINDOWS KITS\8.1\INCLUDE\UM\JOBAPI.H
C:\PROGRAM FILES (X86)\WINDOWS KITS\8.1\INCLUDE\UM\WOW64APISET.H
C:\PROGRAM FILES (X86)\WINDOWS KITS\8.1\INCLUDE\UM\LIBLOADERAPI.H
C:\PROGRAM FILES (X86)\WINDOWS KITS\8.1\INCLUDE\UM\SECURITYBASEAPI.H
C:\PROGRAM FILES (X86)\WINDOWS KITS\8.1\INCLUDE\UM\NAMESPACEAPI.H
C:\PROGRAM FILES (X86)\WINDOWS KITS\8.1\INCLUDE\UM\SYSTEMTOPOLOGYAPI.H
C:\PROGRAM FILES (X86)\WINDOWS KITS\8.1\INCLUDE\UM\PROCESSTOPOLOGYAPI.H
C:\PROGRAM FILES (X86)\WINDOWS KITS\8.1\INCLUDE\UM\SECURITYAPPCONTAINER.H
C:\PROGRAM FILES (X86)\WINDOWS KITS\8.1\INCLUDE\UM\REALTIMEAPISET.H
C:\PROGRAM FILES (X86)\WINDOWS KITS\8.1\INCLUDE\SHARED\WINERROR.H
C:\PROGRAM FILES (X86)\WINDOWS KITS\8.1\INCLUDE\UM\TIMEZONEAPI.H
C:\PROGRAM FILES (X86)\WINDOWS KITS\8.1\INCLUDE\UM\WINGDI.H
C:\PROGRAM FILES (X86)\WINDOWS KITS\8.1\INCLUDE\SHARED\PSHPACK1.H
C:\PROGRAM FILES (X86)\WINDOWS KITS\8.1\INCLUDE\UM\WINUSER.H
C:\PROGRAM FILES (X86)\WINDOWS KITS\8.1\INCLUDE\SHARED\TVOUT.H
C:\PROGRAM FILES (X86)\WINDOWS KITS\8.1\INCLUDE\UM\WINNLS.H
C:\PROGRAM FILES (X86)\WINDOWS KITS\8.1\INCLUDE\UM\DATETIMEAPI.H
C:\PROGRAM FILES (X86)\WINDOWS KITS\8.1\INCLUDE\UM\STRINGAPISET.H
C:\PROGRAM FILES (X86)\WINDOWS KITS\8.1\INCLUDE\UM\WINCON.H
C:\PROGRAM FILES (X86)\WINDOWS KITS\8.1\INCLUDE\UM\CONSOLEAPI.H
C:\PROGRAM FILES (X86)\WINDOWS KITS\8.1\INCLUDE\UM\WINVER.H
C:\PROGRAM FILES (X86)\WINDOWS KITS\8.1\INCLUDE\UM\VERRSRC.H
C:\PROGRAM FILES (X86)\WINDOWS KITS\8.1\INCLUDE\UM\WINREG.H
C:\PROGRAM FILES (X86)\WINDOWS KITS\8.1\INCLUDE\UM\REASON.H
C:\PROGRAM FILES (X86)\WINDOWS KITS\8.1\INCLUDE\UM\WINNETWK.H
C:\PROGRAM FILES (X86)\WINDOWS KITS\8.1\INCLUDE\SHARED\WNNC.H
C:\PROGRAM FILES (X86)\WINDOWS KITS\8.1\INCLUDE\SHARED\STRALIGN.H
C:\PROGRAM FILES (X86)\WINDOWS KITS\8.1\INCLUDE\UM\WINSVC.H
C:\PROGRAM FILES (X86)\WINDOWS KITS\8.1\INCLUDE\UM\MCX.H
C:\PROGRAM FILES (X86)\WINDOWS KITS\8.1\INCLUDE\UM\IMM.H
C:\PROGRAM FILES (X86)\WINDOWS KITS\8.1\INCLUDE\UM\IME_CMODES.H
C:\PROGRAM FILES (X86)\WINDOWS KITS\8.1\INCLUDE\SHARED\WINDOWSX.H
C:\PROGRAM FILES (X86)\WINDOWS KITS\8.1\INCLUDE\UM\XINPUT.H
D:\OSIPOV\PROGRAMMINGII\GAP-275-01-PROGRAMMING-FOR-GAMES-2\MODULE_4\CLASSPROJECT\MEMORYGAME\MEMORYGAME\SDL2\INCLUDE\SDL.H
D:\OSIPOV\PROGRAMMINGII\GAP-275-01-PROGRAMMING-FOR-GAMES-2\MODULE_4\CLASSPROJECT\MEMORYGAME\MEMORYGAME\SDL2\INCLUDE\SDL_MAIN.H
D:\OSIPOV\PROGRAMMINGII\GAP-275-01-PROGRAMMING-FOR-GAMES-2\MODULE_4\CLASSPROJECT\MEMORYGAME\MEMORYGAME\SDL2\INCLUDE\SDL_STDINC.H
D:\OSIPOV\PROGRAMMINGII\GAP-275-01-PROGRAMMING-FOR-GAMES-2\MODULE_4\CLASSPROJECT\MEMORYGAME\MEMORYGAME\SDL2\INCLUDE\SDL_CONFIG.H
D:\OSIPOV\PROGRAMMINGII\GAP-275-01-PROGRAMMING-FOR-GAMES-2\MODULE_4\CLASSPROJECT\MEMORYGAME\MEMORYGAME\SDL2\INCLUDE\SDL_PLATFORM.H
D:\OSIPOV\PROGRAMMINGII\GAP-275-01-PROGRAMMING-FOR-GAMES-2\MODULE_4\CLASSPROJECT\MEMORYGAME\MEMORYGAME\SDL2\INCLUDE\BEGIN_CODE.H
D:\OSIPOV\PROGRAMMINGII\GAP-275-01-PROGRAMMING-FOR-GAMES-2\MODULE_4\CLASSPROJECT\MEMORYGAME\MEMORYGAME\SDL2\INCLUDE\CLOSE_CODE.H
C:\PROGRAM FILES (X86)\MICROSOFT VISUAL STUDIO 12.0\VC\INCLUDE\STDDEF.H
D:\OSIPOV\PROGRAMMINGII\GAP-275-01-PROGRAMMING-FOR-GAMES-2\MODULE_4\CLASSPROJECT\MEMORYGAME\MEMORYGAME\SDL2\INCLUDE\SDL_ASSERT.H
D:\OSIPOV\PROGRAMMINGII\GAP-275-01-PROGRAMMING-FOR-GAMES-2\MODULE_4\CLASSPROJECT\MEMORYGAME\MEMORYGAME\SDL2\INCLUDE\SDL_ATOMIC.H
D:\OSIPOV\PROGRAMMINGII\GAP-275-01-PROGRAMMING-FOR-GAMES-2\MODULE_4\CLASSPROJECT\MEMORYGAME\MEMORYGAME\SDL2\INCLUDE\SDL_AUDIO.H
D:\OSIPOV\PROGRAMMINGII\GAP-275-01-PROGRAMMING-FOR-GAMES-2\MODULE_4\CLASSPROJECT\MEMORYGAME\MEMORYGAME\SDL2\INCLUDE\SDL_ERROR.H
D:\OSIPOV\PROGRAMMINGII\GAP-275-01-PROGRAMMING-FOR-GAMES-2\MODULE_4\CLASSPROJECT\MEMORYGAME\MEMORYGAME\SDL2\INCLUDE\SDL_ENDIAN.H
D:\OSIPOV\PROGRAMMINGII\GAP-275-01-PROGRAMMING-FOR-GAMES-2\MODULE_4\CLASSPROJECT\MEMORYGAME\MEMORYGAME\SDL2\INCLUDE\SDL_MUTEX.H
D:\OSIPOV\PROGRAMMINGII\GAP-275-01-PROGRAMMING-FOR-GAMES-2\MODULE_4\CLASSPROJECT\MEMORYGAME\MEMORYGAME\SDL2\INCLUDE\SDL_THREAD.H
C:\PROGRAM FILES (X86)\MICROSOFT VISUAL STUDIO 12.0\VC\INCLUDE\PROCESS.H
D:\OSIPOV\PROGRAMMINGII\GAP-275-01-PROGRAMMING-FOR-GAMES-2\MODULE_4\CLASSPROJECT\MEMORYGAME\MEMORYGAME\SDL2\INCLUDE\SDL_RWOPS.H
D:\OSIPOV\PROGRAMMINGII\GAP-275-01-PROGRAMMING-FOR-GAMES-2\MODULE_4\CLASSPROJECT\MEMORYGAME\MEMORYGAME\SDL2\INCLUDE\SDL_CLIPBOARD.H
D:\OSIPOV\PROGRAMMINGII\GAP-275-01-PROGRAMMING-FOR-GAMES-2\MODULE_4\CLASSPROJECT\MEMORYGAME\MEMORYGAME\SDL2\INCLUDE\SDL_CPUINFO.H
C:\PROGRAM FILES (X86)\MICROSOFT VISUAL STUDIO 12.0\VC\INCLUDE\INTRIN.H
C:\PROGRAM FILES (X86)\MICROSOFT VISUAL STUDIO 12.0\VC\INCLUDE\SETJMP.H
C:\PROGRAM FILES (X86)\MICROSOFT VISUAL STUDIO 12.0\VC\INCLUDE\IMMINTRIN.H
C:\PROGRAM FILES (X86)\MICROSOFT VISUAL STUDIO 12.0\VC\INCLUDE\WMMINTRIN.H
C:\PROGRAM FILES (X86)\MICROSOFT VISUAL STUDIO 12.0\VC\INCLUDE\NMMINTRIN.H
C:\PROGRAM FILES (X86)\MICROSOFT VISUAL STUDIO 12.0\VC\INCLUDE\SMMINTRIN.H
C:\PROGRAM FILES (X86)\MICROSOFT VISUAL STUDIO 12.0\VC\INCLUDE\TMMINTRIN.H
C:\PROGRAM FILES (X86)\MICROSOFT VISUAL STUDIO 12.0\VC\INCLUDE\PMMINTRIN.H
C:\PROGRAM FILES (X86)\MICROSOFT VISUAL STUDIO 12.0\VC\INCLUDE\EMMINTRIN.H
C:\PROGRAM FILES (X86)\MICROSOFT VISUAL STUDIO 12.0\VC\INCLUDE\XMMINTRIN.H
C:\PROGRAM FILES (X86)\MICROSOFT VISUAL STUDIO 12.0\VC\INCLUDE\MMINTRIN.H
C:\PROGRAM FILES (X86)\MICROSOFT VISUAL STUDIO 12.0\VC\INCLUDE\MALLOC.H
C:\PROGRAM FILES (X86)\MICROSOFT VISUAL STUDIO 12.0\VC\INCLUDE\AMMINTRIN.H
C:\PROGRAM FILES (X86)\MICROSOFT VISUAL STUDIO 12.0\VC\INCLUDE\MM3DNOW.H
D:\OSIPOV\PROGRAMMINGII\GAP-275-01-PROGRAMMING-FOR-GAMES-2\MODULE_4\CLASSPROJECT\MEMORYGAME\MEMORYGAME\SDL2\INCLUDE\SDL_EVENTS.H
D:\OSIPOV\PROGRAMMINGII\GAP-275-01-PROGRAMMING-FOR-GAMES-2\MODULE_4\CLASSPROJECT\MEMORYGAME\MEMORYGAME\SDL2\INCLUDE\SDL_VIDEO.H
D:\OSIPOV\PROGRAMMINGII\GAP-275-01-PROGRAMMING-FOR-GAMES-2\MODULE_4\CLASSPROJECT\MEMORYGAME\MEMORYGAME\SDL2\INCLUDE\SDL_PIXELS.H
D:\OSIPOV\PROGRAMMINGII\GAP-275-01-PROGRAMMING-FOR-GAMES-2\MODULE_4\CLASSPROJECT\MEMORYGAME\MEMORYGAME\SDL2\INCLUDE\SDL_RECT.H
D:\OSIPOV\PROGRAMMINGII\GAP-275-01-PROGRAMMING-FOR-GAMES-2\MODULE_4\CLASSPROJECT\MEMORYGAME\MEMORYGAME\SDL2\INCLUDE\SDL_SURFACE.H
D:\OSIPOV\PROGRAMMINGII\GAP-275-01-PROGRAMMING-FOR-GAMES-2\MODULE_4\CLASSPROJECT\MEMORYGAME\MEMORYGAME\SDL2\INCLUDE\SDL_BLENDMODE.H
D:\OSIPOV\PROGRAMMINGII\GAP-275-01-PROGRAMMING-FOR-GAMES-2\MODULE_4\CLASSPROJECT\MEMORYGAME\MEMORYGAME\SDL2\INCLUDE\SDL_KEYBOARD.H
D:\OSIPOV\PROGRAMMINGII\GAP-275-01-PROGRAMMING-FOR-GAMES-2\MODULE_4\CLASSPROJECT\MEMORYGAME\MEMORYGAME\SDL2\INCLUDE\SDL_KEYCODE.H
D:\OSIPOV\PROGRAMMINGII\GAP-275-01-PROGRAMMING-FOR-GAMES-2\MODULE_4\CLASSPROJECT\MEMORYGAME\MEMORYGAME\SDL2\INCLUDE\SDL_SCANCODE.H
D:\OSIPOV\PROGRAMMINGII\GAP-275-01-PROGRAMMING-FOR-GAMES-2\MODULE_4\CLASSPROJECT\MEMORYGAME\MEMORYGAME\SDL2\INCLUDE\SDL_MOUSE.H
D:\OSIPOV\PROGRAMMINGII\GAP-275-01-PROGRAMMING-FOR-GAMES-2\MODULE_4\CLASSPROJECT\MEMORYGAME\MEMORYGAME\SDL2\INCLUDE\SDL_JOYSTICK.H
D:\OSIPOV\PROGRAMMINGII\GAP-275-01-PROGRAMMING-FOR-GAMES-2\MODULE_4\CLASSPROJECT\MEMORYGAME\MEMORYGAME\SDL2\INCLUDE\SDL_GAMECONTROLLER.H
D:\OSIPOV\PROGRAMMINGII\GAP-275-01-PROGRAMMING-FOR-GAMES-2\MODULE_4\CLASSPROJECT\MEMORYGAME\MEMORYGAME\SDL2\INCLUDE\SDL_QUIT.H
D:\OSIPOV\PROGRAMMINGII\GAP-275-01-PROGRAMMING-FOR-GAMES-2\MODULE_4\CLASSPROJECT\MEMORYGAME\MEMORYGAME\SDL2\INCLUDE\SDL_GESTURE.H
D:\OSIPOV\PROGRAMMINGII\GAP-275-01-PROGRAMMING-FOR-GAMES-2\MODULE_4\CLASSPROJECT\MEMORYGAME\MEMORYGAME\SDL2\INCLUDE\SDL_TOUCH.H
D:\OSIPOV\PROGRAMMINGII\GAP-275-01-PROGRAMMING-FOR-GAMES-2\MODULE_4\CLASSPROJECT\MEMORYGAME\MEMORYGAME\SDL2\INCLUDE\SDL_FILESYSTEM.H
D:\OSIPOV\PROGRAMMINGII\GAP-275-01-PROGRAMMING-FOR-GAMES-2\MODULE_4\CLASSPROJECT\MEMORYGAME\MEMORYGAME\SDL2\INCLUDE\SDL_HAPTIC.H
D:\OSIPOV\PROGRAMMINGII\GAP-275-01-PROGRAMMING-FOR-GAMES-2\MODULE_4\CLASSPROJECT\MEMORYGAME\MEMORYGAME\SDL2\INCLUDE\SDL_HINTS.H
D:\OSIPOV\PROGRAMMINGII\GAP-275-01-PROGRAMMING-FOR-GAMES-2\MODULE_4\CLASSPROJECT\MEMORYGAME\MEMORYGAME\SDL2\INCLUDE\SDL_LOADSO.H
D:\OSIPOV\PROGRAMMINGII\GAP-275-01-PROGRAMMING-FOR-GAMES-2\MODULE_4\CLASSPROJECT\MEMORYGAME\MEMORYGAME\SDL2\INCLUDE\SDL_LOG.H
D:\OSIPOV\PROGRAMMINGII\GAP-275-01-PROGRAMMING-FOR-GAMES-2\MODULE_4\CLASSPROJECT\MEMORYGAME\MEMORYGAME\SDL2\INCLUDE\SDL_MESSAGEBOX.H
D:\OSIPOV\PROGRAMMINGII\GAP-275-01-PROGRAMMING-FOR-GAMES-2\MODULE_4\CLASSPROJECT\MEMORYGAME\MEMORYGAME\SDL2\INCLUDE\SDL_POWER.H
D:\OSIPOV\PROGRAMMINGII\GAP-275-01-PROGRAMMING-FOR-GAMES-2\MODULE_4\CLASSPROJECT\MEMORYGAME\MEMORYGAME\SDL2\INCLUDE\SDL_RENDER.H
D:\OSIPOV\PROGRAMMINGII\GAP-275-01-PROGRAMMING-FOR-GAMES-2\MODULE_4\CLASSPROJECT\MEMORYGAME\MEMORYGAME\SDL2\INCLUDE\SDL_SYSTEM.H
D:\OSIPOV\PROGRAMMINGII\GAP-275-01-PROGRAMMING-FOR-GAMES-2\MODULE_4\CLASSPROJECT\MEMORYGAME\MEMORYGAME\SDL2\INCLUDE\SDL_TIMER.H
D:\OSIPOV\PROGRAMMINGII\GAP-275-01-PROGRAMMING-FOR-GAMES-2\MODULE_4\CLASSPROJECT\MEMORYGAME\MEMORYGAME\SDL2\INCLUDE\SDL_VERSION.H
D:\OSIPOV\PROGRAMMINGII\GAP-275-01-PROGRAMMING-FOR-GAMES-2\MODULE_4\CLASSPROJECT\MEMORYGAME\MEMORYGAME\SDL2_MIXER\INCLUDE\SDL_MIXER.H
