^D:\OSIPOV\GAP-275-01-PROGRAMMING-FOR-GAMES-2\MODULE_4\CLASSPROJECT\MEMORYGAME\MEMORYGAME\MAIN.CPP
/c /I"D:\Osipov\gap-275-01-programming-for-games-2\Module_4\ClassProject\MemoryGame\MemoryGame\SDL2_mixer\include" /I"D:\Osipov\gap-275-01-programming-for-games-2\Module_4\ClassProject\MemoryGame\MemoryGame\SDL2\include" /ZI /nologo /W3 /WX- /sdl /Od /Oy- /D WIN32 /D _DEBUG /D _WINDOWS /D _UNICODE /D UNICODE /Gm /EHsc /RTC1 /MDd /GS /fp:precise /Zc:wchar_t /Zc:forScope /Fo"DEBUG\\" /Fd"DEBUG\VC120.PDB" /Gd /TP /analyze- D:\OSIPOV\GAP-275-01-PROGRAMMING-FOR-GAMES-2\MODULE_4\CLASSPROJECT\MEMORYGAME\MEMORYGAME\MAIN.CPP
^D:\OSIPOV\GAP-275-01-PROGRAMMING-FOR-GAMES-2\MODULE_4\CLASSPROJECT\MEMORYGAME\MEMORYGAME\MEMORYGAME.CPP
/c /I"D:\Osipov\gap-275-01-programming-for-games-2\Module_4\ClassProject\MemoryGame\MemoryGame\SDL2_mixer\include" /I"D:\Osipov\gap-275-01-programming-for-games-2\Module_4\ClassProject\MemoryGame\MemoryGame\SDL2\include" /ZI /nologo /W3 /WX- /sdl /Od /Oy- /D WIN32 /D _DEBUG /D _WINDOWS /D _UNICODE /D UNICODE /Gm /EHsc /RTC1 /MDd /GS /fp:precise /Zc:wchar_t /Zc:forScope /Fo"DEBUG\\" /Fd"DEBUG\VC120.PDB" /Gd /TP /analyze- D:\OSIPOV\GAP-275-01-PROGRAMMING-FOR-GAMES-2\MODULE_4\CLASSPROJECT\MEMORYGAME\MEMORYGAME\MEMORYGAME.CPP
