^D:\OSIPOV\GAP-275-01-PROGRAMMING-FOR-GAMES-2\MODULE_4\CLASSPROJECT\MEMORYGAME\MEMORYGAME\DEBUG\MAIN.OBJ|D:\OSIPOV\GAP-275-01-PROGRAMMING-FOR-GAMES-2\MODULE_4\CLASSPROJECT\MEMORYGAME\MEMORYGAME\DEBUG\MEMORYGAME.OBJ
C:\PROGRAM FILES (X86)\WINDOWS KITS\8.1\LIB\WINV6.3\UM\X86\XINPUT.LIB
D:\OSIPOV\GAP-275-01-PROGRAMMING-FOR-GAMES-2\MODULE_4\CLASSPROJECT\MEMORYGAME\MEMORYGAME\SDL2\LIB\X86\SDL2.LIB
D:\OSIPOV\GAP-275-01-PROGRAMMING-FOR-GAMES-2\MODULE_4\CLASSPROJECT\MEMORYGAME\MEMORYGAME\SDL2_MIXER\LIB\X86\SDL2_MIXER.LIB
C:\PROGRAM FILES (X86)\WINDOWS KITS\8.1\LIB\WINV6.3\UM\X86\KERNEL32.LIB
C:\PROGRAM FILES (X86)\WINDOWS KITS\8.1\LIB\WINV6.3\UM\X86\USER32.LIB
C:\PROGRAM FILES (X86)\WINDOWS KITS\8.1\LIB\WINV6.3\UM\X86\GDI32.LIB
C:\PROGRAM FILES (X86)\WINDOWS KITS\8.1\LIB\WINV6.3\UM\X86\WINSPOOL.LIB
C:\PROGRAM FILES (X86)\WINDOWS KITS\8.1\LIB\WINV6.3\UM\X86\COMDLG32.LIB
C:\PROGRAM FILES (X86)\WINDOWS KITS\8.1\LIB\WINV6.3\UM\X86\ADVAPI32.LIB
C:\PROGRAM FILES (X86)\WINDOWS KITS\8.1\LIB\WINV6.3\UM\X86\SHELL32.LIB
C:\PROGRAM FILES (X86)\WINDOWS KITS\8.1\LIB\WINV6.3\UM\X86\OLE32.LIB
C:\PROGRAM FILES (X86)\WINDOWS KITS\8.1\LIB\WINV6.3\UM\X86\OLEAUT32.LIB
C:\PROGRAM FILES (X86)\WINDOWS KITS\8.1\LIB\WINV6.3\UM\X86\UUID.LIB
C:\PROGRAM FILES (X86)\WINDOWS KITS\8.1\LIB\WINV6.3\UM\X86\ODBC32.LIB
C:\PROGRAM FILES (X86)\WINDOWS KITS\8.1\LIB\WINV6.3\UM\X86\ODBCCP32.LIB
D:\OSIPOV\GAP-275-01-PROGRAMMING-FOR-GAMES-2\MODULE_4\CLASSPROJECT\MEMORYGAME\MEMORYGAME\DEBUG\MAIN.OBJ
D:\OSIPOV\GAP-275-01-PROGRAMMING-FOR-GAMES-2\MODULE_4\CLASSPROJECT\MEMORYGAME\MEMORYGAME\DEBUG\MEMORYGAME.OBJ
C:\WINDOWS\GLOBALIZATION\SORTING\SORTDEFAULT.NLS
C:\PROGRAM FILES (X86)\MICROSOFT VISUAL STUDIO 12.0\VC\LIB\MSVCRTD.LIB
C:\PROGRAM FILES (X86)\MICROSOFT VISUAL STUDIO 12.0\VC\LIB\OLDNAMES.LIB
C:\PROGRAM FILES (X86)\MICROSOFT VISUAL STUDIO 12.0\VC\LIB\MSVCPRTD.LIB
C:\PROGRAM FILES (X86)\WINDOWS KITS\8.1\BIN\X86\RC.EXE
C:\PROGRAM FILES (X86)\MICROSOFT VISUAL STUDIO 12.0\VC\BIN\CVTRES.EXE
C:\WINDOWS\SYSTEM32\TZRES.DLL
