^D:\OSIPOV\PROGRAMMINGII\GAP-275-01-PROGRAMMING-FOR-GAMES-2\MODULE_2\HOMEWORK\TICTACTOE\MEMORYGAME\MAIN.CPP
D:\OSIPOV\PROGRAMMINGII\GAP-275-01-PROGRAMMING-FOR-GAMES-2\MODULE_2\HOMEWORK\TICTACTOE\MEMORYGAME\DEBUG\VC120.PDB
^D:\OSIPOV\PROGRAMMINGII\GAP-275-01-PROGRAMMING-FOR-GAMES-2\MODULE_2\HOMEWORK\TICTACTOE\MEMORYGAME\PLAYER.CPP
D:\OSIPOV\PROGRAMMINGII\GAP-275-01-PROGRAMMING-FOR-GAMES-2\MODULE_2\HOMEWORK\TICTACTOE\MEMORYGAME\DEBUG\VC120.PDB
^D:\OSIPOV\BITBUCKET\GAP-275-01-PROGRAMMING-FOR-GAMES-2\MODULE_2\HOMEWORK\TICTACTOE\MEMORYGAME\MAIN.CPP|D:\OSIPOV\BITBUCKET\GAP-275-01-PROGRAMMING-FOR-GAMES-2\MODULE_2\HOMEWORK\TICTACTOE\MEMORYGAME\PLAYER.CPP|D:\OSIPOV\BITBUCKET\GAP-275-01-PROGRAMMING-FOR-GAMES-2\MODULE_2\HOMEWORK\TICTACTOE\MEMORYGAME\TICTACTOEGAME.CPP
D:\OSIPOV\BITBUCKET\GAP-275-01-PROGRAMMING-FOR-GAMES-2\MODULE_2\HOMEWORK\TICTACTOE\MEMORYGAME\DEBUG\VC120.PDB
D:\OSIPOV\BITBUCKET\GAP-275-01-PROGRAMMING-FOR-GAMES-2\MODULE_2\HOMEWORK\TICTACTOE\MEMORYGAME\DEBUG\VC120.IDB
D:\OSIPOV\BITBUCKET\GAP-275-01-PROGRAMMING-FOR-GAMES-2\MODULE_2\HOMEWORK\TICTACTOE\MEMORYGAME\DEBUG\MAIN.OBJ
D:\OSIPOV\BITBUCKET\GAP-275-01-PROGRAMMING-FOR-GAMES-2\MODULE_2\HOMEWORK\TICTACTOE\MEMORYGAME\DEBUG\PLAYER.OBJ
D:\OSIPOV\BITBUCKET\GAP-275-01-PROGRAMMING-FOR-GAMES-2\MODULE_2\HOMEWORK\TICTACTOE\MEMORYGAME\DEBUG\TICTACTOEGAME.OBJ
^D:\OSIPOV\BITBUCKET\GAP-275-01-PROGRAMMING-FOR-GAMES-2\MODULE_2\HOMEWORK\TICTACTOE\MEMORYGAME\MAIN.CPP
D:\OSIPOV\BITBUCKET\GAP-275-01-PROGRAMMING-FOR-GAMES-2\MODULE_2\HOMEWORK\TICTACTOE\MEMORYGAME\DEBUG\VC120.PDB
^D:\OSIPOV\BITBUCKET\GAP-275-01-PROGRAMMING-FOR-GAMES-2\MODULE_2\HOMEWORK\TICTACTOE\MEMORYGAME\PLAYER.CPP
D:\OSIPOV\BITBUCKET\GAP-275-01-PROGRAMMING-FOR-GAMES-2\MODULE_2\HOMEWORK\TICTACTOE\MEMORYGAME\DEBUG\VC120.PDB
^D:\OSIPOV\BITBUCKET\GAP-275-01-PROGRAMMING-FOR-GAMES-2\MODULE_2\HOMEWORK\TICTACTOE\MEMORYGAME\TICTACTOEGAME.CPP
D:\OSIPOV\BITBUCKET\GAP-275-01-PROGRAMMING-FOR-GAMES-2\MODULE_2\HOMEWORK\TICTACTOE\MEMORYGAME\DEBUG\VC120.PDB
^D:\OSIPOV\PROGRAMMINGII\GAP-275-01-PROGRAMMING-FOR-GAMES-2\MODULE_2\HOMEWORK\TICTACTOE\MEMORYGAME\MAIN.CPP|D:\OSIPOV\PROGRAMMINGII\GAP-275-01-PROGRAMMING-FOR-GAMES-2\MODULE_2\HOMEWORK\TICTACTOE\MEMORYGAME\PLAYER.CPP|D:\OSIPOV\PROGRAMMINGII\GAP-275-01-PROGRAMMING-FOR-GAMES-2\MODULE_2\HOMEWORK\TICTACTOE\MEMORYGAME\TICTACTOEGAME.CPP
D:\OSIPOV\PROGRAMMINGII\GAP-275-01-PROGRAMMING-FOR-GAMES-2\MODULE_2\HOMEWORK\TICTACTOE\MEMORYGAME\DEBUG\VC120.PDB
D:\OSIPOV\PROGRAMMINGII\GAP-275-01-PROGRAMMING-FOR-GAMES-2\MODULE_2\HOMEWORK\TICTACTOE\MEMORYGAME\DEBUG\VC120.IDB
D:\OSIPOV\PROGRAMMINGII\GAP-275-01-PROGRAMMING-FOR-GAMES-2\MODULE_2\HOMEWORK\TICTACTOE\MEMORYGAME\DEBUG\MAIN.OBJ
D:\OSIPOV\PROGRAMMINGII\GAP-275-01-PROGRAMMING-FOR-GAMES-2\MODULE_2\HOMEWORK\TICTACTOE\MEMORYGAME\DEBUG\PLAYER.OBJ
D:\OSIPOV\PROGRAMMINGII\GAP-275-01-PROGRAMMING-FOR-GAMES-2\MODULE_2\HOMEWORK\TICTACTOE\MEMORYGAME\DEBUG\TICTACTOEGAME.OBJ
^D:\OSIPOV\PROGRAMMINGII\GAP-275-01-PROGRAMMING-FOR-GAMES-2\MODULE_2\HOMEWORK\TICTACTOE\MEMORYGAME\TICTACTOEGAME.CPP
D:\OSIPOV\PROGRAMMINGII\GAP-275-01-PROGRAMMING-FOR-GAMES-2\MODULE_2\HOMEWORK\TICTACTOE\MEMORYGAME\DEBUG\VC120.PDB
