^D:\OSIPOV\PROGRAMMINGII\GAP-275-01-PROGRAMMING-FOR-GAMES-2\MODULE_2\CLASSPROJECT\MEMORYGAME\MEMORYGAME\DEBUG\MAIN.OBJ|D:\OSIPOV\PROGRAMMINGII\GAP-275-01-PROGRAMMING-FOR-GAMES-2\MODULE_2\CLASSPROJECT\MEMORYGAME\MEMORYGAME\DEBUG\MEMORYGAME.OBJ
D:\OSIPOV\PROGRAMMINGII\GAP-275-01-PROGRAMMING-FOR-GAMES-2\MODULE_2\CLASSPROJECT\MEMORYGAME\DEBUG\MEMORYGAME.ILK
D:\OSIPOV\PROGRAMMINGII\GAP-275-01-PROGRAMMING-FOR-GAMES-2\MODULE_2\CLASSPROJECT\MEMORYGAME\DEBUG\MEMORYGAME.EXE
D:\OSIPOV\PROGRAMMINGII\GAP-275-01-PROGRAMMING-FOR-GAMES-2\MODULE_2\CLASSPROJECT\MEMORYGAME\DEBUG\MEMORYGAME.PDB
^D:\OSIPOV\PROGRAMMINGII\GAP-275-01-PROGRAMMING-FOR-GAMES-2\MODULE_2\HOMEWORK\TICTACTOE\MEMORYGAME\DEBUG\MAIN.OBJ|D:\OSIPOV\PROGRAMMINGII\GAP-275-01-PROGRAMMING-FOR-GAMES-2\MODULE_2\HOMEWORK\TICTACTOE\MEMORYGAME\DEBUG\TICTACTOEGAME.OBJ
D:\OSIPOV\PROGRAMMINGII\GAP-275-01-PROGRAMMING-FOR-GAMES-2\MODULE_2\HOMEWORK\TICTACTOE\DEBUG\MEMORYGAME.ILK
D:\OSIPOV\PROGRAMMINGII\GAP-275-01-PROGRAMMING-FOR-GAMES-2\MODULE_2\HOMEWORK\TICTACTOE\DEBUG\MEMORYGAME.EXE
D:\OSIPOV\PROGRAMMINGII\GAP-275-01-PROGRAMMING-FOR-GAMES-2\MODULE_2\HOMEWORK\TICTACTOE\DEBUG\MEMORYGAME.PDB
