^C:\USERS\VOSIPOV2\DOCUMENTS\VISUAL STUDIO 2013\PROJECTS\WIN32INTRO\WIN32INTRO\MAIN.CPP
C:\USERS\VOSIPOV2\DOCUMENTS\VISUAL STUDIO 2013\PROJECTS\WIN32INTRO\WIN32INTRO\DEBUG\VC120.PDB
C:\USERS\VOSIPOV2\DOCUMENTS\VISUAL STUDIO 2013\PROJECTS\WIN32INTRO\WIN32INTRO\DEBUG\VC120.IDB
C:\USERS\VOSIPOV2\DOCUMENTS\VISUAL STUDIO 2013\PROJECTS\WIN32INTRO\WIN32INTRO\DEBUG\MAIN.OBJ
