^C:\USERS\VOSIPOV2\DOCUMENTS\VISUAL STUDIO 2013\PROJECTS\WIN32INTRO\WIN32INTRO\DEBUG\MAIN.OBJ
C:\USERS\VOSIPOV2\DOCUMENTS\VISUAL STUDIO 2013\PROJECTS\WIN32INTRO\DEBUG\WIN32INTRO.ILK
C:\USERS\VOSIPOV2\DOCUMENTS\VISUAL STUDIO 2013\PROJECTS\WIN32INTRO\DEBUG\WIN32INTRO.EXE
C:\USERS\VOSIPOV2\DOCUMENTS\VISUAL STUDIO 2013\PROJECTS\WIN32INTRO\DEBUG\WIN32INTRO.PDB
