^D:\OSIPOV\BITBUCKET\GAP-275-01-PROGRAMMING-FOR-GAMES-2\MODULE_12\OPENGLDEMO\DEBUG\MAIN.OBJ
D:\OSIPOV\BITBUCKET\GAP-275-01-PROGRAMMING-FOR-GAMES-2\MODULE_12\OPENGLDEMO\DEBUG\OPENGLDEMO.ILK
D:\OSIPOV\BITBUCKET\GAP-275-01-PROGRAMMING-FOR-GAMES-2\MODULE_12\OPENGLDEMO\DEBUG\OPENGLDEMO.EXE
D:\OSIPOV\BITBUCKET\GAP-275-01-PROGRAMMING-FOR-GAMES-2\MODULE_12\OPENGLDEMO\DEBUG\OPENGLDEMO.PDB
