^D:\OSIPOV\BITBUCKET\GAP-275-01-PROGRAMMING-FOR-GAMES-2\MODULE_5\CLASSPROJECT\SDL_PLATFORMER\SDL_PLATFORMER\DEBUG\MAIN.OBJ
/OUT:"D:\OSIPOV\BITBUCKET\GAP-275-01-PROGRAMMING-FOR-GAMES-2\MODULE_5\CLASSPROJECT\SDL_PLATFORMER\DEBUG\SDL_PLATFORMER.EXE" /INCREMENTAL /NOLOGO /LIBPATH:SDL2_image\lib\x86 /LIBPATH:SDL2_mixer\lib\x86 /LIBPATH:SDL2\lib\x86 SDL2_image.lib SDL2main.lib SDL2.lib SDL2_mixer.lib kernel32.lib user32.lib gdi32.lib winspool.lib comdlg32.lib advapi32.lib shell32.lib ole32.lib oleaut32.lib uuid.lib odbc32.lib odbccp32.lib /MANIFEST /MANIFESTUAC:"level='asInvoker' uiAccess='false'" /manifest:embed /DEBUG /PDB:"D:\OSIPOV\BITBUCKET\GAP-275-01-PROGRAMMING-FOR-GAMES-2\MODULE_5\CLASSPROJECT\SDL_PLATFORMER\DEBUG\SDL_PLATFORMER.PDB" /SUBSYSTEM:WINDOWS /TLBID:1 /DYNAMICBASE /NXCOMPAT /IMPLIB:"D:\OSIPOV\BITBUCKET\GAP-275-01-PROGRAMMING-FOR-GAMES-2\MODULE_5\CLASSPROJECT\SDL_PLATFORMER\DEBUG\SDL_PLATFORMER.LIB" /MACHINE:X86 DEBUG\MAIN.OBJ
^D:\OSIPOV\BITBUCKET\GAP-275-01-PROGRAMMING-FOR-GAMES-2\MODULE_6\SDL_PLATFORMER\SDL_PLATFORMER\DEBUG\MAIN.OBJ
/OUT:"D:\OSIPOV\BITBUCKET\GAP-275-01-PROGRAMMING-FOR-GAMES-2\MODULE_6\SDL_PLATFORMER\DEBUG\SDL_PLATFORMER.EXE" /INCREMENTAL /NOLOGO /LIBPATH:SDL2_image\lib\x86 /LIBPATH:SDL2_mixer\lib\x86 /LIBPATH:SDL2\lib\x86 SDL2_image.lib SDL2main.lib SDL2.lib SDL2_mixer.lib kernel32.lib user32.lib gdi32.lib winspool.lib comdlg32.lib advapi32.lib shell32.lib ole32.lib oleaut32.lib uuid.lib odbc32.lib odbccp32.lib /MANIFEST /MANIFESTUAC:"level='asInvoker' uiAccess='false'" /manifest:embed /DEBUG /PDB:"D:\OSIPOV\BITBUCKET\GAP-275-01-PROGRAMMING-FOR-GAMES-2\MODULE_6\SDL_PLATFORMER\DEBUG\SDL_PLATFORMER.PDB" /SUBSYSTEM:WINDOWS /TLBID:1 /DYNAMICBASE /NXCOMPAT /IMPLIB:"D:\OSIPOV\BITBUCKET\GAP-275-01-PROGRAMMING-FOR-GAMES-2\MODULE_6\SDL_PLATFORMER\DEBUG\SDL_PLATFORMER.LIB" /MACHINE:X86 DEBUG\MAIN.OBJ
^D:\OSIPOV\BITBUCKET\GAP-275-01-PROGRAMMING-FOR-GAMES-2\MODULE_7\SDL_PLATFORMER\SDL_PLATFORMER\DEBUG\MAIN.OBJ
/OUT:"D:\OSIPOV\BITBUCKET\GAP-275-01-PROGRAMMING-FOR-GAMES-2\MODULE_7\SDL_PLATFORMER\DEBUG\SDL_PLATFORMER.EXE" /INCREMENTAL /NOLOGO /LIBPATH:SDL2_image\lib\x86 /LIBPATH:SDL2_mixer\lib\x86 /LIBPATH:SDL2\lib\x86 SDL2_image.lib SDL2main.lib SDL2.lib SDL2_mixer.lib kernel32.lib user32.lib gdi32.lib winspool.lib comdlg32.lib advapi32.lib shell32.lib ole32.lib oleaut32.lib uuid.lib odbc32.lib odbccp32.lib /MANIFEST /MANIFESTUAC:"level='asInvoker' uiAccess='false'" /manifest:embed /DEBUG /PDB:"D:\OSIPOV\BITBUCKET\GAP-275-01-PROGRAMMING-FOR-GAMES-2\MODULE_7\SDL_PLATFORMER\DEBUG\SDL_PLATFORMER.PDB" /SUBSYSTEM:WINDOWS /TLBID:1 /DYNAMICBASE /NXCOMPAT /IMPLIB:"D:\OSIPOV\BITBUCKET\GAP-275-01-PROGRAMMING-FOR-GAMES-2\MODULE_7\SDL_PLATFORMER\DEBUG\SDL_PLATFORMER.LIB" /MACHINE:X86 DEBUG\MAIN.OBJ
