^C:\USERS\BETHANY\DESKTOP\JAKUB\275HOMEWORK\OBJRENDERING\OBJECTRENDERING\OBJECTRENDERING\OPENGLENGINE.CPP
C:\USERS\BETHANY\DESKTOP\JAKUB\275HOMEWORK\OBJRENDERING\OBJECTRENDERING\OBJECTRENDERING\OPENGLENGINE.H
C:\USERS\BETHANY\DESKTOP\JAKUB\275HOMEWORK\OBJRENDERING\OBJECTRENDERING\OBJECTRENDERING\GLEW-1.13.0\INCLUDE\GL\GLEW.H
C:\PROGRAM FILES (X86)\WINDOWS KITS\8.1\INCLUDE\UM\GL\GLU.H
C:\PROGRAM FILES (X86)\WINDOWS KITS\8.1\INCLUDE\SHARED\WINAPIFAMILY.H
C:\PROGRAM FILES (X86)\WINDOWS KITS\8.1\INCLUDE\UM\GL\GL.H
C:\USERS\BETHANY\DESKTOP\JAKUB\275HOMEWORK\OBJRENDERING\OBJECTRENDERING\OBJECTRENDERING\SDL2\INCLUDE\SDL.H
C:\USERS\BETHANY\DESKTOP\JAKUB\275HOMEWORK\OBJRENDERING\OBJECTRENDERING\OBJECTRENDERING\SDL2\INCLUDE\SDL_MAIN.H
C:\USERS\BETHANY\DESKTOP\JAKUB\275HOMEWORK\OBJRENDERING\OBJECTRENDERING\OBJECTRENDERING\SDL2\INCLUDE\SDL_STDINC.H
C:\USERS\BETHANY\DESKTOP\JAKUB\275HOMEWORK\OBJRENDERING\OBJECTRENDERING\OBJECTRENDERING\SDL2\INCLUDE\SDL_CONFIG.H
C:\USERS\BETHANY\DESKTOP\JAKUB\275HOMEWORK\OBJRENDERING\OBJECTRENDERING\OBJECTRENDERING\SDL2\INCLUDE\SDL_PLATFORM.H
C:\USERS\BETHANY\DESKTOP\JAKUB\275HOMEWORK\OBJRENDERING\OBJECTRENDERING\OBJECTRENDERING\SDL2\INCLUDE\BEGIN_CODE.H
C:\USERS\BETHANY\DESKTOP\JAKUB\275HOMEWORK\OBJRENDERING\OBJECTRENDERING\OBJECTRENDERING\SDL2\INCLUDE\CLOSE_CODE.H
B:\PROGRAMS\MICROSOFT VISUAL STUDIO 2013\VC\INCLUDE\STDDEF.H
B:\PROGRAMS\MICROSOFT VISUAL STUDIO 2013\VC\INCLUDE\CRTDEFS.H
B:\PROGRAMS\MICROSOFT VISUAL STUDIO 2013\VC\INCLUDE\SAL.H
B:\PROGRAMS\MICROSOFT VISUAL STUDIO 2013\VC\INCLUDE\CONCURRENCYSAL.H
B:\PROGRAMS\MICROSOFT VISUAL STUDIO 2013\VC\INCLUDE\VADEFS.H
B:\PROGRAMS\MICROSOFT VISUAL STUDIO 2013\VC\INCLUDE\STDARG.H
C:\USERS\BETHANY\DESKTOP\JAKUB\275HOMEWORK\OBJRENDERING\OBJECTRENDERING\OBJECTRENDERING\SDL2\INCLUDE\SDL_ASSERT.H
C:\USERS\BETHANY\DESKTOP\JAKUB\275HOMEWORK\OBJRENDERING\OBJECTRENDERING\OBJECTRENDERING\SDL2\INCLUDE\SDL_ATOMIC.H
C:\USERS\BETHANY\DESKTOP\JAKUB\275HOMEWORK\OBJRENDERING\OBJECTRENDERING\OBJECTRENDERING\SDL2\INCLUDE\SDL_AUDIO.H
C:\USERS\BETHANY\DESKTOP\JAKUB\275HOMEWORK\OBJRENDERING\OBJECTRENDERING\OBJECTRENDERING\SDL2\INCLUDE\SDL_ERROR.H
C:\USERS\BETHANY\DESKTOP\JAKUB\275HOMEWORK\OBJRENDERING\OBJECTRENDERING\OBJECTRENDERING\SDL2\INCLUDE\SDL_ENDIAN.H
C:\USERS\BETHANY\DESKTOP\JAKUB\275HOMEWORK\OBJRENDERING\OBJECTRENDERING\OBJECTRENDERING\SDL2\INCLUDE\SDL_MUTEX.H
C:\USERS\BETHANY\DESKTOP\JAKUB\275HOMEWORK\OBJRENDERING\OBJECTRENDERING\OBJECTRENDERING\SDL2\INCLUDE\SDL_THREAD.H
B:\PROGRAMS\MICROSOFT VISUAL STUDIO 2013\VC\INCLUDE\PROCESS.H
C:\USERS\BETHANY\DESKTOP\JAKUB\275HOMEWORK\OBJRENDERING\OBJECTRENDERING\OBJECTRENDERING\SDL2\INCLUDE\SDL_RWOPS.H
C:\USERS\BETHANY\DESKTOP\JAKUB\275HOMEWORK\OBJRENDERING\OBJECTRENDERING\OBJECTRENDERING\SDL2\INCLUDE\SDL_CLIPBOARD.H
C:\USERS\BETHANY\DESKTOP\JAKUB\275HOMEWORK\OBJRENDERING\OBJECTRENDERING\OBJECTRENDERING\SDL2\INCLUDE\SDL_CPUINFO.H
B:\PROGRAMS\MICROSOFT VISUAL STUDIO 2013\VC\INCLUDE\INTRIN.H
B:\PROGRAMS\MICROSOFT VISUAL STUDIO 2013\VC\INCLUDE\SETJMP.H
B:\PROGRAMS\MICROSOFT VISUAL STUDIO 2013\VC\INCLUDE\IMMINTRIN.H
B:\PROGRAMS\MICROSOFT VISUAL STUDIO 2013\VC\INCLUDE\WMMINTRIN.H
B:\PROGRAMS\MICROSOFT VISUAL STUDIO 2013\VC\INCLUDE\NMMINTRIN.H
B:\PROGRAMS\MICROSOFT VISUAL STUDIO 2013\VC\INCLUDE\SMMINTRIN.H
B:\PROGRAMS\MICROSOFT VISUAL STUDIO 2013\VC\INCLUDE\TMMINTRIN.H
B:\PROGRAMS\MICROSOFT VISUAL STUDIO 2013\VC\INCLUDE\PMMINTRIN.H
B:\PROGRAMS\MICROSOFT VISUAL STUDIO 2013\VC\INCLUDE\EMMINTRIN.H
B:\PROGRAMS\MICROSOFT VISUAL STUDIO 2013\VC\INCLUDE\XMMINTRIN.H
B:\PROGRAMS\MICROSOFT VISUAL STUDIO 2013\VC\INCLUDE\MMINTRIN.H
B:\PROGRAMS\MICROSOFT VISUAL STUDIO 2013\VC\INCLUDE\MALLOC.H
B:\PROGRAMS\MICROSOFT VISUAL STUDIO 2013\VC\INCLUDE\AMMINTRIN.H
B:\PROGRAMS\MICROSOFT VISUAL STUDIO 2013\VC\INCLUDE\MM3DNOW.H
C:\USERS\BETHANY\DESKTOP\JAKUB\275HOMEWORK\OBJRENDERING\OBJECTRENDERING\OBJECTRENDERING\SDL2\INCLUDE\SDL_EVENTS.H
C:\USERS\BETHANY\DESKTOP\JAKUB\275HOMEWORK\OBJRENDERING\OBJECTRENDERING\OBJECTRENDERING\SDL2\INCLUDE\SDL_VIDEO.H
C:\USERS\BETHANY\DESKTOP\JAKUB\275HOMEWORK\OBJRENDERING\OBJECTRENDERING\OBJECTRENDERING\SDL2\INCLUDE\SDL_PIXELS.H
C:\USERS\BETHANY\DESKTOP\JAKUB\275HOMEWORK\OBJRENDERING\OBJECTRENDERING\OBJECTRENDERING\SDL2\INCLUDE\SDL_RECT.H
C:\USERS\BETHANY\DESKTOP\JAKUB\275HOMEWORK\OBJRENDERING\OBJECTRENDERING\OBJECTRENDERING\SDL2\INCLUDE\SDL_SURFACE.H
C:\USERS\BETHANY\DESKTOP\JAKUB\275HOMEWORK\OBJRENDERING\OBJECTRENDERING\OBJECTRENDERING\SDL2\INCLUDE\SDL_BLENDMODE.H
C:\USERS\BETHANY\DESKTOP\JAKUB\275HOMEWORK\OBJRENDERING\OBJECTRENDERING\OBJECTRENDERING\SDL2\INCLUDE\SDL_KEYBOARD.H
C:\USERS\BETHANY\DESKTOP\JAKUB\275HOMEWORK\OBJRENDERING\OBJECTRENDERING\OBJECTRENDERING\SDL2\INCLUDE\SDL_KEYCODE.H
C:\USERS\BETHANY\DESKTOP\JAKUB\275HOMEWORK\OBJRENDERING\OBJECTRENDERING\OBJECTRENDERING\SDL2\INCLUDE\SDL_SCANCODE.H
C:\USERS\BETHANY\DESKTOP\JAKUB\275HOMEWORK\OBJRENDERING\OBJECTRENDERING\OBJECTRENDERING\SDL2\INCLUDE\SDL_MOUSE.H
C:\USERS\BETHANY\DESKTOP\JAKUB\275HOMEWORK\OBJRENDERING\OBJECTRENDERING\OBJECTRENDERING\SDL2\INCLUDE\SDL_JOYSTICK.H
C:\USERS\BETHANY\DESKTOP\JAKUB\275HOMEWORK\OBJRENDERING\OBJECTRENDERING\OBJECTRENDERING\SDL2\INCLUDE\SDL_GAMECONTROLLER.H
C:\USERS\BETHANY\DESKTOP\JAKUB\275HOMEWORK\OBJRENDERING\OBJECTRENDERING\OBJECTRENDERING\SDL2\INCLUDE\SDL_QUIT.H
C:\USERS\BETHANY\DESKTOP\JAKUB\275HOMEWORK\OBJRENDERING\OBJECTRENDERING\OBJECTRENDERING\SDL2\INCLUDE\SDL_GESTURE.H
C:\USERS\BETHANY\DESKTOP\JAKUB\275HOMEWORK\OBJRENDERING\OBJECTRENDERING\OBJECTRENDERING\SDL2\INCLUDE\SDL_TOUCH.H
C:\USERS\BETHANY\DESKTOP\JAKUB\275HOMEWORK\OBJRENDERING\OBJECTRENDERING\OBJECTRENDERING\SDL2\INCLUDE\SDL_FILESYSTEM.H
C:\USERS\BETHANY\DESKTOP\JAKUB\275HOMEWORK\OBJRENDERING\OBJECTRENDERING\OBJECTRENDERING\SDL2\INCLUDE\SDL_HAPTIC.H
C:\USERS\BETHANY\DESKTOP\JAKUB\275HOMEWORK\OBJRENDERING\OBJECTRENDERING\OBJECTRENDERING\SDL2\INCLUDE\SDL_HINTS.H
C:\USERS\BETHANY\DESKTOP\JAKUB\275HOMEWORK\OBJRENDERING\OBJECTRENDERING\OBJECTRENDERING\SDL2\INCLUDE\SDL_LOADSO.H
C:\USERS\BETHANY\DESKTOP\JAKUB\275HOMEWORK\OBJRENDERING\OBJECTRENDERING\OBJECTRENDERING\SDL2\INCLUDE\SDL_LOG.H
C:\USERS\BETHANY\DESKTOP\JAKUB\275HOMEWORK\OBJRENDERING\OBJECTRENDERING\OBJECTRENDERING\SDL2\INCLUDE\SDL_MESSAGEBOX.H
C:\USERS\BETHANY\DESKTOP\JAKUB\275HOMEWORK\OBJRENDERING\OBJECTRENDERING\OBJECTRENDERING\SDL2\INCLUDE\SDL_POWER.H
C:\USERS\BETHANY\DESKTOP\JAKUB\275HOMEWORK\OBJRENDERING\OBJECTRENDERING\OBJECTRENDERING\SDL2\INCLUDE\SDL_RENDER.H
C:\USERS\BETHANY\DESKTOP\JAKUB\275HOMEWORK\OBJRENDERING\OBJECTRENDERING\OBJECTRENDERING\SDL2\INCLUDE\SDL_SYSTEM.H
C:\USERS\BETHANY\DESKTOP\JAKUB\275HOMEWORK\OBJRENDERING\OBJECTRENDERING\OBJECTRENDERING\SDL2\INCLUDE\SDL_TIMER.H
C:\USERS\BETHANY\DESKTOP\JAKUB\275HOMEWORK\OBJRENDERING\OBJECTRENDERING\OBJECTRENDERING\SDL2\INCLUDE\SDL_VERSION.H
C:\USERS\BETHANY\DESKTOP\JAKUB\275HOMEWORK\OBJRENDERING\OBJECTRENDERING\OBJECTRENDERING\SDL2\INCLUDE\SDL_OPENGL.H
C:\PROGRAM FILES (X86)\WINDOWS KITS\8.1\INCLUDE\UM\WINDOWS.H
C:\PROGRAM FILES (X86)\WINDOWS KITS\8.1\INCLUDE\SHARED\SDKDDKVER.H
B:\PROGRAMS\MICROSOFT VISUAL STUDIO 2013\VC\INCLUDE\EXCPT.H
C:\PROGRAM FILES (X86)\WINDOWS KITS\8.1\INCLUDE\SHARED\WINDEF.H
C:\PROGRAM FILES (X86)\WINDOWS KITS\8.1\INCLUDE\SHARED\MINWINDEF.H
C:\PROGRAM FILES (X86)\WINDOWS KITS\8.1\INCLUDE\SHARED\SPECSTRINGS.H
C:\PROGRAM FILES (X86)\WINDOWS KITS\8.1\INCLUDE\SHARED\SPECSTRINGS_STRICT.H
C:\PROGRAM FILES (X86)\WINDOWS KITS\8.1\INCLUDE\SHARED\SPECSTRINGS_UNDEF.H
C:\PROGRAM FILES (X86)\WINDOWS KITS\8.1\INCLUDE\SHARED\DRIVERSPECS.H
C:\PROGRAM FILES (X86)\WINDOWS KITS\8.1\INCLUDE\SHARED\SDV_DRIVERSPECS.H
C:\PROGRAM FILES (X86)\WINDOWS KITS\8.1\INCLUDE\UM\WINNT.H
B:\PROGRAMS\MICROSOFT VISUAL STUDIO 2013\VC\INCLUDE\CTYPE.H
C:\PROGRAM FILES (X86)\WINDOWS KITS\8.1\INCLUDE\SHARED\KERNELSPECS.H
C:\PROGRAM FILES (X86)\WINDOWS KITS\8.1\INCLUDE\SHARED\BASETSD.H
C:\PROGRAM FILES (X86)\WINDOWS KITS\8.1\INCLUDE\SHARED\GUIDDEF.H
B:\PROGRAMS\MICROSOFT VISUAL STUDIO 2013\VC\INCLUDE\STRING.H
C:\PROGRAM FILES (X86)\WINDOWS KITS\8.1\INCLUDE\SHARED\PSHPACK4.H
C:\PROGRAM FILES (X86)\WINDOWS KITS\8.1\INCLUDE\SHARED\POPPACK.H
C:\PROGRAM FILES (X86)\WINDOWS KITS\8.1\INCLUDE\SHARED\PSHPACK2.H
C:\PROGRAM FILES (X86)\WINDOWS KITS\8.1\INCLUDE\SHARED\PSHPACK8.H
C:\PROGRAM FILES (X86)\WINDOWS KITS\8.1\INCLUDE\SHARED\APISET.H
C:\PROGRAM FILES (X86)\WINDOWS KITS\8.1\INCLUDE\SHARED\KTMTYPES.H
C:\PROGRAM FILES (X86)\WINDOWS KITS\8.1\INCLUDE\UM\WINBASE.H
C:\PROGRAM FILES (X86)\WINDOWS KITS\8.1\INCLUDE\SHARED\APISETCCONV.H
C:\PROGRAM FILES (X86)\WINDOWS KITS\8.1\INCLUDE\UM\MINWINBASE.H
C:\PROGRAM FILES (X86)\WINDOWS KITS\8.1\INCLUDE\UM\PROCESSENV.H
C:\PROGRAM FILES (X86)\WINDOWS KITS\8.1\INCLUDE\UM\FILEAPI.H
C:\PROGRAM FILES (X86)\WINDOWS KITS\8.1\INCLUDE\UM\DEBUGAPI.H
C:\PROGRAM FILES (X86)\WINDOWS KITS\8.1\INCLUDE\UM\UTILAPISET.H
C:\PROGRAM FILES (X86)\WINDOWS KITS\8.1\INCLUDE\UM\HANDLEAPI.H
C:\PROGRAM FILES (X86)\WINDOWS KITS\8.1\INCLUDE\UM\ERRHANDLINGAPI.H
C:\PROGRAM FILES (X86)\WINDOWS KITS\8.1\INCLUDE\UM\FIBERSAPI.H
C:\PROGRAM FILES (X86)\WINDOWS KITS\8.1\INCLUDE\UM\NAMEDPIPEAPI.H
C:\PROGRAM FILES (X86)\WINDOWS KITS\8.1\INCLUDE\UM\PROFILEAPI.H
C:\PROGRAM FILES (X86)\WINDOWS KITS\8.1\INCLUDE\UM\HEAPAPI.H
C:\PROGRAM FILES (X86)\WINDOWS KITS\8.1\INCLUDE\UM\IOAPISET.H
C:\PROGRAM FILES (X86)\WINDOWS KITS\8.1\INCLUDE\UM\SYNCHAPI.H
C:\PROGRAM FILES (X86)\WINDOWS KITS\8.1\INCLUDE\UM\INTERLOCKEDAPI.H
C:\PROGRAM FILES (X86)\WINDOWS KITS\8.1\INCLUDE\UM\PROCESSTHREADSAPI.H
C:\PROGRAM FILES (X86)\WINDOWS KITS\8.1\INCLUDE\UM\SYSINFOAPI.H
C:\PROGRAM FILES (X86)\WINDOWS KITS\8.1\INCLUDE\UM\MEMORYAPI.H
C:\PROGRAM FILES (X86)\WINDOWS KITS\8.1\INCLUDE\UM\THREADPOOLLEGACYAPISET.H
C:\PROGRAM FILES (X86)\WINDOWS KITS\8.1\INCLUDE\UM\THREADPOOLAPISET.H
C:\PROGRAM FILES (X86)\WINDOWS KITS\8.1\INCLUDE\UM\BEMAPISET.H
C:\PROGRAM FILES (X86)\WINDOWS KITS\8.1\INCLUDE\UM\JOBAPI.H
C:\PROGRAM FILES (X86)\WINDOWS KITS\8.1\INCLUDE\UM\WOW64APISET.H
C:\PROGRAM FILES (X86)\WINDOWS KITS\8.1\INCLUDE\UM\LIBLOADERAPI.H
C:\PROGRAM FILES (X86)\WINDOWS KITS\8.1\INCLUDE\UM\SECURITYBASEAPI.H
C:\PROGRAM FILES (X86)\WINDOWS KITS\8.1\INCLUDE\UM\NAMESPACEAPI.H
C:\PROGRAM FILES (X86)\WINDOWS KITS\8.1\INCLUDE\UM\SYSTEMTOPOLOGYAPI.H
C:\PROGRAM FILES (X86)\WINDOWS KITS\8.1\INCLUDE\UM\PROCESSTOPOLOGYAPI.H
C:\PROGRAM FILES (X86)\WINDOWS KITS\8.1\INCLUDE\UM\SECURITYAPPCONTAINER.H
C:\PROGRAM FILES (X86)\WINDOWS KITS\8.1\INCLUDE\UM\REALTIMEAPISET.H
C:\PROGRAM FILES (X86)\WINDOWS KITS\8.1\INCLUDE\SHARED\WINERROR.H
C:\PROGRAM FILES (X86)\WINDOWS KITS\8.1\INCLUDE\UM\TIMEZONEAPI.H
C:\PROGRAM FILES (X86)\WINDOWS KITS\8.1\INCLUDE\UM\WINGDI.H
C:\PROGRAM FILES (X86)\WINDOWS KITS\8.1\INCLUDE\SHARED\PSHPACK1.H
C:\PROGRAM FILES (X86)\WINDOWS KITS\8.1\INCLUDE\UM\WINUSER.H
C:\PROGRAM FILES (X86)\WINDOWS KITS\8.1\INCLUDE\SHARED\TVOUT.H
C:\PROGRAM FILES (X86)\WINDOWS KITS\8.1\INCLUDE\UM\WINNLS.H
C:\PROGRAM FILES (X86)\WINDOWS KITS\8.1\INCLUDE\UM\DATETIMEAPI.H
C:\PROGRAM FILES (X86)\WINDOWS KITS\8.1\INCLUDE\UM\STRINGAPISET.H
C:\PROGRAM FILES (X86)\WINDOWS KITS\8.1\INCLUDE\UM\WINCON.H
C:\PROGRAM FILES (X86)\WINDOWS KITS\8.1\INCLUDE\UM\CONSOLEAPI.H
C:\PROGRAM FILES (X86)\WINDOWS KITS\8.1\INCLUDE\UM\WINVER.H
C:\PROGRAM FILES (X86)\WINDOWS KITS\8.1\INCLUDE\UM\VERRSRC.H
C:\PROGRAM FILES (X86)\WINDOWS KITS\8.1\INCLUDE\UM\WINREG.H
C:\PROGRAM FILES (X86)\WINDOWS KITS\8.1\INCLUDE\UM\REASON.H
C:\PROGRAM FILES (X86)\WINDOWS KITS\8.1\INCLUDE\UM\WINNETWK.H
C:\PROGRAM FILES (X86)\WINDOWS KITS\8.1\INCLUDE\SHARED\WNNC.H
C:\PROGRAM FILES (X86)\WINDOWS KITS\8.1\INCLUDE\SHARED\STRALIGN.H
C:\PROGRAM FILES (X86)\WINDOWS KITS\8.1\INCLUDE\UM\WINSVC.H
C:\PROGRAM FILES (X86)\WINDOWS KITS\8.1\INCLUDE\UM\MCX.H
C:\PROGRAM FILES (X86)\WINDOWS KITS\8.1\INCLUDE\UM\IMM.H
C:\PROGRAM FILES (X86)\WINDOWS KITS\8.1\INCLUDE\UM\IME_CMODES.H
C:\USERS\BETHANY\DESKTOP\JAKUB\275HOMEWORK\OBJRENDERING\OBJECTRENDERING\OBJECTRENDERING\OBJLOADER.H
B:\PROGRAMS\MICROSOFT VISUAL STUDIO 2013\VC\INCLUDE\IOSTREAM
B:\PROGRAMS\MICROSOFT VISUAL STUDIO 2013\VC\INCLUDE\ISTREAM
B:\PROGRAMS\MICROSOFT VISUAL STUDIO 2013\VC\INCLUDE\OSTREAM
B:\PROGRAMS\MICROSOFT VISUAL STUDIO 2013\VC\INCLUDE\IOS
B:\PROGRAMS\MICROSOFT VISUAL STUDIO 2013\VC\INCLUDE\XLOCNUM
B:\PROGRAMS\MICROSOFT VISUAL STUDIO 2013\VC\INCLUDE\CLIMITS
B:\PROGRAMS\MICROSOFT VISUAL STUDIO 2013\VC\INCLUDE\YVALS.H
B:\PROGRAMS\MICROSOFT VISUAL STUDIO 2013\VC\INCLUDE\XKEYCHECK.H
B:\PROGRAMS\MICROSOFT VISUAL STUDIO 2013\VC\INCLUDE\USE_ANSI.H
B:\PROGRAMS\MICROSOFT VISUAL STUDIO 2013\VC\INCLUDE\LIMITS.H
B:\PROGRAMS\MICROSOFT VISUAL STUDIO 2013\VC\INCLUDE\CMATH
B:\PROGRAMS\MICROSOFT VISUAL STUDIO 2013\VC\INCLUDE\MATH.H
B:\PROGRAMS\MICROSOFT VISUAL STUDIO 2013\VC\INCLUDE\XTGMATH.H
B:\PROGRAMS\MICROSOFT VISUAL STUDIO 2013\VC\INCLUDE\XTR1COMMON
B:\PROGRAMS\MICROSOFT VISUAL STUDIO 2013\VC\INCLUDE\CSTDIO
B:\PROGRAMS\MICROSOFT VISUAL STUDIO 2013\VC\INCLUDE\STDIO.H
B:\PROGRAMS\MICROSOFT VISUAL STUDIO 2013\VC\INCLUDE\SWPRINTF.INL
B:\PROGRAMS\MICROSOFT VISUAL STUDIO 2013\VC\INCLUDE\CSTDLIB
B:\PROGRAMS\MICROSOFT VISUAL STUDIO 2013\VC\INCLUDE\STDLIB.H
B:\PROGRAMS\MICROSOFT VISUAL STUDIO 2013\VC\INCLUDE\STREAMBUF
B:\PROGRAMS\MICROSOFT VISUAL STUDIO 2013\VC\INCLUDE\XIOSBASE
B:\PROGRAMS\MICROSOFT VISUAL STUDIO 2013\VC\INCLUDE\XLOCALE
B:\PROGRAMS\MICROSOFT VISUAL STUDIO 2013\VC\INCLUDE\CSTRING
B:\PROGRAMS\MICROSOFT VISUAL STUDIO 2013\VC\INCLUDE\STDEXCEPT
B:\PROGRAMS\MICROSOFT VISUAL STUDIO 2013\VC\INCLUDE\EXCEPTION
B:\PROGRAMS\MICROSOFT VISUAL STUDIO 2013\VC\INCLUDE\XSTDDEF
B:\PROGRAMS\MICROSOFT VISUAL STUDIO 2013\VC\INCLUDE\CSTDDEF
B:\PROGRAMS\MICROSOFT VISUAL STUDIO 2013\VC\INCLUDE\INITIALIZER_LIST
B:\PROGRAMS\MICROSOFT VISUAL STUDIO 2013\VC\INCLUDE\EH.H
B:\PROGRAMS\MICROSOFT VISUAL STUDIO 2013\VC\INCLUDE\XSTRING
B:\PROGRAMS\MICROSOFT VISUAL STUDIO 2013\VC\INCLUDE\XMEMORY0
B:\PROGRAMS\MICROSOFT VISUAL STUDIO 2013\VC\INCLUDE\LIMITS
B:\PROGRAMS\MICROSOFT VISUAL STUDIO 2013\VC\INCLUDE\YMATH.H
B:\PROGRAMS\MICROSOFT VISUAL STUDIO 2013\VC\INCLUDE\CFLOAT
B:\PROGRAMS\MICROSOFT VISUAL STUDIO 2013\VC\INCLUDE\FLOAT.H
B:\PROGRAMS\MICROSOFT VISUAL STUDIO 2013\VC\INCLUDE\CRTWRN.H
B:\PROGRAMS\MICROSOFT VISUAL STUDIO 2013\VC\INCLUDE\CWCHAR
B:\PROGRAMS\MICROSOFT VISUAL STUDIO 2013\VC\INCLUDE\WCHAR.H
B:\PROGRAMS\MICROSOFT VISUAL STUDIO 2013\VC\INCLUDE\WTIME.INL
B:\PROGRAMS\MICROSOFT VISUAL STUDIO 2013\VC\INCLUDE\NEW
B:\PROGRAMS\MICROSOFT VISUAL STUDIO 2013\VC\INCLUDE\XUTILITY
B:\PROGRAMS\MICROSOFT VISUAL STUDIO 2013\VC\INCLUDE\UTILITY
B:\PROGRAMS\MICROSOFT VISUAL STUDIO 2013\VC\INCLUDE\IOSFWD
B:\PROGRAMS\MICROSOFT VISUAL STUDIO 2013\VC\INCLUDE\CRTDBG.H
B:\PROGRAMS\MICROSOFT VISUAL STUDIO 2013\VC\INCLUDE\TYPE_TRAITS
B:\PROGRAMS\MICROSOFT VISUAL STUDIO 2013\VC\INCLUDE\XREFWRAP
B:\PROGRAMS\MICROSOFT VISUAL STUDIO 2013\VC\INCLUDE\XATOMIC0.H
B:\PROGRAMS\MICROSOFT VISUAL STUDIO 2013\VC\INCLUDE\TYPEINFO
B:\PROGRAMS\MICROSOFT VISUAL STUDIO 2013\VC\INCLUDE\XLOCINFO
B:\PROGRAMS\MICROSOFT VISUAL STUDIO 2013\VC\INCLUDE\XLOCINFO.H
B:\PROGRAMS\MICROSOFT VISUAL STUDIO 2013\VC\INCLUDE\LOCALE.H
B:\PROGRAMS\MICROSOFT VISUAL STUDIO 2013\VC\INCLUDE\XDEBUG
B:\PROGRAMS\MICROSOFT VISUAL STUDIO 2013\VC\INCLUDE\XMEMORY
B:\PROGRAMS\MICROSOFT VISUAL STUDIO 2013\VC\INCLUDE\XFACET
B:\PROGRAMS\MICROSOFT VISUAL STUDIO 2013\VC\INCLUDE\SYSTEM_ERROR
B:\PROGRAMS\MICROSOFT VISUAL STUDIO 2013\VC\INCLUDE\CERRNO
B:\PROGRAMS\MICROSOFT VISUAL STUDIO 2013\VC\INCLUDE\ERRNO.H
B:\PROGRAMS\MICROSOFT VISUAL STUDIO 2013\VC\INCLUDE\SHARE.H
B:\PROGRAMS\MICROSOFT VISUAL STUDIO 2013\VC\INCLUDE\FSTREAM
B:\PROGRAMS\MICROSOFT VISUAL STUDIO 2013\VC\INCLUDE\VECTOR
B:\PROGRAMS\MICROSOFT VISUAL STUDIO 2013\VC\INCLUDE\STRING
B:\PROGRAMS\MICROSOFT VISUAL STUDIO 2013\VC\INCLUDE\ITERATOR
C:\USERS\BETHANY\DESKTOP\JAKUB\275HOMEWORK\OBJRENDERING\OBJECTRENDERING\OBJECTRENDERING\OBJECT.H
B:\PROGRAMS\MICROSOFT VISUAL STUDIO 2013\VC\BIN\1033\CLUI.DLL
C:\WINDOWS\GLOBALIZATION\SORTING\SORTDEFAULT.NLS
C:\WINDOWS\SYSTEM32\RSAENH.DLL
C:\WINDOWS\SYSTEM32\TZRES.DLL
^C:\USERS\BETHANY\DESKTOP\JAKUB\275HOMEWORK\OBJRENDERING\OBJECTRENDERING\OBJECTRENDERING\OBJECT.CPP
C:\USERS\BETHANY\DESKTOP\JAKUB\275HOMEWORK\OBJRENDERING\OBJECTRENDERING\OBJECTRENDERING\OBJECT.H
B:\PROGRAMS\MICROSOFT VISUAL STUDIO 2013\VC\INCLUDE\VECTOR
B:\PROGRAMS\MICROSOFT VISUAL STUDIO 2013\VC\INCLUDE\XMEMORY
B:\PROGRAMS\MICROSOFT VISUAL STUDIO 2013\VC\INCLUDE\XMEMORY0
B:\PROGRAMS\MICROSOFT VISUAL STUDIO 2013\VC\INCLUDE\CSTDLIB
B:\PROGRAMS\MICROSOFT VISUAL STUDIO 2013\VC\INCLUDE\YVALS.H
B:\PROGRAMS\MICROSOFT VISUAL STUDIO 2013\VC\INCLUDE\XKEYCHECK.H
B:\PROGRAMS\MICROSOFT VISUAL STUDIO 2013\VC\INCLUDE\CRTDEFS.H
B:\PROGRAMS\MICROSOFT VISUAL STUDIO 2013\VC\INCLUDE\SAL.H
B:\PROGRAMS\MICROSOFT VISUAL STUDIO 2013\VC\INCLUDE\CONCURRENCYSAL.H
B:\PROGRAMS\MICROSOFT VISUAL STUDIO 2013\VC\INCLUDE\VADEFS.H
B:\PROGRAMS\MICROSOFT VISUAL STUDIO 2013\VC\INCLUDE\USE_ANSI.H
B:\PROGRAMS\MICROSOFT VISUAL STUDIO 2013\VC\INCLUDE\STDLIB.H
B:\PROGRAMS\MICROSOFT VISUAL STUDIO 2013\VC\INCLUDE\LIMITS.H
B:\PROGRAMS\MICROSOFT VISUAL STUDIO 2013\VC\INCLUDE\LIMITS
B:\PROGRAMS\MICROSOFT VISUAL STUDIO 2013\VC\INCLUDE\YMATH.H
B:\PROGRAMS\MICROSOFT VISUAL STUDIO 2013\VC\INCLUDE\CFLOAT
B:\PROGRAMS\MICROSOFT VISUAL STUDIO 2013\VC\INCLUDE\FLOAT.H
B:\PROGRAMS\MICROSOFT VISUAL STUDIO 2013\VC\INCLUDE\CRTWRN.H
B:\PROGRAMS\MICROSOFT VISUAL STUDIO 2013\VC\INCLUDE\CLIMITS
B:\PROGRAMS\MICROSOFT VISUAL STUDIO 2013\VC\INCLUDE\CMATH
B:\PROGRAMS\MICROSOFT VISUAL STUDIO 2013\VC\INCLUDE\MATH.H
B:\PROGRAMS\MICROSOFT VISUAL STUDIO 2013\VC\INCLUDE\XTGMATH.H
B:\PROGRAMS\MICROSOFT VISUAL STUDIO 2013\VC\INCLUDE\XTR1COMMON
B:\PROGRAMS\MICROSOFT VISUAL STUDIO 2013\VC\INCLUDE\CWCHAR
B:\PROGRAMS\MICROSOFT VISUAL STUDIO 2013\VC\INCLUDE\WCHAR.H
B:\PROGRAMS\MICROSOFT VISUAL STUDIO 2013\VC\INCLUDE\SWPRINTF.INL
B:\PROGRAMS\MICROSOFT VISUAL STUDIO 2013\VC\INCLUDE\WTIME.INL
B:\PROGRAMS\MICROSOFT VISUAL STUDIO 2013\VC\INCLUDE\XSTDDEF
B:\PROGRAMS\MICROSOFT VISUAL STUDIO 2013\VC\INCLUDE\CSTDDEF
B:\PROGRAMS\MICROSOFT VISUAL STUDIO 2013\VC\INCLUDE\STDDEF.H
B:\PROGRAMS\MICROSOFT VISUAL STUDIO 2013\VC\INCLUDE\INITIALIZER_LIST
B:\PROGRAMS\MICROSOFT VISUAL STUDIO 2013\VC\INCLUDE\NEW
B:\PROGRAMS\MICROSOFT VISUAL STUDIO 2013\VC\INCLUDE\EXCEPTION
B:\PROGRAMS\MICROSOFT VISUAL STUDIO 2013\VC\INCLUDE\EH.H
B:\PROGRAMS\MICROSOFT VISUAL STUDIO 2013\VC\INCLUDE\MALLOC.H
B:\PROGRAMS\MICROSOFT VISUAL STUDIO 2013\VC\INCLUDE\STRING.H
B:\PROGRAMS\MICROSOFT VISUAL STUDIO 2013\VC\INCLUDE\XUTILITY
B:\PROGRAMS\MICROSOFT VISUAL STUDIO 2013\VC\INCLUDE\UTILITY
B:\PROGRAMS\MICROSOFT VISUAL STUDIO 2013\VC\INCLUDE\IOSFWD
B:\PROGRAMS\MICROSOFT VISUAL STUDIO 2013\VC\INCLUDE\CSTDIO
B:\PROGRAMS\MICROSOFT VISUAL STUDIO 2013\VC\INCLUDE\STDIO.H
B:\PROGRAMS\MICROSOFT VISUAL STUDIO 2013\VC\INCLUDE\CSTRING
B:\PROGRAMS\MICROSOFT VISUAL STUDIO 2013\VC\INCLUDE\CRTDBG.H
B:\PROGRAMS\MICROSOFT VISUAL STUDIO 2013\VC\INCLUDE\TYPE_TRAITS
B:\PROGRAMS\MICROSOFT VISUAL STUDIO 2013\VC\INCLUDE\XREFWRAP
B:\PROGRAMS\MICROSOFT VISUAL STUDIO 2013\VC\INCLUDE\XATOMIC0.H
B:\PROGRAMS\MICROSOFT VISUAL STUDIO 2013\VC\INCLUDE\INTRIN.H
B:\PROGRAMS\MICROSOFT VISUAL STUDIO 2013\VC\INCLUDE\SETJMP.H
B:\PROGRAMS\MICROSOFT VISUAL STUDIO 2013\VC\INCLUDE\IMMINTRIN.H
B:\PROGRAMS\MICROSOFT VISUAL STUDIO 2013\VC\INCLUDE\WMMINTRIN.H
B:\PROGRAMS\MICROSOFT VISUAL STUDIO 2013\VC\INCLUDE\NMMINTRIN.H
B:\PROGRAMS\MICROSOFT VISUAL STUDIO 2013\VC\INCLUDE\SMMINTRIN.H
B:\PROGRAMS\MICROSOFT VISUAL STUDIO 2013\VC\INCLUDE\TMMINTRIN.H
B:\PROGRAMS\MICROSOFT VISUAL STUDIO 2013\VC\INCLUDE\PMMINTRIN.H
B:\PROGRAMS\MICROSOFT VISUAL STUDIO 2013\VC\INCLUDE\EMMINTRIN.H
B:\PROGRAMS\MICROSOFT VISUAL STUDIO 2013\VC\INCLUDE\XMMINTRIN.H
B:\PROGRAMS\MICROSOFT VISUAL STUDIO 2013\VC\INCLUDE\MMINTRIN.H
B:\PROGRAMS\MICROSOFT VISUAL STUDIO 2013\VC\INCLUDE\AMMINTRIN.H
B:\PROGRAMS\MICROSOFT VISUAL STUDIO 2013\VC\INCLUDE\MM3DNOW.H
B:\PROGRAMS\MICROSOFT VISUAL STUDIO 2013\VC\INCLUDE\STDEXCEPT
B:\PROGRAMS\MICROSOFT VISUAL STUDIO 2013\VC\INCLUDE\XSTRING
^C:\USERS\BETHANY\DESKTOP\JAKUB\275HOMEWORK\OBJRENDERING\OBJECTRENDERING\OBJECTRENDERING\OBJLOADER.CPP
C:\USERS\BETHANY\DESKTOP\JAKUB\275HOMEWORK\OBJRENDERING\OBJECTRENDERING\OBJECTRENDERING\OBJLOADER.H
B:\PROGRAMS\MICROSOFT VISUAL STUDIO 2013\VC\INCLUDE\IOSTREAM
B:\PROGRAMS\MICROSOFT VISUAL STUDIO 2013\VC\INCLUDE\ISTREAM
B:\PROGRAMS\MICROSOFT VISUAL STUDIO 2013\VC\INCLUDE\OSTREAM
B:\PROGRAMS\MICROSOFT VISUAL STUDIO 2013\VC\INCLUDE\IOS
B:\PROGRAMS\MICROSOFT VISUAL STUDIO 2013\VC\INCLUDE\XLOCNUM
B:\PROGRAMS\MICROSOFT VISUAL STUDIO 2013\VC\INCLUDE\CLIMITS
B:\PROGRAMS\MICROSOFT VISUAL STUDIO 2013\VC\INCLUDE\YVALS.H
B:\PROGRAMS\MICROSOFT VISUAL STUDIO 2013\VC\INCLUDE\XKEYCHECK.H
B:\PROGRAMS\MICROSOFT VISUAL STUDIO 2013\VC\INCLUDE\CRTDEFS.H
B:\PROGRAMS\MICROSOFT VISUAL STUDIO 2013\VC\INCLUDE\SAL.H
B:\PROGRAMS\MICROSOFT VISUAL STUDIO 2013\VC\INCLUDE\CONCURRENCYSAL.H
B:\PROGRAMS\MICROSOFT VISUAL STUDIO 2013\VC\INCLUDE\VADEFS.H
B:\PROGRAMS\MICROSOFT VISUAL STUDIO 2013\VC\INCLUDE\USE_ANSI.H
B:\PROGRAMS\MICROSOFT VISUAL STUDIO 2013\VC\INCLUDE\LIMITS.H
B:\PROGRAMS\MICROSOFT VISUAL STUDIO 2013\VC\INCLUDE\CMATH
B:\PROGRAMS\MICROSOFT VISUAL STUDIO 2013\VC\INCLUDE\MATH.H
B:\PROGRAMS\MICROSOFT VISUAL STUDIO 2013\VC\INCLUDE\XTGMATH.H
B:\PROGRAMS\MICROSOFT VISUAL STUDIO 2013\VC\INCLUDE\XTR1COMMON
B:\PROGRAMS\MICROSOFT VISUAL STUDIO 2013\VC\INCLUDE\CSTDIO
B:\PROGRAMS\MICROSOFT VISUAL STUDIO 2013\VC\INCLUDE\STDIO.H
B:\PROGRAMS\MICROSOFT VISUAL STUDIO 2013\VC\INCLUDE\SWPRINTF.INL
B:\PROGRAMS\MICROSOFT VISUAL STUDIO 2013\VC\INCLUDE\CSTDLIB
B:\PROGRAMS\MICROSOFT VISUAL STUDIO 2013\VC\INCLUDE\STDLIB.H
B:\PROGRAMS\MICROSOFT VISUAL STUDIO 2013\VC\INCLUDE\STREAMBUF
B:\PROGRAMS\MICROSOFT VISUAL STUDIO 2013\VC\INCLUDE\XIOSBASE
B:\PROGRAMS\MICROSOFT VISUAL STUDIO 2013\VC\INCLUDE\XLOCALE
B:\PROGRAMS\MICROSOFT VISUAL STUDIO 2013\VC\INCLUDE\CSTRING
B:\PROGRAMS\MICROSOFT VISUAL STUDIO 2013\VC\INCLUDE\STRING.H
B:\PROGRAMS\MICROSOFT VISUAL STUDIO 2013\VC\INCLUDE\STDEXCEPT
B:\PROGRAMS\MICROSOFT VISUAL STUDIO 2013\VC\INCLUDE\EXCEPTION
B:\PROGRAMS\MICROSOFT VISUAL STUDIO 2013\VC\INCLUDE\XSTDDEF
B:\PROGRAMS\MICROSOFT VISUAL STUDIO 2013\VC\INCLUDE\CSTDDEF
B:\PROGRAMS\MICROSOFT VISUAL STUDIO 2013\VC\INCLUDE\STDDEF.H
B:\PROGRAMS\MICROSOFT VISUAL STUDIO 2013\VC\INCLUDE\INITIALIZER_LIST
B:\PROGRAMS\MICROSOFT VISUAL STUDIO 2013\VC\INCLUDE\EH.H
B:\PROGRAMS\MICROSOFT VISUAL STUDIO 2013\VC\INCLUDE\MALLOC.H
B:\PROGRAMS\MICROSOFT VISUAL STUDIO 2013\VC\INCLUDE\XSTRING
B:\PROGRAMS\MICROSOFT VISUAL STUDIO 2013\VC\INCLUDE\XMEMORY0
B:\PROGRAMS\MICROSOFT VISUAL STUDIO 2013\VC\INCLUDE\LIMITS
B:\PROGRAMS\MICROSOFT VISUAL STUDIO 2013\VC\INCLUDE\YMATH.H
B:\PROGRAMS\MICROSOFT VISUAL STUDIO 2013\VC\INCLUDE\CFLOAT
B:\PROGRAMS\MICROSOFT VISUAL STUDIO 2013\VC\INCLUDE\FLOAT.H
B:\PROGRAMS\MICROSOFT VISUAL STUDIO 2013\VC\INCLUDE\CRTWRN.H
B:\PROGRAMS\MICROSOFT VISUAL STUDIO 2013\VC\INCLUDE\CWCHAR
B:\PROGRAMS\MICROSOFT VISUAL STUDIO 2013\VC\INCLUDE\WCHAR.H
B:\PROGRAMS\MICROSOFT VISUAL STUDIO 2013\VC\INCLUDE\WTIME.INL
B:\PROGRAMS\MICROSOFT VISUAL STUDIO 2013\VC\INCLUDE\NEW
B:\PROGRAMS\MICROSOFT VISUAL STUDIO 2013\VC\INCLUDE\XUTILITY
B:\PROGRAMS\MICROSOFT VISUAL STUDIO 2013\VC\INCLUDE\UTILITY
B:\PROGRAMS\MICROSOFT VISUAL STUDIO 2013\VC\INCLUDE\IOSFWD
B:\PROGRAMS\MICROSOFT VISUAL STUDIO 2013\VC\INCLUDE\CRTDBG.H
B:\PROGRAMS\MICROSOFT VISUAL STUDIO 2013\VC\INCLUDE\TYPE_TRAITS
B:\PROGRAMS\MICROSOFT VISUAL STUDIO 2013\VC\INCLUDE\XREFWRAP
B:\PROGRAMS\MICROSOFT VISUAL STUDIO 2013\VC\INCLUDE\XATOMIC0.H
B:\PROGRAMS\MICROSOFT VISUAL STUDIO 2013\VC\INCLUDE\INTRIN.H
B:\PROGRAMS\MICROSOFT VISUAL STUDIO 2013\VC\INCLUDE\SETJMP.H
B:\PROGRAMS\MICROSOFT VISUAL STUDIO 2013\VC\INCLUDE\IMMINTRIN.H
B:\PROGRAMS\MICROSOFT VISUAL STUDIO 2013\VC\INCLUDE\WMMINTRIN.H
B:\PROGRAMS\MICROSOFT VISUAL STUDIO 2013\VC\INCLUDE\NMMINTRIN.H
B:\PROGRAMS\MICROSOFT VISUAL STUDIO 2013\VC\INCLUDE\SMMINTRIN.H
B:\PROGRAMS\MICROSOFT VISUAL STUDIO 2013\VC\INCLUDE\TMMINTRIN.H
B:\PROGRAMS\MICROSOFT VISUAL STUDIO 2013\VC\INCLUDE\PMMINTRIN.H
B:\PROGRAMS\MICROSOFT VISUAL STUDIO 2013\VC\INCLUDE\EMMINTRIN.H
B:\PROGRAMS\MICROSOFT VISUAL STUDIO 2013\VC\INCLUDE\XMMINTRIN.H
B:\PROGRAMS\MICROSOFT VISUAL STUDIO 2013\VC\INCLUDE\MMINTRIN.H
B:\PROGRAMS\MICROSOFT VISUAL STUDIO 2013\VC\INCLUDE\AMMINTRIN.H
B:\PROGRAMS\MICROSOFT VISUAL STUDIO 2013\VC\INCLUDE\MM3DNOW.H
B:\PROGRAMS\MICROSOFT VISUAL STUDIO 2013\VC\INCLUDE\TYPEINFO
B:\PROGRAMS\MICROSOFT VISUAL STUDIO 2013\VC\INCLUDE\XLOCINFO
B:\PROGRAMS\MICROSOFT VISUAL STUDIO 2013\VC\INCLUDE\XLOCINFO.H
B:\PROGRAMS\MICROSOFT VISUAL STUDIO 2013\VC\INCLUDE\CTYPE.H
B:\PROGRAMS\MICROSOFT VISUAL STUDIO 2013\VC\INCLUDE\LOCALE.H
B:\PROGRAMS\MICROSOFT VISUAL STUDIO 2013\VC\INCLUDE\XDEBUG
B:\PROGRAMS\MICROSOFT VISUAL STUDIO 2013\VC\INCLUDE\XMEMORY
B:\PROGRAMS\MICROSOFT VISUAL STUDIO 2013\VC\INCLUDE\XFACET
B:\PROGRAMS\MICROSOFT VISUAL STUDIO 2013\VC\INCLUDE\SYSTEM_ERROR
B:\PROGRAMS\MICROSOFT VISUAL STUDIO 2013\VC\INCLUDE\CERRNO
B:\PROGRAMS\MICROSOFT VISUAL STUDIO 2013\VC\INCLUDE\ERRNO.H
B:\PROGRAMS\MICROSOFT VISUAL STUDIO 2013\VC\INCLUDE\SHARE.H
B:\PROGRAMS\MICROSOFT VISUAL STUDIO 2013\VC\INCLUDE\FSTREAM
B:\PROGRAMS\MICROSOFT VISUAL STUDIO 2013\VC\INCLUDE\VECTOR
B:\PROGRAMS\MICROSOFT VISUAL STUDIO 2013\VC\INCLUDE\STRING
B:\PROGRAMS\MICROSOFT VISUAL STUDIO 2013\VC\INCLUDE\ITERATOR
C:\USERS\BETHANY\DESKTOP\JAKUB\275HOMEWORK\OBJRENDERING\OBJECTRENDERING\OBJECTRENDERING\OBJECT.H
B:\PROGRAMS\MICROSOFT VISUAL STUDIO 2013\VC\BIN\1033\CLUI.DLL
C:\WINDOWS\GLOBALIZATION\SORTING\SORTDEFAULT.NLS
C:\WINDOWS\SYSTEM32\RSAENH.DLL
C:\WINDOWS\SYSTEM32\TZRES.DLL
^C:\USERS\BETHANY\DESKTOP\JAKUB\275HOMEWORK\OBJRENDERING\OBJECTRENDERING\OBJECTRENDERING\OBJECTRENDERER.CPP
C:\USERS\BETHANY\DESKTOP\JAKUB\275HOMEWORK\OBJRENDERING\OBJECTRENDERING\OBJECTRENDERING\SDL2\INCLUDE\SDL.H
C:\USERS\BETHANY\DESKTOP\JAKUB\275HOMEWORK\OBJRENDERING\OBJECTRENDERING\OBJECTRENDERING\SDL2\INCLUDE\SDL_MAIN.H
C:\USERS\BETHANY\DESKTOP\JAKUB\275HOMEWORK\OBJRENDERING\OBJECTRENDERING\OBJECTRENDERING\SDL2\INCLUDE\SDL_STDINC.H
C:\USERS\BETHANY\DESKTOP\JAKUB\275HOMEWORK\OBJRENDERING\OBJECTRENDERING\OBJECTRENDERING\SDL2\INCLUDE\SDL_CONFIG.H
C:\USERS\BETHANY\DESKTOP\JAKUB\275HOMEWORK\OBJRENDERING\OBJECTRENDERING\OBJECTRENDERING\SDL2\INCLUDE\SDL_PLATFORM.H
C:\PROGRAM FILES (X86)\WINDOWS KITS\8.1\INCLUDE\SHARED\WINAPIFAMILY.H
C:\USERS\BETHANY\DESKTOP\JAKUB\275HOMEWORK\OBJRENDERING\OBJECTRENDERING\OBJECTRENDERING\SDL2\INCLUDE\BEGIN_CODE.H
C:\USERS\BETHANY\DESKTOP\JAKUB\275HOMEWORK\OBJRENDERING\OBJECTRENDERING\OBJECTRENDERING\SDL2\INCLUDE\CLOSE_CODE.H
B:\PROGRAMS\MICROSOFT VISUAL STUDIO 2013\VC\INCLUDE\STDDEF.H
B:\PROGRAMS\MICROSOFT VISUAL STUDIO 2013\VC\INCLUDE\CRTDEFS.H
B:\PROGRAMS\MICROSOFT VISUAL STUDIO 2013\VC\INCLUDE\SAL.H
B:\PROGRAMS\MICROSOFT VISUAL STUDIO 2013\VC\INCLUDE\CONCURRENCYSAL.H
B:\PROGRAMS\MICROSOFT VISUAL STUDIO 2013\VC\INCLUDE\VADEFS.H
B:\PROGRAMS\MICROSOFT VISUAL STUDIO 2013\VC\INCLUDE\STDARG.H
C:\USERS\BETHANY\DESKTOP\JAKUB\275HOMEWORK\OBJRENDERING\OBJECTRENDERING\OBJECTRENDERING\SDL2\INCLUDE\SDL_ASSERT.H
C:\USERS\BETHANY\DESKTOP\JAKUB\275HOMEWORK\OBJRENDERING\OBJECTRENDERING\OBJECTRENDERING\SDL2\INCLUDE\SDL_ATOMIC.H
C:\USERS\BETHANY\DESKTOP\JAKUB\275HOMEWORK\OBJRENDERING\OBJECTRENDERING\OBJECTRENDERING\SDL2\INCLUDE\SDL_AUDIO.H
C:\USERS\BETHANY\DESKTOP\JAKUB\275HOMEWORK\OBJRENDERING\OBJECTRENDERING\OBJECTRENDERING\SDL2\INCLUDE\SDL_ERROR.H
C:\USERS\BETHANY\DESKTOP\JAKUB\275HOMEWORK\OBJRENDERING\OBJECTRENDERING\OBJECTRENDERING\SDL2\INCLUDE\SDL_ENDIAN.H
C:\USERS\BETHANY\DESKTOP\JAKUB\275HOMEWORK\OBJRENDERING\OBJECTRENDERING\OBJECTRENDERING\SDL2\INCLUDE\SDL_MUTEX.H
C:\USERS\BETHANY\DESKTOP\JAKUB\275HOMEWORK\OBJRENDERING\OBJECTRENDERING\OBJECTRENDERING\SDL2\INCLUDE\SDL_THREAD.H
B:\PROGRAMS\MICROSOFT VISUAL STUDIO 2013\VC\INCLUDE\PROCESS.H
C:\USERS\BETHANY\DESKTOP\JAKUB\275HOMEWORK\OBJRENDERING\OBJECTRENDERING\OBJECTRENDERING\SDL2\INCLUDE\SDL_RWOPS.H
C:\USERS\BETHANY\DESKTOP\JAKUB\275HOMEWORK\OBJRENDERING\OBJECTRENDERING\OBJECTRENDERING\SDL2\INCLUDE\SDL_CLIPBOARD.H
C:\USERS\BETHANY\DESKTOP\JAKUB\275HOMEWORK\OBJRENDERING\OBJECTRENDERING\OBJECTRENDERING\SDL2\INCLUDE\SDL_CPUINFO.H
B:\PROGRAMS\MICROSOFT VISUAL STUDIO 2013\VC\INCLUDE\INTRIN.H
B:\PROGRAMS\MICROSOFT VISUAL STUDIO 2013\VC\INCLUDE\SETJMP.H
B:\PROGRAMS\MICROSOFT VISUAL STUDIO 2013\VC\INCLUDE\IMMINTRIN.H
B:\PROGRAMS\MICROSOFT VISUAL STUDIO 2013\VC\INCLUDE\WMMINTRIN.H
B:\PROGRAMS\MICROSOFT VISUAL STUDIO 2013\VC\INCLUDE\NMMINTRIN.H
B:\PROGRAMS\MICROSOFT VISUAL STUDIO 2013\VC\INCLUDE\SMMINTRIN.H
B:\PROGRAMS\MICROSOFT VISUAL STUDIO 2013\VC\INCLUDE\TMMINTRIN.H
B:\PROGRAMS\MICROSOFT VISUAL STUDIO 2013\VC\INCLUDE\PMMINTRIN.H
B:\PROGRAMS\MICROSOFT VISUAL STUDIO 2013\VC\INCLUDE\EMMINTRIN.H
B:\PROGRAMS\MICROSOFT VISUAL STUDIO 2013\VC\INCLUDE\XMMINTRIN.H
B:\PROGRAMS\MICROSOFT VISUAL STUDIO 2013\VC\INCLUDE\MMINTRIN.H
B:\PROGRAMS\MICROSOFT VISUAL STUDIO 2013\VC\INCLUDE\MALLOC.H
B:\PROGRAMS\MICROSOFT VISUAL STUDIO 2013\VC\INCLUDE\AMMINTRIN.H
B:\PROGRAMS\MICROSOFT VISUAL STUDIO 2013\VC\INCLUDE\MM3DNOW.H
C:\USERS\BETHANY\DESKTOP\JAKUB\275HOMEWORK\OBJRENDERING\OBJECTRENDERING\OBJECTRENDERING\SDL2\INCLUDE\SDL_EVENTS.H
C:\USERS\BETHANY\DESKTOP\JAKUB\275HOMEWORK\OBJRENDERING\OBJECTRENDERING\OBJECTRENDERING\SDL2\INCLUDE\SDL_VIDEO.H
C:\USERS\BETHANY\DESKTOP\JAKUB\275HOMEWORK\OBJRENDERING\OBJECTRENDERING\OBJECTRENDERING\SDL2\INCLUDE\SDL_PIXELS.H
C:\USERS\BETHANY\DESKTOP\JAKUB\275HOMEWORK\OBJRENDERING\OBJECTRENDERING\OBJECTRENDERING\SDL2\INCLUDE\SDL_RECT.H
C:\USERS\BETHANY\DESKTOP\JAKUB\275HOMEWORK\OBJRENDERING\OBJECTRENDERING\OBJECTRENDERING\SDL2\INCLUDE\SDL_SURFACE.H
C:\USERS\BETHANY\DESKTOP\JAKUB\275HOMEWORK\OBJRENDERING\OBJECTRENDERING\OBJECTRENDERING\SDL2\INCLUDE\SDL_BLENDMODE.H
C:\USERS\BETHANY\DESKTOP\JAKUB\275HOMEWORK\OBJRENDERING\OBJECTRENDERING\OBJECTRENDERING\SDL2\INCLUDE\SDL_KEYBOARD.H
C:\USERS\BETHANY\DESKTOP\JAKUB\275HOMEWORK\OBJRENDERING\OBJECTRENDERING\OBJECTRENDERING\SDL2\INCLUDE\SDL_KEYCODE.H
C:\USERS\BETHANY\DESKTOP\JAKUB\275HOMEWORK\OBJRENDERING\OBJECTRENDERING\OBJECTRENDERING\SDL2\INCLUDE\SDL_SCANCODE.H
C:\USERS\BETHANY\DESKTOP\JAKUB\275HOMEWORK\OBJRENDERING\OBJECTRENDERING\OBJECTRENDERING\SDL2\INCLUDE\SDL_MOUSE.H
C:\USERS\BETHANY\DESKTOP\JAKUB\275HOMEWORK\OBJRENDERING\OBJECTRENDERING\OBJECTRENDERING\SDL2\INCLUDE\SDL_JOYSTICK.H
C:\USERS\BETHANY\DESKTOP\JAKUB\275HOMEWORK\OBJRENDERING\OBJECTRENDERING\OBJECTRENDERING\SDL2\INCLUDE\SDL_GAMECONTROLLER.H
C:\USERS\BETHANY\DESKTOP\JAKUB\275HOMEWORK\OBJRENDERING\OBJECTRENDERING\OBJECTRENDERING\SDL2\INCLUDE\SDL_QUIT.H
C:\USERS\BETHANY\DESKTOP\JAKUB\275HOMEWORK\OBJRENDERING\OBJECTRENDERING\OBJECTRENDERING\SDL2\INCLUDE\SDL_GESTURE.H
C:\USERS\BETHANY\DESKTOP\JAKUB\275HOMEWORK\OBJRENDERING\OBJECTRENDERING\OBJECTRENDERING\SDL2\INCLUDE\SDL_TOUCH.H
C:\USERS\BETHANY\DESKTOP\JAKUB\275HOMEWORK\OBJRENDERING\OBJECTRENDERING\OBJECTRENDERING\SDL2\INCLUDE\SDL_FILESYSTEM.H
C:\USERS\BETHANY\DESKTOP\JAKUB\275HOMEWORK\OBJRENDERING\OBJECTRENDERING\OBJECTRENDERING\SDL2\INCLUDE\SDL_HAPTIC.H
C:\USERS\BETHANY\DESKTOP\JAKUB\275HOMEWORK\OBJRENDERING\OBJECTRENDERING\OBJECTRENDERING\SDL2\INCLUDE\SDL_HINTS.H
C:\USERS\BETHANY\DESKTOP\JAKUB\275HOMEWORK\OBJRENDERING\OBJECTRENDERING\OBJECTRENDERING\SDL2\INCLUDE\SDL_LOADSO.H
C:\USERS\BETHANY\DESKTOP\JAKUB\275HOMEWORK\OBJRENDERING\OBJECTRENDERING\OBJECTRENDERING\SDL2\INCLUDE\SDL_LOG.H
C:\USERS\BETHANY\DESKTOP\JAKUB\275HOMEWORK\OBJRENDERING\OBJECTRENDERING\OBJECTRENDERING\SDL2\INCLUDE\SDL_MESSAGEBOX.H
C:\USERS\BETHANY\DESKTOP\JAKUB\275HOMEWORK\OBJRENDERING\OBJECTRENDERING\OBJECTRENDERING\SDL2\INCLUDE\SDL_POWER.H
C:\USERS\BETHANY\DESKTOP\JAKUB\275HOMEWORK\OBJRENDERING\OBJECTRENDERING\OBJECTRENDERING\SDL2\INCLUDE\SDL_RENDER.H
C:\USERS\BETHANY\DESKTOP\JAKUB\275HOMEWORK\OBJRENDERING\OBJECTRENDERING\OBJECTRENDERING\SDL2\INCLUDE\SDL_SYSTEM.H
C:\USERS\BETHANY\DESKTOP\JAKUB\275HOMEWORK\OBJRENDERING\OBJECTRENDERING\OBJECTRENDERING\SDL2\INCLUDE\SDL_TIMER.H
C:\USERS\BETHANY\DESKTOP\JAKUB\275HOMEWORK\OBJRENDERING\OBJECTRENDERING\OBJECTRENDERING\SDL2\INCLUDE\SDL_VERSION.H
C:\USERS\BETHANY\DESKTOP\JAKUB\275HOMEWORK\OBJRENDERING\OBJECTRENDERING\OBJECTRENDERING\GLEW-1.13.0\INCLUDE\GL\GLEW.H
C:\PROGRAM FILES (X86)\WINDOWS KITS\8.1\INCLUDE\UM\GL\GLU.H
C:\PROGRAM FILES (X86)\WINDOWS KITS\8.1\INCLUDE\UM\GL\GL.H
C:\USERS\BETHANY\DESKTOP\JAKUB\275HOMEWORK\OBJRENDERING\OBJECTRENDERING\OBJECTRENDERING\SDL2\INCLUDE\SDL_OPENGL.H
C:\PROGRAM FILES (X86)\WINDOWS KITS\8.1\INCLUDE\UM\WINDOWS.H
C:\PROGRAM FILES (X86)\WINDOWS KITS\8.1\INCLUDE\SHARED\SDKDDKVER.H
B:\PROGRAMS\MICROSOFT VISUAL STUDIO 2013\VC\INCLUDE\EXCPT.H
C:\PROGRAM FILES (X86)\WINDOWS KITS\8.1\INCLUDE\SHARED\WINDEF.H
C:\PROGRAM FILES (X86)\WINDOWS KITS\8.1\INCLUDE\SHARED\MINWINDEF.H
C:\PROGRAM FILES (X86)\WINDOWS KITS\8.1\INCLUDE\SHARED\SPECSTRINGS.H
C:\PROGRAM FILES (X86)\WINDOWS KITS\8.1\INCLUDE\SHARED\SPECSTRINGS_STRICT.H
C:\PROGRAM FILES (X86)\WINDOWS KITS\8.1\INCLUDE\SHARED\SPECSTRINGS_UNDEF.H
C:\PROGRAM FILES (X86)\WINDOWS KITS\8.1\INCLUDE\SHARED\DRIVERSPECS.H
C:\PROGRAM FILES (X86)\WINDOWS KITS\8.1\INCLUDE\SHARED\SDV_DRIVERSPECS.H
C:\PROGRAM FILES (X86)\WINDOWS KITS\8.1\INCLUDE\UM\WINNT.H
B:\PROGRAMS\MICROSOFT VISUAL STUDIO 2013\VC\INCLUDE\CTYPE.H
C:\PROGRAM FILES (X86)\WINDOWS KITS\8.1\INCLUDE\SHARED\KERNELSPECS.H
C:\PROGRAM FILES (X86)\WINDOWS KITS\8.1\INCLUDE\SHARED\BASETSD.H
C:\PROGRAM FILES (X86)\WINDOWS KITS\8.1\INCLUDE\SHARED\GUIDDEF.H
B:\PROGRAMS\MICROSOFT VISUAL STUDIO 2013\VC\INCLUDE\STRING.H
C:\PROGRAM FILES (X86)\WINDOWS KITS\8.1\INCLUDE\SHARED\PSHPACK4.H
C:\PROGRAM FILES (X86)\WINDOWS KITS\8.1\INCLUDE\SHARED\POPPACK.H
C:\PROGRAM FILES (X86)\WINDOWS KITS\8.1\INCLUDE\SHARED\PSHPACK2.H
C:\PROGRAM FILES (X86)\WINDOWS KITS\8.1\INCLUDE\SHARED\PSHPACK8.H
C:\PROGRAM FILES (X86)\WINDOWS KITS\8.1\INCLUDE\SHARED\APISET.H
C:\PROGRAM FILES (X86)\WINDOWS KITS\8.1\INCLUDE\SHARED\KTMTYPES.H
C:\PROGRAM FILES (X86)\WINDOWS KITS\8.1\INCLUDE\UM\WINBASE.H
C:\PROGRAM FILES (X86)\WINDOWS KITS\8.1\INCLUDE\SHARED\APISETCCONV.H
C:\PROGRAM FILES (X86)\WINDOWS KITS\8.1\INCLUDE\UM\MINWINBASE.H
C:\PROGRAM FILES (X86)\WINDOWS KITS\8.1\INCLUDE\UM\PROCESSENV.H
C:\PROGRAM FILES (X86)\WINDOWS KITS\8.1\INCLUDE\UM\FILEAPI.H
C:\PROGRAM FILES (X86)\WINDOWS KITS\8.1\INCLUDE\UM\DEBUGAPI.H
C:\PROGRAM FILES (X86)\WINDOWS KITS\8.1\INCLUDE\UM\UTILAPISET.H
C:\PROGRAM FILES (X86)\WINDOWS KITS\8.1\INCLUDE\UM\HANDLEAPI.H
C:\PROGRAM FILES (X86)\WINDOWS KITS\8.1\INCLUDE\UM\ERRHANDLINGAPI.H
C:\PROGRAM FILES (X86)\WINDOWS KITS\8.1\INCLUDE\UM\FIBERSAPI.H
C:\PROGRAM FILES (X86)\WINDOWS KITS\8.1\INCLUDE\UM\NAMEDPIPEAPI.H
C:\PROGRAM FILES (X86)\WINDOWS KITS\8.1\INCLUDE\UM\PROFILEAPI.H
C:\PROGRAM FILES (X86)\WINDOWS KITS\8.1\INCLUDE\UM\HEAPAPI.H
C:\PROGRAM FILES (X86)\WINDOWS KITS\8.1\INCLUDE\UM\IOAPISET.H
C:\PROGRAM FILES (X86)\WINDOWS KITS\8.1\INCLUDE\UM\SYNCHAPI.H
C:\PROGRAM FILES (X86)\WINDOWS KITS\8.1\INCLUDE\UM\INTERLOCKEDAPI.H
C:\PROGRAM FILES (X86)\WINDOWS KITS\8.1\INCLUDE\UM\PROCESSTHREADSAPI.H
C:\PROGRAM FILES (X86)\WINDOWS KITS\8.1\INCLUDE\UM\SYSINFOAPI.H
C:\PROGRAM FILES (X86)\WINDOWS KITS\8.1\INCLUDE\UM\MEMORYAPI.H
C:\PROGRAM FILES (X86)\WINDOWS KITS\8.1\INCLUDE\UM\THREADPOOLLEGACYAPISET.H
C:\PROGRAM FILES (X86)\WINDOWS KITS\8.1\INCLUDE\UM\THREADPOOLAPISET.H
C:\PROGRAM FILES (X86)\WINDOWS KITS\8.1\INCLUDE\UM\BEMAPISET.H
C:\PROGRAM FILES (X86)\WINDOWS KITS\8.1\INCLUDE\UM\JOBAPI.H
C:\PROGRAM FILES (X86)\WINDOWS KITS\8.1\INCLUDE\UM\WOW64APISET.H
C:\PROGRAM FILES (X86)\WINDOWS KITS\8.1\INCLUDE\UM\LIBLOADERAPI.H
C:\PROGRAM FILES (X86)\WINDOWS KITS\8.1\INCLUDE\UM\SECURITYBASEAPI.H
C:\PROGRAM FILES (X86)\WINDOWS KITS\8.1\INCLUDE\UM\NAMESPACEAPI.H
C:\PROGRAM FILES (X86)\WINDOWS KITS\8.1\INCLUDE\UM\SYSTEMTOPOLOGYAPI.H
C:\PROGRAM FILES (X86)\WINDOWS KITS\8.1\INCLUDE\UM\PROCESSTOPOLOGYAPI.H
C:\PROGRAM FILES (X86)\WINDOWS KITS\8.1\INCLUDE\UM\SECURITYAPPCONTAINER.H
C:\PROGRAM FILES (X86)\WINDOWS KITS\8.1\INCLUDE\UM\REALTIMEAPISET.H
C:\PROGRAM FILES (X86)\WINDOWS KITS\8.1\INCLUDE\SHARED\WINERROR.H
C:\PROGRAM FILES (X86)\WINDOWS KITS\8.1\INCLUDE\UM\TIMEZONEAPI.H
C:\PROGRAM FILES (X86)\WINDOWS KITS\8.1\INCLUDE\UM\WINGDI.H
C:\PROGRAM FILES (X86)\WINDOWS KITS\8.1\INCLUDE\SHARED\PSHPACK1.H
C:\PROGRAM FILES (X86)\WINDOWS KITS\8.1\INCLUDE\UM\WINUSER.H
C:\PROGRAM FILES (X86)\WINDOWS KITS\8.1\INCLUDE\SHARED\TVOUT.H
C:\PROGRAM FILES (X86)\WINDOWS KITS\8.1\INCLUDE\UM\WINNLS.H
C:\PROGRAM FILES (X86)\WINDOWS KITS\8.1\INCLUDE\UM\DATETIMEAPI.H
C:\PROGRAM FILES (X86)\WINDOWS KITS\8.1\INCLUDE\UM\STRINGAPISET.H
C:\PROGRAM FILES (X86)\WINDOWS KITS\8.1\INCLUDE\UM\WINCON.H
C:\PROGRAM FILES (X86)\WINDOWS KITS\8.1\INCLUDE\UM\CONSOLEAPI.H
C:\PROGRAM FILES (X86)\WINDOWS KITS\8.1\INCLUDE\UM\WINVER.H
C:\PROGRAM FILES (X86)\WINDOWS KITS\8.1\INCLUDE\UM\VERRSRC.H
C:\PROGRAM FILES (X86)\WINDOWS KITS\8.1\INCLUDE\UM\WINREG.H
C:\PROGRAM FILES (X86)\WINDOWS KITS\8.1\INCLUDE\UM\REASON.H
C:\PROGRAM FILES (X86)\WINDOWS KITS\8.1\INCLUDE\UM\WINNETWK.H
C:\PROGRAM FILES (X86)\WINDOWS KITS\8.1\INCLUDE\SHARED\WNNC.H
C:\PROGRAM FILES (X86)\WINDOWS KITS\8.1\INCLUDE\SHARED\STRALIGN.H
C:\PROGRAM FILES (X86)\WINDOWS KITS\8.1\INCLUDE\UM\WINSVC.H
C:\PROGRAM FILES (X86)\WINDOWS KITS\8.1\INCLUDE\UM\MCX.H
C:\PROGRAM FILES (X86)\WINDOWS KITS\8.1\INCLUDE\UM\IMM.H
C:\PROGRAM FILES (X86)\WINDOWS KITS\8.1\INCLUDE\UM\IME_CMODES.H
B:\PROGRAMS\MICROSOFT VISUAL STUDIO 2013\VC\INCLUDE\CONIO.H
C:\USERS\BETHANY\DESKTOP\JAKUB\275HOMEWORK\OBJRENDERING\OBJECTRENDERING\OBJECTRENDERING\OPENGLENGINE.H
