^C:\USERS\BETHANY\DESKTOP\JAKUB\275HOMEWORK\OBJRENDERING\OBJECTRENDERING\OBJECTRENDERING\DEBUG\OBJECT.OBJ|C:\USERS\BETHANY\DESKTOP\JAKUB\275HOMEWORK\OBJRENDERING\OBJECTRENDERING\OBJECTRENDERING\DEBUG\OBJECTRENDERER.OBJ|C:\USERS\BETHANY\DESKTOP\JAKUB\275HOMEWORK\OBJRENDERING\OBJECTRENDERING\OBJECTRENDERING\DEBUG\OBJLOADER.OBJ|C:\USERS\BETHANY\DESKTOP\JAKUB\275HOMEWORK\OBJRENDERING\OBJECTRENDERING\OBJECTRENDERING\DEBUG\OPENGLENGINE.OBJ
C:\USERS\BETHANY\DESKTOP\JAKUB\275HOMEWORK\OBJRENDERING\OBJECTRENDERING\DEBUG\OBJECTRENDERING.ILK
C:\USERS\BETHANY\DESKTOP\JAKUB\275HOMEWORK\OBJRENDERING\OBJECTRENDERING\DEBUG\OBJECTRENDERING.EXE
C:\USERS\BETHANY\DESKTOP\JAKUB\275HOMEWORK\OBJRENDERING\OBJECTRENDERING\DEBUG\OBJECTRENDERING.PDB
