^D:\OSIPOV\PROGRAMMINGFORGAMESII\MODULE_2\CLASSPROJECT\MEMORYGAME\MEMORYGAME\DEBUG\MAIN.OBJ|D:\OSIPOV\PROGRAMMINGFORGAMESII\MODULE_2\CLASSPROJECT\MEMORYGAME\MEMORYGAME\DEBUG\MEMORYGAME.OBJ
D:\OSIPOV\PROGRAMMINGFORGAMESII\MODULE_2\CLASSPROJECT\MEMORYGAME\DEBUG\MEMORYGAME.ILK
D:\OSIPOV\PROGRAMMINGFORGAMESII\MODULE_2\CLASSPROJECT\MEMORYGAME\DEBUG\MEMORYGAME.EXE
D:\OSIPOV\PROGRAMMINGFORGAMESII\MODULE_2\CLASSPROJECT\MEMORYGAME\DEBUG\MEMORYGAME.PDB
^D:\OSIPOV\BITBUCKET\GAP-275-01-PROGRAMMING-FOR-GAMES-2\MODULE_3\CLASSPROJECT\MEMORYGAME\MEMORYGAME\DEBUG\MAIN.OBJ|D:\OSIPOV\BITBUCKET\GAP-275-01-PROGRAMMING-FOR-GAMES-2\MODULE_3\CLASSPROJECT\MEMORYGAME\MEMORYGAME\DEBUG\MEMORYGAME.OBJ
D:\OSIPOV\BITBUCKET\GAP-275-01-PROGRAMMING-FOR-GAMES-2\MODULE_3\CLASSPROJECT\MEMORYGAME\DEBUG\MEMORYGAME.ILK
D:\OSIPOV\BITBUCKET\GAP-275-01-PROGRAMMING-FOR-GAMES-2\MODULE_3\CLASSPROJECT\MEMORYGAME\DEBUG\MEMORYGAME.EXE
D:\OSIPOV\BITBUCKET\GAP-275-01-PROGRAMMING-FOR-GAMES-2\MODULE_3\CLASSPROJECT\MEMORYGAME\DEBUG\MEMORYGAME.PDB
