^D:\OSIPOV\GAP-275-01-PROGRAMMING-FOR-GAMES-2\MODULE_8\OBJFILELOADER\OBJFILE.CPP|D:\OSIPOV\GAP-275-01-PROGRAMMING-FOR-GAMES-2\MODULE_8\OBJFILELOADER\TESTOBJFILE.CPP
D:\OSIPOV\GAP-275-01-PROGRAMMING-FOR-GAMES-2\MODULE_8\OBJFILELOADER\DEBUG\VC120.PDB
D:\OSIPOV\GAP-275-01-PROGRAMMING-FOR-GAMES-2\MODULE_8\OBJFILELOADER\DEBUG\VC120.IDB
D:\OSIPOV\GAP-275-01-PROGRAMMING-FOR-GAMES-2\MODULE_8\OBJFILELOADER\DEBUG\OBJFILE.OBJ
D:\OSIPOV\GAP-275-01-PROGRAMMING-FOR-GAMES-2\MODULE_8\OBJFILELOADER\DEBUG\TESTOBJFILE.OBJ
^D:\OSIPOV\GAP-275-01-PROGRAMMING-FOR-GAMES-2\MODULE_8\OBJFILELOADER\OBJFILE.CPP
D:\OSIPOV\GAP-275-01-PROGRAMMING-FOR-GAMES-2\MODULE_8\OBJFILELOADER\DEBUG\VC120.PDB
D:\OSIPOV\GAP-275-01-PROGRAMMING-FOR-GAMES-2\MODULE_8\OBJFILELOADER\DEBUG\VC120.IDB
D:\OSIPOV\GAP-275-01-PROGRAMMING-FOR-GAMES-2\MODULE_8\OBJFILELOADER\DEBUG\OBJFILE.OBJ
^D:\OSIPOV\GAP-275-01-PROGRAMMING-FOR-GAMES-2\MODULE_8\OBJFILELOADER\TESTOBJFILE.CPP
D:\OSIPOV\GAP-275-01-PROGRAMMING-FOR-GAMES-2\MODULE_8\OBJFILELOADER\DEBUG\VC120.PDB
^D:\OSIPOV\GAP-275-01-PROGRAMMING-FOR-GAMES-2\MODULE_8\OBJFILELOADER\MAIN.CPP|D:\OSIPOV\GAP-275-01-PROGRAMMING-FOR-GAMES-2\MODULE_8\OBJFILELOADER\OBJFILE.CPP|D:\OSIPOV\GAP-275-01-PROGRAMMING-FOR-GAMES-2\MODULE_8\OBJFILELOADER\TESTOBJFILE.CPP
D:\OSIPOV\GAP-275-01-PROGRAMMING-FOR-GAMES-2\MODULE_8\OBJFILELOADER\DEBUG\VC120.PDB
D:\OSIPOV\GAP-275-01-PROGRAMMING-FOR-GAMES-2\MODULE_8\OBJFILELOADER\DEBUG\VC120.IDB
D:\OSIPOV\GAP-275-01-PROGRAMMING-FOR-GAMES-2\MODULE_8\OBJFILELOADER\DEBUG\MAIN.OBJ
D:\OSIPOV\GAP-275-01-PROGRAMMING-FOR-GAMES-2\MODULE_8\OBJFILELOADER\DEBUG\OBJFILE.OBJ
D:\OSIPOV\GAP-275-01-PROGRAMMING-FOR-GAMES-2\MODULE_8\OBJFILELOADER\DEBUG\TESTOBJFILE.OBJ
^D:\OSIPOV\GAP-275-01-PROGRAMMING-FOR-GAMES-2\MODULE_8\OBJFILELOADER\MAIN.CPP
D:\OSIPOV\GAP-275-01-PROGRAMMING-FOR-GAMES-2\MODULE_8\OBJFILELOADER\DEBUG\VC120.PDB
