^D:\OSIPOV\PROGRAMMINGFORGAMESII\MODULE_2\CLASSPROJECT\MEMORYGAME\MEMORYGAME\MAIN.CPP|D:\OSIPOV\PROGRAMMINGFORGAMESII\MODULE_2\CLASSPROJECT\MEMORYGAME\MEMORYGAME\MEMORYGAME.CPP
D:\OSIPOV\PROGRAMMINGFORGAMESII\MODULE_2\CLASSPROJECT\MEMORYGAME\MEMORYGAME\DEBUG\VC120.PDB
D:\OSIPOV\PROGRAMMINGFORGAMESII\MODULE_2\CLASSPROJECT\MEMORYGAME\MEMORYGAME\DEBUG\VC120.IDB
D:\OSIPOV\PROGRAMMINGFORGAMESII\MODULE_2\CLASSPROJECT\MEMORYGAME\MEMORYGAME\DEBUG\MAIN.OBJ
D:\OSIPOV\PROGRAMMINGFORGAMESII\MODULE_2\CLASSPROJECT\MEMORYGAME\MEMORYGAME\DEBUG\MEMORYGAME.OBJ
^D:\OSIPOV\PROGRAMMINGFORGAMESII\MODULE_2\CLASSPROJECT\MEMORYGAME\MEMORYGAME\MAIN.CPP
D:\OSIPOV\PROGRAMMINGFORGAMESII\MODULE_2\CLASSPROJECT\MEMORYGAME\MEMORYGAME\DEBUG\VC120.PDB
^D:\OSIPOV\PROGRAMMINGFORGAMESII\MODULE_2\CLASSPROJECT\MEMORYGAME\MEMORYGAME\MEMORYGAME.CPP
D:\OSIPOV\PROGRAMMINGFORGAMESII\MODULE_2\CLASSPROJECT\MEMORYGAME\MEMORYGAME\DEBUG\VC120.PDB
D:\OSIPOV\PROGRAMMINGFORGAMESII\MODULE_2\CLASSPROJECT\MEMORYGAME\MEMORYGAME\DEBUG\VC120.IDB
D:\OSIPOV\PROGRAMMINGFORGAMESII\MODULE_2\CLASSPROJECT\MEMORYGAME\MEMORYGAME\DEBUG\MEMORYGAME.OBJ
^D:\OSIPOV\PROGRAMMINGII\GAP-275-01-PROGRAMMING-FOR-GAMES-2\MODULE_2\CLASSPROJECT\MEMORYGAME\MEMORYGAME\MAIN.CPP|D:\OSIPOV\PROGRAMMINGII\GAP-275-01-PROGRAMMING-FOR-GAMES-2\MODULE_2\CLASSPROJECT\MEMORYGAME\MEMORYGAME\MEMORYGAME.CPP
D:\OSIPOV\PROGRAMMINGII\GAP-275-01-PROGRAMMING-FOR-GAMES-2\MODULE_2\CLASSPROJECT\MEMORYGAME\MEMORYGAME\DEBUG\VC120.PDB
D:\OSIPOV\PROGRAMMINGII\GAP-275-01-PROGRAMMING-FOR-GAMES-2\MODULE_2\CLASSPROJECT\MEMORYGAME\MEMORYGAME\DEBUG\VC120.IDB
D:\OSIPOV\PROGRAMMINGII\GAP-275-01-PROGRAMMING-FOR-GAMES-2\MODULE_2\CLASSPROJECT\MEMORYGAME\MEMORYGAME\DEBUG\MAIN.OBJ
D:\OSIPOV\PROGRAMMINGII\GAP-275-01-PROGRAMMING-FOR-GAMES-2\MODULE_2\CLASSPROJECT\MEMORYGAME\MEMORYGAME\DEBUG\MEMORYGAME.OBJ
^D:\OSIPOV\PROGRAMMINGII\GAP-275-01-PROGRAMMING-FOR-GAMES-2\MODULE_2\CLASSPROJECT\MEMORYGAME\MEMORYGAME\MAIN.CPP
D:\OSIPOV\PROGRAMMINGII\GAP-275-01-PROGRAMMING-FOR-GAMES-2\MODULE_2\CLASSPROJECT\MEMORYGAME\MEMORYGAME\DEBUG\VC120.PDB
^D:\OSIPOV\PROGRAMMINGII\GAP-275-01-PROGRAMMING-FOR-GAMES-2\MODULE_2\CLASSPROJECT\MEMORYGAME\MEMORYGAME\MEMORYGAME.CPP
D:\OSIPOV\PROGRAMMINGII\GAP-275-01-PROGRAMMING-FOR-GAMES-2\MODULE_2\CLASSPROJECT\MEMORYGAME\MEMORYGAME\DEBUG\VC120.PDB
