^D:\OSIPOV\PROGRAMMINGFORGAMESII\MODULE_2\CLASSPROJECT\MEMORYGAME\MEMORYGAME\DEBUG\MAIN.OBJ|D:\OSIPOV\PROGRAMMINGFORGAMESII\MODULE_2\CLASSPROJECT\MEMORYGAME\MEMORYGAME\DEBUG\MEMORYGAME.OBJ
/OUT:"D:\OSIPOV\PROGRAMMINGFORGAMESII\MODULE_2\CLASSPROJECT\MEMORYGAME\DEBUG\MEMORYGAME.EXE" /INCREMENTAL /NOLOGO kernel32.lib user32.lib gdi32.lib winspool.lib comdlg32.lib advapi32.lib shell32.lib ole32.lib oleaut32.lib uuid.lib odbc32.lib odbccp32.lib /MANIFEST /MANIFESTUAC:"level='asInvoker' uiAccess='false'" /manifest:embed /DEBUG /PDB:"D:\OSIPOV\PROGRAMMINGFORGAMESII\MODULE_2\CLASSPROJECT\MEMORYGAME\DEBUG\MEMORYGAME.PDB" /SUBSYSTEM:WINDOWS /TLBID:1 /DYNAMICBASE /NXCOMPAT /IMPLIB:"D:\OSIPOV\PROGRAMMINGFORGAMESII\MODULE_2\CLASSPROJECT\MEMORYGAME\DEBUG\MEMORYGAME.LIB" /MACHINE:X86 DEBUG\MAIN.OBJDEBUG\MEMORYGAME.OBJ
^D:\OSIPOV\PROGRAMMINGII\GAP-275-01-PROGRAMMING-FOR-GAMES-2\MODULE_2\CLASSPROJECT\MEMORYGAME\MEMORYGAME\DEBUG\MAIN.OBJ|D:\OSIPOV\PROGRAMMINGII\GAP-275-01-PROGRAMMING-FOR-GAMES-2\MODULE_2\CLASSPROJECT\MEMORYGAME\MEMORYGAME\DEBUG\MEMORYGAME.OBJ
/OUT:"D:\OSIPOV\PROGRAMMINGII\GAP-275-01-PROGRAMMING-FOR-GAMES-2\MODULE_2\CLASSPROJECT\MEMORYGAME\DEBUG\MEMORYGAME.EXE" /INCREMENTAL /NOLOGO kernel32.lib user32.lib gdi32.lib winspool.lib comdlg32.lib advapi32.lib shell32.lib ole32.lib oleaut32.lib uuid.lib odbc32.lib odbccp32.lib /MANIFEST /MANIFESTUAC:"level='asInvoker' uiAccess='false'" /manifest:embed /DEBUG /PDB:"D:\OSIPOV\PROGRAMMINGII\GAP-275-01-PROGRAMMING-FOR-GAMES-2\MODULE_2\CLASSPROJECT\MEMORYGAME\DEBUG\MEMORYGAME.PDB" /SUBSYSTEM:WINDOWS /TLBID:1 /DYNAMICBASE /NXCOMPAT /IMPLIB:"D:\OSIPOV\PROGRAMMINGII\GAP-275-01-PROGRAMMING-FOR-GAMES-2\MODULE_2\CLASSPROJECT\MEMORYGAME\DEBUG\MEMORYGAME.LIB" /MACHINE:X86 DEBUG\MAIN.OBJDEBUG\MEMORYGAME.OBJ
