^D:\OSIPOV\BITBUCKET\GAP-275-01-PROGRAMMING-FOR-GAMES-2\MODULE_4\HOMEWORK\OSIPOV_VADIM_MODULE_4_TICTACTOE_WITH_SOUNDS\TICTACTOEGAME\TICTACTOEGAME\GAMEBOARD.CPP
/c /I"D:\Osipov\bitbucket\gap-275-01-programming-for-games-2\Module_4\Homework\Osipov_Vadim_Module_4_TicTacToe_With_Sounds\TicTacToeGame\TicTacToeGame\SDL2_mixer\include" /I"D:\Osipov\bitbucket\gap-275-01-programming-for-games-2\Module_4\Homework\Osipov_Vadim_Module_4_TicTacToe_With_Sounds\TicTacToeGame\TicTacToeGame\SDL2\include" /ZI /nologo /W3 /WX- /sdl /Od /Oy- /D WIN32 /D _DEBUG /D _WINDOWS /D _UNICODE /D UNICODE /Gm /EHsc /RTC1 /MDd /GS /fp:precise /Zc:wchar_t /Zc:forScope /Fo"DEBUG\\" /Fd"DEBUG\VC120.PDB" /Gd /TP /analyze- D:\OSIPOV\BITBUCKET\GAP-275-01-PROGRAMMING-FOR-GAMES-2\MODULE_4\HOMEWORK\OSIPOV_VADIM_MODULE_4_TICTACTOE_WITH_SOUNDS\TICTACTOEGAME\TICTACTOEGAME\GAMEBOARD.CPP
^D:\OSIPOV\BITBUCKET\GAP-275-01-PROGRAMMING-FOR-GAMES-2\MODULE_4\HOMEWORK\OSIPOV_VADIM_MODULE_4_TICTACTOE_WITH_SOUNDS\TICTACTOEGAME\TICTACTOEGAME\MAIN.CPP
/c /I"D:\Osipov\bitbucket\gap-275-01-programming-for-games-2\Module_4\Homework\Osipov_Vadim_Module_4_TicTacToe_With_Sounds\TicTacToeGame\TicTacToeGame\SDL2_mixer\include" /I"D:\Osipov\bitbucket\gap-275-01-programming-for-games-2\Module_4\Homework\Osipov_Vadim_Module_4_TicTacToe_With_Sounds\TicTacToeGame\TicTacToeGame\SDL2\include" /ZI /nologo /W3 /WX- /sdl /Od /Oy- /D WIN32 /D _DEBUG /D _WINDOWS /D _UNICODE /D UNICODE /Gm /EHsc /RTC1 /MDd /GS /fp:precise /Zc:wchar_t /Zc:forScope /Fo"DEBUG\\" /Fd"DEBUG\VC120.PDB" /Gd /TP /analyze- D:\OSIPOV\BITBUCKET\GAP-275-01-PROGRAMMING-FOR-GAMES-2\MODULE_4\HOMEWORK\OSIPOV_VADIM_MODULE_4_TICTACTOE_WITH_SOUNDS\TICTACTOEGAME\TICTACTOEGAME\MAIN.CPP
^D:\OSIPOV\BITBUCKET\GAP-275-01-PROGRAMMING-FOR-GAMES-2\MODULE_4\HOMEWORK\OSIPOV_VADIM_MODULE_4_TICTACTOE_WITH_SOUNDS\TICTACTOEGAME\TICTACTOEGAME\PLAYER.CPP
/c /I"D:\Osipov\bitbucket\gap-275-01-programming-for-games-2\Module_4\Homework\Osipov_Vadim_Module_4_TicTacToe_With_Sounds\TicTacToeGame\TicTacToeGame\SDL2_mixer\include" /I"D:\Osipov\bitbucket\gap-275-01-programming-for-games-2\Module_4\Homework\Osipov_Vadim_Module_4_TicTacToe_With_Sounds\TicTacToeGame\TicTacToeGame\SDL2\include" /ZI /nologo /W3 /WX- /sdl /Od /Oy- /D WIN32 /D _DEBUG /D _WINDOWS /D _UNICODE /D UNICODE /Gm /EHsc /RTC1 /MDd /GS /fp:precise /Zc:wchar_t /Zc:forScope /Fo"DEBUG\\" /Fd"DEBUG\VC120.PDB" /Gd /TP /analyze- D:\OSIPOV\BITBUCKET\GAP-275-01-PROGRAMMING-FOR-GAMES-2\MODULE_4\HOMEWORK\OSIPOV_VADIM_MODULE_4_TICTACTOE_WITH_SOUNDS\TICTACTOEGAME\TICTACTOEGAME\PLAYER.CPP
^D:\OSIPOV\BITBUCKET\GAP-275-01-PROGRAMMING-FOR-GAMES-2\MODULE_4\HOMEWORK\OSIPOV_VADIM_MODULE_4_TICTACTOE_WITH_SOUNDS\TICTACTOEGAME\TICTACTOEGAME\TICTACTOEGAME.CPP
/c /I"D:\Osipov\bitbucket\gap-275-01-programming-for-games-2\Module_4\Homework\Osipov_Vadim_Module_4_TicTacToe_With_Sounds\TicTacToeGame\TicTacToeGame\SDL2_mixer\include" /I"D:\Osipov\bitbucket\gap-275-01-programming-for-games-2\Module_4\Homework\Osipov_Vadim_Module_4_TicTacToe_With_Sounds\TicTacToeGame\TicTacToeGame\SDL2\include" /ZI /nologo /W3 /WX- /sdl /Od /Oy- /D WIN32 /D _DEBUG /D _WINDOWS /D _UNICODE /D UNICODE /Gm /EHsc /RTC1 /MDd /GS /fp:precise /Zc:wchar_t /Zc:forScope /Fo"DEBUG\\" /Fd"DEBUG\VC120.PDB" /Gd /TP /analyze- D:\OSIPOV\BITBUCKET\GAP-275-01-PROGRAMMING-FOR-GAMES-2\MODULE_4\HOMEWORK\OSIPOV_VADIM_MODULE_4_TICTACTOE_WITH_SOUNDS\TICTACTOEGAME\TICTACTOEGAME\TICTACTOEGAME.CPP
^D:\OSIPOV\BITBUCKET\GAP-275-01-PROGRAMMING-FOR-GAMES-2\MODULE_4\HOMEWORK\OSIPOV_VADIM_MODULE_4_TICTACTOE_WITH_SOUNDS\TICTACTOEGAME\TICTACTOEGAME\TILE.CPP
/c /I"D:\Osipov\bitbucket\gap-275-01-programming-for-games-2\Module_4\Homework\Osipov_Vadim_Module_4_TicTacToe_With_Sounds\TicTacToeGame\TicTacToeGame\SDL2_mixer\include" /I"D:\Osipov\bitbucket\gap-275-01-programming-for-games-2\Module_4\Homework\Osipov_Vadim_Module_4_TicTacToe_With_Sounds\TicTacToeGame\TicTacToeGame\SDL2\include" /ZI /nologo /W3 /WX- /sdl /Od /Oy- /D WIN32 /D _DEBUG /D _WINDOWS /D _UNICODE /D UNICODE /Gm /EHsc /RTC1 /MDd /GS /fp:precise /Zc:wchar_t /Zc:forScope /Fo"DEBUG\\" /Fd"DEBUG\VC120.PDB" /Gd /TP /analyze- D:\OSIPOV\BITBUCKET\GAP-275-01-PROGRAMMING-FOR-GAMES-2\MODULE_4\HOMEWORK\OSIPOV_VADIM_MODULE_4_TICTACTOE_WITH_SOUNDS\TICTACTOEGAME\TICTACTOEGAME\TILE.CPP
