^D:\OSIPOV\BITBUCKET\GAP-275-01-PROGRAMMING-FOR-GAMES-2\MODULE_4\HOMEWORK\OSIPOV_VADIM_MODULE_4_TICTACTOE_WITH_SOUNDS\TICTACTOEGAME\TICTACTOEGAME\GAMEBOARD.CPP|D:\OSIPOV\BITBUCKET\GAP-275-01-PROGRAMMING-FOR-GAMES-2\MODULE_4\HOMEWORK\OSIPOV_VADIM_MODULE_4_TICTACTOE_WITH_SOUNDS\TICTACTOEGAME\TICTACTOEGAME\MAIN.CPP|D:\OSIPOV\BITBUCKET\GAP-275-01-PROGRAMMING-FOR-GAMES-2\MODULE_4\HOMEWORK\OSIPOV_VADIM_MODULE_4_TICTACTOE_WITH_SOUNDS\TICTACTOEGAME\TICTACTOEGAME\PLAYER.CPP|D:\OSIPOV\BITBUCKET\GAP-275-01-PROGRAMMING-FOR-GAMES-2\MODULE_4\HOMEWORK\OSIPOV_VADIM_MODULE_4_TICTACTOE_WITH_SOUNDS\TICTACTOEGAME\TICTACTOEGAME\TICTACTOEGAME.CPP|D:\OSIPOV\BITBUCKET\GAP-275-01-PROGRAMMING-FOR-GAMES-2\MODULE_4\HOMEWORK\OSIPOV_VADIM_MODULE_4_TICTACTOE_WITH_SOUNDS\TICTACTOEGAME\TICTACTOEGAME\TILE.CPP
D:\OSIPOV\BITBUCKET\GAP-275-01-PROGRAMMING-FOR-GAMES-2\MODULE_4\HOMEWORK\OSIPOV_VADIM_MODULE_4_TICTACTOE_WITH_SOUNDS\TICTACTOEGAME\TICTACTOEGAME\DEBUG\VC120.PDB
D:\OSIPOV\BITBUCKET\GAP-275-01-PROGRAMMING-FOR-GAMES-2\MODULE_4\HOMEWORK\OSIPOV_VADIM_MODULE_4_TICTACTOE_WITH_SOUNDS\TICTACTOEGAME\TICTACTOEGAME\DEBUG\VC120.IDB
D:\OSIPOV\BITBUCKET\GAP-275-01-PROGRAMMING-FOR-GAMES-2\MODULE_4\HOMEWORK\OSIPOV_VADIM_MODULE_4_TICTACTOE_WITH_SOUNDS\TICTACTOEGAME\TICTACTOEGAME\DEBUG\GAMEBOARD.OBJ
D:\OSIPOV\BITBUCKET\GAP-275-01-PROGRAMMING-FOR-GAMES-2\MODULE_4\HOMEWORK\OSIPOV_VADIM_MODULE_4_TICTACTOE_WITH_SOUNDS\TICTACTOEGAME\TICTACTOEGAME\DEBUG\MAIN.OBJ
D:\OSIPOV\BITBUCKET\GAP-275-01-PROGRAMMING-FOR-GAMES-2\MODULE_4\HOMEWORK\OSIPOV_VADIM_MODULE_4_TICTACTOE_WITH_SOUNDS\TICTACTOEGAME\TICTACTOEGAME\DEBUG\PLAYER.OBJ
D:\OSIPOV\BITBUCKET\GAP-275-01-PROGRAMMING-FOR-GAMES-2\MODULE_4\HOMEWORK\OSIPOV_VADIM_MODULE_4_TICTACTOE_WITH_SOUNDS\TICTACTOEGAME\TICTACTOEGAME\DEBUG\TICTACTOEGAME.OBJ
D:\OSIPOV\BITBUCKET\GAP-275-01-PROGRAMMING-FOR-GAMES-2\MODULE_4\HOMEWORK\OSIPOV_VADIM_MODULE_4_TICTACTOE_WITH_SOUNDS\TICTACTOEGAME\TICTACTOEGAME\DEBUG\TILE.OBJ
^D:\OSIPOV\BITBUCKET\GAP-275-01-PROGRAMMING-FOR-GAMES-2\MODULE_4\HOMEWORK\OSIPOV_VADIM_MODULE_4_TICTACTOE_WITH_SOUNDS\TICTACTOEGAME\TICTACTOEGAME\GAMEBOARD.CPP
D:\OSIPOV\BITBUCKET\GAP-275-01-PROGRAMMING-FOR-GAMES-2\MODULE_4\HOMEWORK\OSIPOV_VADIM_MODULE_4_TICTACTOE_WITH_SOUNDS\TICTACTOEGAME\TICTACTOEGAME\DEBUG\VC120.PDB
^D:\OSIPOV\BITBUCKET\GAP-275-01-PROGRAMMING-FOR-GAMES-2\MODULE_4\HOMEWORK\OSIPOV_VADIM_MODULE_4_TICTACTOE_WITH_SOUNDS\TICTACTOEGAME\TICTACTOEGAME\MAIN.CPP
D:\OSIPOV\BITBUCKET\GAP-275-01-PROGRAMMING-FOR-GAMES-2\MODULE_4\HOMEWORK\OSIPOV_VADIM_MODULE_4_TICTACTOE_WITH_SOUNDS\TICTACTOEGAME\TICTACTOEGAME\DEBUG\VC120.PDB
^D:\OSIPOV\BITBUCKET\GAP-275-01-PROGRAMMING-FOR-GAMES-2\MODULE_4\HOMEWORK\OSIPOV_VADIM_MODULE_4_TICTACTOE_WITH_SOUNDS\TICTACTOEGAME\TICTACTOEGAME\PLAYER.CPP
D:\OSIPOV\BITBUCKET\GAP-275-01-PROGRAMMING-FOR-GAMES-2\MODULE_4\HOMEWORK\OSIPOV_VADIM_MODULE_4_TICTACTOE_WITH_SOUNDS\TICTACTOEGAME\TICTACTOEGAME\DEBUG\VC120.PDB
^D:\OSIPOV\BITBUCKET\GAP-275-01-PROGRAMMING-FOR-GAMES-2\MODULE_4\HOMEWORK\OSIPOV_VADIM_MODULE_4_TICTACTOE_WITH_SOUNDS\TICTACTOEGAME\TICTACTOEGAME\TICTACTOEGAME.CPP
D:\OSIPOV\BITBUCKET\GAP-275-01-PROGRAMMING-FOR-GAMES-2\MODULE_4\HOMEWORK\OSIPOV_VADIM_MODULE_4_TICTACTOE_WITH_SOUNDS\TICTACTOEGAME\TICTACTOEGAME\DEBUG\VC120.PDB
^D:\OSIPOV\BITBUCKET\GAP-275-01-PROGRAMMING-FOR-GAMES-2\MODULE_4\HOMEWORK\OSIPOV_VADIM_MODULE_4_TICTACTOE_WITH_SOUNDS\TICTACTOEGAME\TICTACTOEGAME\TILE.CPP
D:\OSIPOV\BITBUCKET\GAP-275-01-PROGRAMMING-FOR-GAMES-2\MODULE_4\HOMEWORK\OSIPOV_VADIM_MODULE_4_TICTACTOE_WITH_SOUNDS\TICTACTOEGAME\TICTACTOEGAME\DEBUG\VC120.PDB
