^D:\OSIPOV\GAP-275-01-PROGRAMMING-FOR-GAMES-2\MODULE_9\OPENGL_DEMO\OPENGL_DEMO\MAIN.CPP
/c /I"glew-1.13.0\include" /ISDL2\include /ZI /nologo /W3 /WX- /sdl /Od /Oy- /D WIN32 /D _DEBUG /D _WINDOWS /D _UNICODE /D UNICODE /Gm /EHsc /RTC1 /MDd /GS /fp:precise /Zc:wchar_t /Zc:forScope /Fo"DEBUG\\" /Fd"DEBUG\VC120.PDB" /Gd /TP /analyze- D:\OSIPOV\GAP-275-01-PROGRAMMING-FOR-GAMES-2\MODULE_9\OPENGL_DEMO\OPENGL_DEMO\MAIN.CPP
^D:\OSIPOV\BITBUCKET\GAP-275-01-PROGRAMMING-FOR-GAMES-2\MODULE_9\OPENGL_DEMO\OPENGL_DEMO\MAIN.CPP
/c /I"glew-1.13.0\include" /ISDL2\include /ZI /nologo /W3 /WX- /sdl /Od /Oy- /D WIN32 /D _DEBUG /D _WINDOWS /D _UNICODE /D UNICODE /Gm /EHsc /RTC1 /MDd /GS /fp:precise /Zc:wchar_t /Zc:forScope /Fo"DEBUG\\" /Fd"DEBUG\VC120.PDB" /Gd /TP /analyze- D:\OSIPOV\BITBUCKET\GAP-275-01-PROGRAMMING-FOR-GAMES-2\MODULE_9\OPENGL_DEMO\OPENGL_DEMO\MAIN.CPP
^D:\OSIPOV\BITBUCKET\GAP-275-01-PROGRAMMING-FOR-GAMES-2\MODULE_10\OPENGL_DEMO\OPENGL_DEMO\MAIN.CPP
/c /I"glew-1.13.0\include" /ISDL2\include /ZI /nologo /W3 /WX- /sdl /Od /Oy- /D WIN32 /D _DEBUG /D _WINDOWS /D _UNICODE /D UNICODE /Gm /EHsc /RTC1 /MDd /GS /fp:precise /Zc:wchar_t /Zc:forScope /Fo"DEBUG\\" /Fd"DEBUG\VC120.PDB" /Gd /TP /analyze- D:\OSIPOV\BITBUCKET\GAP-275-01-PROGRAMMING-FOR-GAMES-2\MODULE_10\OPENGL_DEMO\OPENGL_DEMO\MAIN.CPP
