# Hello!
v -0.8 0.6 0.1
v -0.6 0.6 0.2
v -0.6 -0.4 0.3
v -0.8 -0.4 0.4
v -0.4 0.6 0.5
v -0.2 0.6 0.4
v -0.2 -0.4 0.3
v -0.4 -0.4 0.2
v -0.6 0.2 0.1
v -0.4 0.2 0.0
v -0.4 0.0 0.1
v -0.6 0.0 0.2
v -0.6 0.2 0.3
v 0.2 0.2 0.4
v 0.4 0.2 0.5
v 0.2 -0.4 0.4
v 0.4 -0.4 0.3
v 0.2 0.6 0.2
v 0.4 0.6 0.1
v 0.2 0.4 0.0
v 0.4 0.4 0.1

f 1 2 3
f 1 3 4
f 5 6 7
f 5 7 8
f 9 10 11
f 11 12 13
f 14 15 16
f 15 17 16
f 18 19 20
f 19 21 20

