^D:\OSIPOV\BITBUCKET\GAP-275-01-PROGRAMMING-FOR-GAMES-2\MIDTERM\TOWERDEFENSE\TOWERDEFENSE\DEBUG\ARCHERTOWERBEHAVIOR.OBJ|D:\OSIPOV\BITBUCKET\GAP-275-01-PROGRAMMING-FOR-GAMES-2\MIDTERM\TOWERDEFENSE\TOWERDEFENSE\DEBUG\BEHAVIOR.OBJ|D:\OSIPOV\BITBUCKET\GAP-275-01-PROGRAMMING-FOR-GAMES-2\MIDTERM\TOWERDEFENSE\TOWERDEFENSE\DEBUG\COMPONENT.OBJ|D:\OSIPOV\BITBUCKET\GAP-275-01-PROGRAMMING-FOR-GAMES-2\MIDTERM\TOWERDEFENSE\TOWERDEFENSE\DEBUG\ENEMYBEHAVIOR.OBJ|D:\OSIPOV\BITBUCKET\GAP-275-01-PROGRAMMING-FOR-GAMES-2\MIDTERM\TOWERDEFENSE\TOWERDEFENSE\DEBUG\ENEMYMANAGER.OBJ|D:\OSIPOV\BITBUCKET\GAP-275-01-PROGRAMMING-FOR-GAMES-2\MIDTERM\TOWERDEFENSE\TOWERDEFENSE\DEBUG\ENEMYSPAWNBEHAVIOR.OBJ|D:\OSIPOV\BITBUCKET\GAP-275-01-PROGRAMMING-FOR-GAMES-2\MIDTERM\TOWERDEFENSE\TOWERDEFENSE\DEBUG\EVENTHANDLER.OBJ|D:\OSIPOV\BITBUCKET\GAP-275-01-PROGRAMMING-FOR-GAMES-2\MIDTERM\TOWERDEFENSE\TOWERDEFENSE\DEBUG\GAMEFIELD.OBJ|D:\OSIPOV\BITBUCKET\GAP-275-01-PROGRAMMING-FOR-GAMES-2\MIDTERM\TOWERDEFENSE\TOWERDEFENSE\DEBUG\GAMEOBJECTFACTORY.OBJ|D:\OSIPOV\BITBUCKET\GAP-275-01-PROGRAMMING-FOR-GAMES-2\MIDTERM\TOWERDEFENSE\TOWERDEFENSE\DEBUG\GAMEPIECE.OBJ|D:\OSIPOV\BITBUCKET\GAP-275-01-PROGRAMMING-FOR-GAMES-2\MIDTERM\TOWERDEFENSE\TOWERDEFENSE\DEBUG\INPUTMANAGER.OBJ|D:\OSIPOV\BITBUCKET\GAP-275-01-PROGRAMMING-FOR-GAMES-2\MIDTERM\TOWERDEFENSE\TOWERDEFENSE\DEBUG\INTERACTIBLECOMP.OBJ|D:\OSIPOV\BITBUCKET\GAP-275-01-PROGRAMMING-FOR-GAMES-2\MIDTERM\TOWERDEFENSE\TOWERDEFENSE\DEBUG\MAIN.OBJ|D:\OSIPOV\BITBUCKET\GAP-275-01-PROGRAMMING-FOR-GAMES-2\MIDTERM\TOWERDEFENSE\TOWERDEFENSE\DEBUG\OBSERVERMANAGER.OBJ|D:\OSIPOV\BITBUCKET\GAP-275-01-PROGRAMMING-FOR-GAMES-2\MIDTERM\TOWERDEFENSE\TOWERDEFENSE\DEBUG\PLAYER.OBJ|D:\OSIPOV\BITBUCKET\GAP-275-01-PROGRAMMING-FOR-GAMES-2\MIDTERM\TOWERDEFENSE\TOWERDEFENSE\DEBUG\PROJECTILE.OBJ|D:\OSIPOV\BITBUCKET\GAP-275-01-PROGRAMMING-FOR-GAMES-2\MIDTERM\TOWERDEFENSE\TOWERDEFENSE\DEBUG\RENDERER.OBJ|D:\OSIPOV\BITBUCKET\GAP-275-01-PROGRAMMING-FOR-GAMES-2\MIDTERM\TOWERDEFENSE\TOWERDEFENSE\DEBUG\RENDERERCOMP.OBJ|D:\OSIPOV\BITBUCKET\GAP-275-01-PROGRAMMING-FOR-GAMES-2\MIDTERM\TOWERDEFENSE\TOWERDEFENSE\DEBUG\SOUNDMANAGER.OBJ|D:\OSIPOV\BITBUCKET\GAP-275-01-PROGRAMMING-FOR-GAMES-2\MIDTERM\TOWERDEFENSE\TOWERDEFENSE\DEBUG\STRUCTURE.OBJ|D:\OSIPOV\BITBUCKET\GAP-275-01-PROGRAMMING-FOR-GAMES-2\MIDTERM\TOWERDEFENSE\TOWERDEFENSE\DEBUG\STRUCTUREMANAGER.OBJ|D:\OSIPOV\BITBUCKET\GAP-275-01-PROGRAMMING-FOR-GAMES-2\MIDTERM\TOWERDEFENSE\TOWERDEFENSE\DEBUG\TILE.OBJ|D:\OSIPOV\BITBUCKET\GAP-275-01-PROGRAMMING-FOR-GAMES-2\MIDTERM\TOWERDEFENSE\TOWERDEFENSE\DEBUG\TILECASTLEBEHAVIOR.OBJ|D:\OSIPOV\BITBUCKET\GAP-275-01-PROGRAMMING-FOR-GAMES-2\MIDTERM\TOWERDEFENSE\TOWERDEFENSE\DEBUG\TILEROADBEHAVIOR.OBJ|D:\OSIPOV\BITBUCKET\GAP-275-01-PROGRAMMING-FOR-GAMES-2\MIDTERM\TOWERDEFENSE\TOWERDEFENSE\DEBUG\TOWERBASEBEHAVIOR.OBJ|D:\OSIPOV\BITBUCKET\GAP-275-01-PROGRAMMING-FOR-GAMES-2\MIDTERM\TOWERDEFENSE\TOWERDEFENSE\DEBUG\WORLD.OBJ
D:\OSIPOV\BITBUCKET\GAP-275-01-PROGRAMMING-FOR-GAMES-2\MIDTERM\TOWERDEFENSE\DEBUG\TOWERDEFENSE.ILK
D:\OSIPOV\BITBUCKET\GAP-275-01-PROGRAMMING-FOR-GAMES-2\MIDTERM\TOWERDEFENSE\DEBUG\TOWERDEFENSE.EXE
D:\OSIPOV\BITBUCKET\GAP-275-01-PROGRAMMING-FOR-GAMES-2\MIDTERM\TOWERDEFENSE\DEBUG\TOWERDEFENSE.PDB
