^D:\OSIPOV\GAP-275-01-PROGRAMMING-FOR-GAMES-2\FINAL\OSIPOV_VADIM__LATE_OBJRENDERING\OSIPOV_VADIM__LATE_OBJRENDERING\MAIN.CPP
/c /I"glew-1.13.0\include" /ISDL2\include /ZI /nologo /W3 /WX- /sdl /Od /Oy- /D WIN32 /D _DEBUG /D _WINDOWS /D _UNICODE /D UNICODE /Gm /EHsc /RTC1 /MDd /GS /fp:precise /Zc:wchar_t /Zc:forScope /Fo"DEBUG\\" /Fd"DEBUG\VC120.PDB" /Gd /TP /analyze- D:\OSIPOV\GAP-275-01-PROGRAMMING-FOR-GAMES-2\FINAL\OSIPOV_VADIM__LATE_OBJRENDERING\OSIPOV_VADIM__LATE_OBJRENDERING\MAIN.CPP
^D:\OSIPOV\GAP-275-01-PROGRAMMING-FOR-GAMES-2\FINAL\OSIPOV_VADIM__LATE_OBJRENDERING\OSIPOV_VADIM__LATE_OBJRENDERING\OBJECT\OBJECT.CPP
/c /I"glew-1.13.0\include" /ISDL2\include /ZI /nologo /W3 /WX- /sdl /Od /Oy- /D WIN32 /D _DEBUG /D _WINDOWS /D _UNICODE /D UNICODE /Gm /EHsc /RTC1 /MDd /GS /fp:precise /Zc:wchar_t /Zc:forScope /Fo"DEBUG\\" /Fd"DEBUG\VC120.PDB" /Gd /TP /analyze- D:\OSIPOV\GAP-275-01-PROGRAMMING-FOR-GAMES-2\FINAL\OSIPOV_VADIM__LATE_OBJRENDERING\OSIPOV_VADIM__LATE_OBJRENDERING\OBJECT\OBJECT.CPP
^D:\OSIPOV\GAP-275-01-PROGRAMMING-FOR-GAMES-2\FINAL\OSIPOV_VADIM__LATE_OBJRENDERING\OSIPOV_VADIM__LATE_OBJRENDERING\OBJREADER\OBJREADER.CPP
/c /I"glew-1.13.0\include" /ISDL2\include /ZI /nologo /W3 /WX- /sdl /Od /Oy- /D WIN32 /D _DEBUG /D _WINDOWS /D _UNICODE /D UNICODE /Gm /EHsc /RTC1 /MDd /GS /fp:precise /Zc:wchar_t /Zc:forScope /Fo"DEBUG\\" /Fd"DEBUG\VC120.PDB" /Gd /TP /analyze- D:\OSIPOV\GAP-275-01-PROGRAMMING-FOR-GAMES-2\FINAL\OSIPOV_VADIM__LATE_OBJRENDERING\OSIPOV_VADIM__LATE_OBJRENDERING\OBJREADER\OBJREADER.CPP
^D:\OSIPOV\GAP-275-01-PROGRAMMING-FOR-GAMES-2\FINAL\OSIPOV_VADIM__LATE_OBJRENDERING\OSIPOV_VADIM__LATE_OBJRENDERING\RENDERER\RENDERER.CPP
/c /I"glew-1.13.0\include" /ISDL2\include /ZI /nologo /W3 /WX- /sdl /Od /Oy- /D WIN32 /D _DEBUG /D _WINDOWS /D _UNICODE /D UNICODE /Gm /EHsc /RTC1 /MDd /GS /fp:precise /Zc:wchar_t /Zc:forScope /Fo"DEBUG\\" /Fd"DEBUG\VC120.PDB" /Gd /TP /analyze- D:\OSIPOV\GAP-275-01-PROGRAMMING-FOR-GAMES-2\FINAL\OSIPOV_VADIM__LATE_OBJRENDERING\OSIPOV_VADIM__LATE_OBJRENDERING\RENDERER\RENDERER.CPP
