^D:\OSIPOV\GAP-275-01-PROGRAMMING-FOR-GAMES-2\FINAL\OSIPOV_VADIM__LATE_OBJRENDERING\OSIPOV_VADIM__LATE_OBJRENDERING\DEBUG\MAIN.OBJ|D:\OSIPOV\GAP-275-01-PROGRAMMING-FOR-GAMES-2\FINAL\OSIPOV_VADIM__LATE_OBJRENDERING\OSIPOV_VADIM__LATE_OBJRENDERING\DEBUG\OBJECT.OBJ|D:\OSIPOV\GAP-275-01-PROGRAMMING-FOR-GAMES-2\FINAL\OSIPOV_VADIM__LATE_OBJRENDERING\OSIPOV_VADIM__LATE_OBJRENDERING\DEBUG\OBJREADER.OBJ|D:\OSIPOV\GAP-275-01-PROGRAMMING-FOR-GAMES-2\FINAL\OSIPOV_VADIM__LATE_OBJRENDERING\OSIPOV_VADIM__LATE_OBJRENDERING\DEBUG\RENDERER.OBJ
D:\OSIPOV\GAP-275-01-PROGRAMMING-FOR-GAMES-2\FINAL\OSIPOV_VADIM__LATE_OBJRENDERING\DEBUG\OSIPOV_VADIM__LATE_OBJRENDERING.ILK
D:\OSIPOV\GAP-275-01-PROGRAMMING-FOR-GAMES-2\FINAL\OSIPOV_VADIM__LATE_OBJRENDERING\DEBUG\OSIPOV_VADIM__LATE_OBJRENDERING.EXE
D:\OSIPOV\GAP-275-01-PROGRAMMING-FOR-GAMES-2\FINAL\OSIPOV_VADIM__LATE_OBJRENDERING\DEBUG\OSIPOV_VADIM__LATE_OBJRENDERING.PDB
