^D:\OSIPOV\GAP-275-01-PROGRAMMING-FOR-GAMES-2\MODULE_10\MODULE_10_HOMEWORK\MODULE_10_HOMEWORK\DEBUG\MAIN.OBJ|D:\OSIPOV\GAP-275-01-PROGRAMMING-FOR-GAMES-2\MODULE_10\MODULE_10_HOMEWORK\MODULE_10_HOMEWORK\DEBUG\OBJECT.OBJ|D:\OSIPOV\GAP-275-01-PROGRAMMING-FOR-GAMES-2\MODULE_10\MODULE_10_HOMEWORK\MODULE_10_HOMEWORK\DEBUG\OBJREADER.OBJ
D:\OSIPOV\GAP-275-01-PROGRAMMING-FOR-GAMES-2\MODULE_10\MODULE_10_HOMEWORK\MODULE_10_HOMEWORK\SDL2\LIB\X86\SDL2MAIN.LIB
D:\OSIPOV\GAP-275-01-PROGRAMMING-FOR-GAMES-2\MODULE_10\MODULE_10_HOMEWORK\MODULE_10_HOMEWORK\SDL2\LIB\X86\SDL2.LIB
D:\OSIPOV\GAP-275-01-PROGRAMMING-FOR-GAMES-2\MODULE_10\MODULE_10_HOMEWORK\MODULE_10_HOMEWORK\GLEW-1.13.0\LIB\RELEASE\WIN32\GLEW32.LIB
C:\PROGRAM FILES (X86)\WINDOWS KITS\8.1\LIB\WINV6.3\UM\X86\OPENGL32.LIB
C:\PROGRAM FILES (X86)\WINDOWS KITS\8.1\LIB\WINV6.3\UM\X86\KERNEL32.LIB
C:\PROGRAM FILES (X86)\WINDOWS KITS\8.1\LIB\WINV6.3\UM\X86\USER32.LIB
C:\PROGRAM FILES (X86)\WINDOWS KITS\8.1\LIB\WINV6.3\UM\X86\GDI32.LIB
C:\PROGRAM FILES (X86)\WINDOWS KITS\8.1\LIB\WINV6.3\UM\X86\WINSPOOL.LIB
C:\PROGRAM FILES (X86)\WINDOWS KITS\8.1\LIB\WINV6.3\UM\X86\COMDLG32.LIB
C:\PROGRAM FILES (X86)\WINDOWS KITS\8.1\LIB\WINV6.3\UM\X86\ADVAPI32.LIB
C:\PROGRAM FILES (X86)\WINDOWS KITS\8.1\LIB\WINV6.3\UM\X86\SHELL32.LIB
C:\PROGRAM FILES (X86)\WINDOWS KITS\8.1\LIB\WINV6.3\UM\X86\OLE32.LIB
C:\PROGRAM FILES (X86)\WINDOWS KITS\8.1\LIB\WINV6.3\UM\X86\OLEAUT32.LIB
C:\PROGRAM FILES (X86)\WINDOWS KITS\8.1\LIB\WINV6.3\UM\X86\UUID.LIB
C:\PROGRAM FILES (X86)\WINDOWS KITS\8.1\LIB\WINV6.3\UM\X86\ODBC32.LIB
C:\PROGRAM FILES (X86)\WINDOWS KITS\8.1\LIB\WINV6.3\UM\X86\ODBCCP32.LIB
D:\OSIPOV\GAP-275-01-PROGRAMMING-FOR-GAMES-2\MODULE_10\MODULE_10_HOMEWORK\MODULE_10_HOMEWORK\DEBUG\MAIN.OBJ
D:\OSIPOV\GAP-275-01-PROGRAMMING-FOR-GAMES-2\MODULE_10\MODULE_10_HOMEWORK\MODULE_10_HOMEWORK\DEBUG\OBJREADER.OBJ
D:\OSIPOV\GAP-275-01-PROGRAMMING-FOR-GAMES-2\MODULE_10\MODULE_10_HOMEWORK\MODULE_10_HOMEWORK\DEBUG\OBJECT.OBJ
C:\WINDOWS\GLOBALIZATION\SORTING\SORTDEFAULT.NLS
C:\PROGRAM FILES (X86)\MICROSOFT VISUAL STUDIO 12.0\VC\LIB\MSVCRTD.LIB
C:\PROGRAM FILES (X86)\MICROSOFT VISUAL STUDIO 12.0\VC\LIB\OLDNAMES.LIB
C:\PROGRAM FILES (X86)\MICROSOFT VISUAL STUDIO 12.0\VC\LIB\MSVCPRTD.LIB
C:\PROGRAM FILES (X86)\MICROSOFT VISUAL STUDIO 12.0\VC\LIB\MSVCRT.LIB
C:\PROGRAM FILES (X86)\MICROSOFT VISUAL STUDIO 12.0\VC\BIN\1033\LINKUI.DLL
C:\PROGRAM FILES (X86)\WINDOWS KITS\8.1\BIN\X86\RC.EXE
C:\PROGRAM FILES (X86)\MICROSOFT VISUAL STUDIO 12.0\VC\BIN\CVTRES.EXE
C:\WINDOWS\SYSTEM32\TZRES.DLL
